%!PS-Adobe-3.0 EPSF-3.0
%%Creator: MATLAB, The MathWorks, Inc. Version 8.1.0.604 (R2013a). Operating System: Linux 4.8.11-1-ARCH #1 SMP PREEMPT Sun Nov 27 09:26:14 CET 2016 x86_64.
%%Title: ./plotLFForce.eps
%%CreationDate: 12/07/2016  22:20:32
%%DocumentNeededFonts: Helvetica
%%DocumentProcessColors: Cyan Magenta Yellow Black
%%LanguageLevel: 2
%%Pages: 1
%%BoundingBox:    53   256   546   524
%%EndComments

%%BeginProlog
% MathWorks dictionary
/MathWorks 160 dict begin
% definition operators
/bdef {bind def} bind def
/ldef {load def} bind def
/xdef {exch def} bdef
/xstore {exch store} bdef
% operator abbreviations
/c  /clip ldef
/cc /concat ldef
/cp /closepath ldef
/gr /grestore ldef
/gs /gsave ldef
/mt /moveto ldef
/np /newpath ldef
/cm /currentmatrix ldef
/sm /setmatrix ldef
/rm /rmoveto ldef
/rl /rlineto ldef
/s {show newpath} bdef
/sc {setcmykcolor} bdef
/sr /setrgbcolor ldef
/sg /setgray ldef
/w /setlinewidth ldef
/j /setlinejoin ldef
/cap /setlinecap ldef
/rc {rectclip} bdef
/rf {rectfill} bdef
% page state control
/pgsv () def
/bpage {/pgsv save def} bdef
/epage {pgsv restore} bdef
/bplot /gsave ldef
/eplot {stroke grestore} bdef
% orientation switch
/portraitMode 0 def /landscapeMode 1 def /rotateMode 2 def
% coordinate system mappings
/dpi2point 0 def
% font control
/FontSize 0 def
/FMS {/FontSize xstore findfont [FontSize 0 0 FontSize neg 0 0]
  makefont setfont} bdef
/reencode {exch dup where {pop load} {pop StandardEncoding} ifelse
  exch dup 3 1 roll findfont dup length dict begin
  { 1 index /FID ne {def}{pop pop} ifelse } forall
  /Encoding exch def currentdict end definefont pop} bdef
/isroman {findfont /CharStrings get /Agrave known} bdef
/FMSR {3 1 roll 1 index dup isroman {reencode} {pop pop} ifelse
  exch FMS} bdef
/csm {1 dpi2point div -1 dpi2point div scale neg translate
 dup landscapeMode eq {pop -90 rotate}
  {rotateMode eq {90 rotate} if} ifelse} bdef
% line types: solid, dotted, dashed, dotdash
/SO { [] 0 setdash } bdef
/DO { [3 dpi2point mul 3 dpi2point mul] 0 setdash } bdef
/DA { [6 dpi2point mul] 0 setdash } bdef
/DD { [2 dpi2point mul 2 dpi2point mul 6 dpi2point mul 2 dpi2point mul] 0 setdash } bdef
% macros for lines and objects
/L {lineto stroke} bdef
/MP {3 1 roll moveto 1 sub {rlineto} repeat} bdef
/AP {{rlineto} repeat} bdef
/PDlw -1 def
/W {/PDlw currentlinewidth def setlinewidth} def
/PP {closepath eofill} bdef
/DP {closepath stroke} bdef
/MR {4 -2 roll moveto dup  0 exch rlineto exch 0 rlineto
  neg 0 exch rlineto closepath} bdef
/FR {MR stroke} bdef
/PR {MR fill} bdef
/L1i {{currentfile picstr readhexstring pop} image} bdef
/tMatrix matrix def
/MakeOval {newpath tMatrix currentmatrix pop translate scale
0 0 1 0 360 arc tMatrix setmatrix} bdef
/FO {MakeOval stroke} bdef
/PO {MakeOval fill} bdef
/PD {currentlinewidth 2 div 0 360 arc fill
   PDlw -1 eq not {PDlw w /PDlw -1 def} if} def
/FA {newpath tMatrix currentmatrix pop translate scale
  0 0 1 5 -2 roll arc tMatrix setmatrix stroke} bdef
/PA {newpath tMatrix currentmatrix pop	translate 0 0 moveto scale
  0 0 1 5 -2 roll arc closepath tMatrix setmatrix fill} bdef
/FAn {newpath tMatrix currentmatrix pop translate scale
  0 0 1 5 -2 roll arcn tMatrix setmatrix stroke} bdef
/PAn {newpath tMatrix currentmatrix pop translate 0 0 moveto scale
  0 0 1 5 -2 roll arcn closepath tMatrix setmatrix fill} bdef
/vradius 0 def /hradius 0 def /lry 0 def
/lrx 0 def /uly 0 def /ulx 0 def /rad 0 def
/MRR {/vradius xdef /hradius xdef /lry xdef /lrx xdef /uly xdef
  /ulx xdef newpath tMatrix currentmatrix pop ulx hradius add uly
  vradius add translate hradius vradius scale 0 0 1 180 270 arc 
  tMatrix setmatrix lrx hradius sub uly vradius add translate
  hradius vradius scale 0 0 1 270 360 arc tMatrix setmatrix
  lrx hradius sub lry vradius sub translate hradius vradius scale
  0 0 1 0 90 arc tMatrix setmatrix ulx hradius add lry vradius sub
  translate hradius vradius scale 0 0 1 90 180 arc tMatrix setmatrix
  closepath} bdef
/FRR {MRR stroke } bdef
/PRR {MRR fill } bdef
/MlrRR {/lry xdef /lrx xdef /uly xdef /ulx xdef /rad lry uly sub 2 div def
  newpath tMatrix currentmatrix pop ulx rad add uly rad add translate
  rad rad scale 0 0 1 90 270 arc tMatrix setmatrix lrx rad sub lry rad
  sub translate rad rad scale 0 0 1 270 90 arc tMatrix setmatrix
  closepath} bdef
/FlrRR {MlrRR stroke } bdef
/PlrRR {MlrRR fill } bdef
/MtbRR {/lry xdef /lrx xdef /uly xdef /ulx xdef /rad lrx ulx sub 2 div def
  newpath tMatrix currentmatrix pop ulx rad add uly rad add translate
  rad rad scale 0 0 1 180 360 arc tMatrix setmatrix lrx rad sub lry rad
  sub translate rad rad scale 0 0 1 0 180 arc tMatrix setmatrix
  closepath} bdef
/FtbRR {MtbRR stroke } bdef
/PtbRR {MtbRR fill } bdef
/stri 6 array def /dtri 6 array def
/smat 6 array def /dmat 6 array def
/tmat1 6 array def /tmat2 6 array def /dif 3 array def
/asub {/ind2 exch def /ind1 exch def dup dup
  ind1 get exch ind2 get sub exch } bdef
/tri_to_matrix {
  2 0 asub 3 1 asub 4 0 asub 5 1 asub
  dup 0 get exch 1 get 7 -1 roll astore } bdef
/compute_transform {
  dmat dtri tri_to_matrix tmat1 invertmatrix 
  smat stri tri_to_matrix tmat2 concatmatrix } bdef
/ds {stri astore pop} bdef
/dt {dtri astore pop} bdef
/db {2 copy /cols xdef /rows xdef mul dup 3 mul string
  currentfile 
  3 index 0 eq {/ASCIIHexDecode filter}
  {/ASCII85Decode filter 3 index 2 eq {/RunLengthDecode filter} if }
  ifelse exch readstring pop
  dup 0 3 index getinterval /rbmap xdef
  dup 2 index dup getinterval /gbmap xdef
  1 index dup 2 mul exch getinterval /bbmap xdef pop pop}bdef
/it {gs np dtri aload pop moveto lineto lineto cp c
  cols rows 8 compute_transform 
  rbmap gbmap bbmap true 3 colorimage gr}bdef
/il {newpath moveto lineto stroke}bdef
currentdict end def
%%EndProlog

%%BeginSetup
MathWorks begin

0 cap

end
%%EndSetup

%%Page: 1 1
%%BeginPageSetup
%%PageBoundingBox:    53   256   546   524
MathWorks begin
bpage
%%EndPageSetup

%%BeginObject: obj1
bplot

/dpi2point 12 def
portraitMode 0468 6420 csm

  174   121  5915  3220 rc
87 dict begin %Colortable dictionary
/c0 { 0.000000 0.000000 0.000000 sr} bdef
/c1 { 1.000000 1.000000 1.000000 sr} bdef
/c2 { 0.900000 0.000000 0.000000 sr} bdef
/c3 { 0.000000 0.820000 0.000000 sr} bdef
/c4 { 0.000000 0.000000 0.800000 sr} bdef
/c5 { 0.910000 0.820000 0.320000 sr} bdef
/c6 { 1.000000 0.260000 0.820000 sr} bdef
/c7 { 0.000000 0.820000 0.820000 sr} bdef
c0
1 j
1 sg
   0    0 6395 3342 rf
18 w
0 2492 5184 0 0 -2492 699 2797 4 MP
PP
-5184 0 0 2492 5184 0 0 -2492 699 2797 5 MP stroke
12 w
DO
SO
18 w
0 sg
 699 2797 mt 5883 2797 L
 699  305 mt 5883  305 L
 699 2797 mt  699  305 L
5883 2797 mt 5883  305 L
 699 2797 mt 5883 2797 L
 699 2797 mt  699  305 L
 699 2797 mt  699 2693 L
 699  305 mt  699  408 L
%%IncludeResource: font Helvetica
/Helvetica /ISOLatin1Encoding 240 FMSR

 633 3054 mt 
(0) s
 906 2797 mt  906 2745 L
 906  305 mt  906  356 L
1113 2797 mt 1113 2745 L
1113  305 mt 1113  356 L
1321 2797 mt 1321 2745 L
1321  305 mt 1321  356 L
1528 2797 mt 1528 2745 L
1528  305 mt 1528  356 L
1735 2797 mt 1735 2745 L
1735  305 mt 1735  356 L
1735 2797 mt 1735 2745 L
1735  305 mt 1735  356 L
1735 2797 mt 1735 2745 L
1735  305 mt 1735  356 L
1735 2797 mt 1735 2745 L
1735  305 mt 1735  356 L
1735 2797 mt 1735 2745 L
1735  305 mt 1735  356 L
1735 2797 mt 1735 2693 L
1735  305 mt 1735  408 L
1669 3054 mt 
(5) s
1943 2797 mt 1943 2745 L
1943  305 mt 1943  356 L
2150 2797 mt 2150 2745 L
2150  305 mt 2150  356 L
2357 2797 mt 2357 2745 L
2357  305 mt 2357  356 L
2565 2797 mt 2565 2745 L
2565  305 mt 2565  356 L
2772 2797 mt 2772 2745 L
2772  305 mt 2772  356 L
2772 2797 mt 2772 2745 L
2772  305 mt 2772  356 L
2772 2797 mt 2772 2745 L
2772  305 mt 2772  356 L
2772 2797 mt 2772 2745 L
2772  305 mt 2772  356 L
2772 2797 mt 2772 2745 L
2772  305 mt 2772  356 L
2772 2797 mt 2772 2693 L
2772  305 mt 2772  408 L
2639 3054 mt 
(10) s
2979 2797 mt 2979 2745 L
2979  305 mt 2979  356 L
3187 2797 mt 3187 2745 L
3187  305 mt 3187  356 L
3394 2797 mt 3394 2745 L
3394  305 mt 3394  356 L
3602 2797 mt 3602 2745 L
3602  305 mt 3602  356 L
3809 2797 mt 3809 2745 L
3809  305 mt 3809  356 L
3809 2797 mt 3809 2745 L
3809  305 mt 3809  356 L
3809 2797 mt 3809 2745 L
3809  305 mt 3809  356 L
3809 2797 mt 3809 2745 L
3809  305 mt 3809  356 L
3809 2797 mt 3809 2745 L
3809  305 mt 3809  356 L
3809 2797 mt 3809 2693 L
3809  305 mt 3809  408 L
3676 3054 mt 
(15) s
4016 2797 mt 4016 2745 L
4016  305 mt 4016  356 L
4224 2797 mt 4224 2745 L
4224  305 mt 4224  356 L
4431 2797 mt 4431 2745 L
4431  305 mt 4431  356 L
4638 2797 mt 4638 2745 L
4638  305 mt 4638  356 L
4846 2797 mt 4846 2745 L
4846  305 mt 4846  356 L
4846 2797 mt 4846 2745 L
4846  305 mt 4846  356 L
4846 2797 mt 4846 2745 L
4846  305 mt 4846  356 L
4846 2797 mt 4846 2745 L
4846  305 mt 4846  356 L
4846 2797 mt 4846 2745 L
4846  305 mt 4846  356 L
4846 2797 mt 4846 2693 L
4846  305 mt 4846  408 L
4713 3054 mt 
(20) s
5053 2797 mt 5053 2745 L
5053  305 mt 5053  356 L
5260 2797 mt 5260 2745 L
5260  305 mt 5260  356 L
5468 2797 mt 5468 2745 L
5468  305 mt 5468  356 L
5675 2797 mt 5675 2745 L
5675  305 mt 5675  356 L
5883 2797 mt 5883 2745 L
5883  305 mt 5883  356 L
5883 2797 mt 5883 2745 L
5883  305 mt 5883  356 L
5883 2797 mt 5883 2745 L
5883  305 mt 5883  356 L
5883 2797 mt 5883 2745 L
5883  305 mt 5883  356 L
5883 2797 mt 5883 2745 L
5883  305 mt 5883  356 L
5883 2797 mt 5883 2693 L
5883  305 mt 5883  408 L
5750 3054 mt 
(25) s
 699 2797 mt  802 2797 L
5883 2797 mt 5779 2797 L
 531 2886 mt 
(0) s
 699 2630 mt  750 2630 L
5883 2630 mt 5831 2630 L
 699 2464 mt  750 2464 L
5883 2464 mt 5831 2464 L
 699 2298 mt  750 2298 L
5883 2298 mt 5831 2298 L
 699 2132 mt  750 2132 L
5883 2132 mt 5831 2132 L
 699 1966 mt  750 1966 L
5883 1966 mt 5831 1966 L
 699 1966 mt  750 1966 L
5883 1966 mt 5831 1966 L
 699 1966 mt  750 1966 L
5883 1966 mt 5831 1966 L
 699 1966 mt  750 1966 L
5883 1966 mt 5831 1966 L
 699 1966 mt  750 1966 L
5883 1966 mt 5831 1966 L
 699 1966 mt  802 1966 L
5883 1966 mt 5779 1966 L
 531 2055 mt 
(1) s
 699 1800 mt  750 1800 L
5883 1800 mt 5831 1800 L
 699 1634 mt  750 1634 L
5883 1634 mt 5831 1634 L
 699 1467 mt  750 1467 L
5883 1467 mt 5831 1467 L
 699 1301 mt  750 1301 L
5883 1301 mt 5831 1301 L
 699 1135 mt  750 1135 L
5883 1135 mt 5831 1135 L
 699 1135 mt  750 1135 L
5883 1135 mt 5831 1135 L
 699 1135 mt  750 1135 L
5883 1135 mt 5831 1135 L
 699 1135 mt  750 1135 L
5883 1135 mt 5831 1135 L
 699 1135 mt  750 1135 L
5883 1135 mt 5831 1135 L
 699 1135 mt  802 1135 L
5883 1135 mt 5779 1135 L
 531 1224 mt 
(2) s
 699  969 mt  750  969 L
5883  969 mt 5831  969 L
 699  803 mt  750  803 L
5883  803 mt 5831  803 L
 699  637 mt  750  637 L
5883  637 mt 5831  637 L
 699  471 mt  750  471 L
5883  471 mt 5831  471 L
 699  305 mt  750  305 L
5883  305 mt 5831  305 L
 699  305 mt  750  305 L
5883  305 mt 5831  305 L
 699  305 mt  750  305 L
5883  305 mt 5831  305 L
 699  305 mt  750  305 L
5883  305 mt 5831  305 L
 699  305 mt  750  305 L
5883  305 mt 5831  305 L
 699  305 mt  802  305 L
5883  305 mt 5779  305 L
 531  394 mt 
(3) s
 699 2797 mt 5883 2797 L
 699  305 mt 5883  305 L
 699 2797 mt  699  305 L
5883 2797 mt 5883  305 L
gs 699 305 5185 2493 rc
30 w
/c8 { 0.160000 0.440000 1.000000 sr} bdef
c8
1 0 1 0 1 0 1 -1 0 -1 2 -2 1 -1 0 -2 
1 -1 0 -1 2 0 1 1 0 2 2 2 1 1 1 0 
1 0 1 0 -1 0 2 -2 1 -1 1 0 -1 0 2 2 
0 2 2 2 1 1 1 0 1 0 1 -1 1 0 1 0 
1 -1 1 -1 1 -1 1 0 1 1 1 0 -1 0 2 0 
0 -1 2 -2 0 -1 1 -1 1 -1 1 0 -1 0 2 2 
0 2 1 1 0 2 1 1 0 1 1 1 1 0 1 0 
-1 0 2 -2 0 -2 1 -1 0 -3 2 -2 1 0 -1 0 
2 2 0 2 2 2 1 1 1 -1 1 -1 1 0 1 1 
0 2 2 2 1 0 1 -1 1 -1 0 -2 2 -2 1 0 
1 0 1 1 1 0 1 0 0 -1 2 -2 0 -3 1 -1 
0 -1 1 -1 1 -1 1 0 0 2 1 1 0 1 1 1 
1 1 1 0 1 -1 1 -1 1 -1 1 0 1 1 0 1 
2 2 0 1 1 1 1 1 1 0 -1 0 2 -2 0 -1 
1 -1 0 -2 2 -2 1 0 1 1 1 1 1 1 1 0 
1 -1 1 0 1 1 1 1 0 1 1 1 0 3 1 1 
0 1 2 0 0 -1 1 -1 0 -3 1 -1 0 -2 1 -1 
0 -2 1 -1 1 0 1 0 0 1 2 2 1 1 1 0 
1 1 0 1 2 2 1 1 0 2 1 1 1 1 1 1 
1 -1 0 -1 1 -1 0 -1 1 -1 0 -2 1 -1 0 -2 
2 -2 1 -1 0 1 2 2 0 2 2 2 1 0 1 0 
-1 0 2 -2 1 0 1 0 1 1 1 1 1 1 1 0 
1 1 1 -1 1 -1 1 -1 1 -1 1 0 1 1 1 0 
0 -1 2 -2 0 -2 2 -2 1 -1 1 0 1 1 1 0 
1 0 1 0 1 0 1 -1 0 -1 2 -2 1 -1 1 0 
1 1 0 2 1 1 0 1 1 1 0 2 1 1 0 1 
1 1 1 0 1 0 1 0 1 0 1 0 1 1 1 0 
1 1 1 1 1 1 1 0 1 -1 1 -1 1 -1 1 0 
1 0 1 1 1 0 -1 0 2 0 1 -1 0 -1 1 -1 
0 -2 1 -1 0 -2 1 -1 0 -2 1 -1 0 -1 1 -1 
1 1 0 1 1 1 0 3 1 1 0 1 1 1 1 1 
1 0 1 -1 1 -1 1 -1 1 1 0 1 2 2 1 0 
1 0 1 0 1 -1 1 0 1 0 0 -1 2 -2 1 0 
1 1 0 1 1 1 0 2 1 1 0 1 1 1 1 0 
0 -1 2 -2 0 -2 2 -2 1 0 1 1 0 1 2 2 
0 2 1 1 0 1 1 1 1 0 1 0 -1 0 2 -2 
0 -2 1 -1 0 -3 1 -1 0 -2 1 -1 1 -1 0 1 
2 2 0 2 1 1 4600 1564 300 MP stroke
0 2 2 0 1 0 1 -1 1 0 1 1 0 1 1 1 
0 2 1 1 1 1 1 0 1 0 1 0 1 -1 1 0 
0 -1 2 -2 0 -2 1 -1 0 -1 1 -1 1 -1 1 -1 
1 0 1 0 1 -1 1 -1 1 -1 1 0 1 1 0 1 
1 1 0 2 1 1 0 3 2 2 0 2 1 1 1 1 
1 0 1 -1 1 -1 1 -1 1 -1 1 -1 1 -1 1 0 
0 1 2 2 0 1 1 1 1 1 1 0 1 -1 1 -1 
1 -1 0 1 2 2 1 1 1 0 1 -1 0 -2 1 -1 
0 -2 1 -1 0 -2 1 -1 0 -1 1 -1 1 -1 1 -1 
0 1 2 2 0 1 2 2 1 1 0 2 2 2 1 1 
1 1 1 1 1 -1 1 -1 0 -2 1 -1 0 -2 1 -1 
0 -1 1 -1 1 -1 1 0 -1 0 2 2 0 1 2 2 
1 1 1 0 0 -1 2 -2 1 -1 1 -1 1 0 1 1 
1 1 1 0 1 1 1 0 1 0 -1 0 2 2 1 1 
1 0 1 0 1 0 1 0 1 0 1 0 1 0 1 0 
1 1 1 1 1 1 1 1 1 0 1 0 1 0 1 0 
1 0 1 -1 1 0 1 -1 1 0 1 0 1 1 1 0 
1 0 1 0 0 1 2 2 0 2 1 1 0 1 1 1 
1 1 1 0 1 0 1 -1 0 -1 2 -2 1 -1 1 -1 
1 -1 1 1 1 0 1 0 1 0 1 -1 1 0 1 0 
0 -1 2 -2 0 -1 1 -1 0 -3 1 -1 0 -1 1 -1 
0 -1 2 0 0 1 2 2 0 2 1 1 0 1 1 1 
0 1 2 0 1 0 -1 0 2 -2 1 0 1 0 1 0 
1 0 1 1 0 2 2 2 1 1 1 1 1 1 1 1 
1 0 1 0 1 -1 0 -1 2 -2 0 -2 1 -1 0 -2 
2 -2 1 -1 1 1 1 1 1 1 1 1 1 1 1 1 
1 0 1 0 1 -1 1 -1 0 1 2 2 0 1 1 1 
0 2 1 1 0 1 1 1 1 0 1 -1 0 -1 2 -2 
0 -2 2 -2 0 -2 2 -2 1 0 1 -1 1 0 1 1 
1 1 1 0 1 -1 1 0 1 1 1 1 1 1 1 -1 
1 -1 1 -1 1 -1 -1 0 2 2 0 1 1 1 1 1 
1 1 1 0 1 -1 1 -1 1 -1 1 -1 1 -1 0 -2 
2 -2 1 -1 1 0 0 1 2 2 0 2 1 1 0 1 
1 1 1 1 1 1 1 1 1 0 1 1 1 0 1 0 
1 -1 1 -1 1 -1 1 -1 0 -2 1 -1 0 -2 1 -1 
0 -3 1 -1 0 -1 2 0 0 2 1 1 0 1 1 1 
0 3 1 1 0 1 1 1 1 1 1 0 1 0 1 -1 
1 0 1 1 1 1 4341 1554 300 MP stroke
1 0 1 -1 1 -1 1 -1 1 0 1 0 1 1 1 1 
1 0 1 0 0 -1 2 -2 0 -1 1 -1 1 -1 1 0 
1 -1 1 0 -1 0 2 2 0 2 2 2 1 0 0 -1 
2 -2 0 -2 1 -1 0 -2 1 -1 0 -3 1 -1 0 -1 
1 -1 1 0 -1 0 2 2 0 2 1 1 0 1 1 1 
0 1 1 1 0 2 1 1 0 2 1 1 0 2 1 1 
0 2 1 1 1 1 1 1 1 -1 0 -1 1 -1 0 -2 
1 -1 0 -2 1 -1 1 -1 1 0 1 1 1 1 1 1 
1 1 1 0 1 -1 0 -2 1 -1 0 -4 1 -1 0 -2 
1 -1 0 -4 2 -2 1 -1 0 1 2 2 0 2 1 1 
0 3 1 1 0 4 1 1 0 3 1 1 0 3 1 1 
1 1 1 -1 0 -1 1 -1 0 -2 2 -2 1 -1 1 0 
0 -1 2 -2 0 -1 2 -2 1 0 1 0 0 1 2 2 
1 1 1 1 0 1 0 -1 2 -2 0 -4 1 -1 0 -5 
1 -1 0 -2 1 -1 1 1 0 2 1 1 0 4 1 1 
0 4 2 2 1 -1 0 -2 1 -1 0 -2 1 -1 0 -1 
1 -1 1 -1 1 1 0 3 1 1 0 1 1 1 0 1 
1 1 1 1 1 0 1 0 1 1 1 0 1 0 1 -1 
1 -1 1 -1 0 1 2 2 1 1 1 0 1 -1 1 0 
1 0 1 1 1 1 1 0 -1 0 2 -2 0 -3 1 -1 
0 -3 1 -1 0 -4 1 -1 0 -2 1 -1 1 0 0 2 
1 1 0 3 1 1 0 2 1 1 0 2 1 1 0 2 
1 1 0 1 1 1 1 1 1 0 1 0 1 0 1 1 
1 -1 0 -1 2 -2 0 -2 1 -1 0 -1 1 -1 1 0 
0 2 2 2 0 1 1 1 1 1 1 -1 1 -1 1 0 
1 0 1 0 0 1 2 2 1 1 1 0 1 0 1 -1 
0 -1 1 -1 0 -1 2 -2 1 0 1 0 1 0 1 1 
1 0 0 -1 2 -2 0 -2 1 -1 0 -2 2 -2 1 0 
1 1 1 1 0 1 2 2 1 1 1 0 1 -1 1 -1 
1 -1 1 1 0 1 2 2 1 1 1 1 1 1 0 -1 
2 -2 0 -1 2 -2 1 -1 1 -1 0 -2 2 -2 1 0 
1 1 0 3 1 1 0 4 1 1 0 3 1 1 0 2 
1 1 1 1 1 -1 0 -2 1 -1 0 -2 1 -1 0 -2 
1 -1 0 -1 1 -1 0 -1 1 -1 1 -1 1 0 0 1 
2 2 0 1 2 2 1 0 1 0 1 0 1 0 1 0 
1 0 1 1 0 1 2 2 1 1 1 0 1 0 1 0 
-1 0 2 -2 0 -1 2 -2 1 -1 1 -1 1 0 0 1 
2 2 0 1 2 2 4106 1558 300 MP stroke
1 1 1 0 1 0 1 0 1 0 0 -1 2 -2 1 -1 
1 -1 1 0 0 1 2 2 0 2 1 1 1 1 1 1 
1 0 1 -1 0 -2 1 -1 0 -2 1 -1 0 -2 2 -2 
1 0 1 -1 1 0 0 -2 2 -2 1 -1 1 0 1 1 
1 0 1 1 0 1 2 2 0 1 1 1 1 1 1 0 
-1 0 2 -2 0 -1 1 -1 0 -2 1 -1 1 -1 1 0 
0 1 2 2 1 1 0 1 2 0 1 0 -1 0 2 -2 
0 -2 1 -1 0 -3 1 -1 0 -2 1 -1 1 -1 1 1 
0 1 1 1 0 1 1 1 0 2 1 1 0 3 1 1 
0 2 1 1 0 1 1 1 1 1 1 -1 1 -1 0 -1 
2 0 1 1 1 1 1 1 0 -1 2 -2 1 -1 1 0 
0 1 2 2 1 0 1 0 1 -1 1 0 1 0 1 1 
1 1 0 2 1 1 0 2 1 1 0 1 1 1 1 1 
1 -1 0 -3 1 -1 0 -3 1 -1 0 -2 1 -1 0 -3 
1 -1 0 -2 1 -1 1 0 1 1 0 2 1 1 0 1 
1 1 0 2 1 1 1 1 1 0 0 -2 2 -2 1 -1 
1 1 0 1 2 2 1 1 1 1 1 1 1 1 1 0 
-1 0 2 -2 0 -2 1 -1 0 -2 1 -1 0 -2 2 -2 
1 0 0 1 2 2 1 1 1 0 1 -1 1 -1 1 -1 
1 0 1 1 1 1 1 0 -1 0 2 -2 1 -1 1 0 
-1 0 2 2 0 1 1 1 0 2 1 1 0 1 2 0 
0 -1 2 -2 0 -2 2 -2 0 -2 2 -2 1 0 1 0 
-1 0 2 2 0 1 1 1 0 2 1 1 0 1 2 2 
1 0 1 -1 1 -1 1 -1 1 0 1 -1 1 0 1 0 
-1 0 2 2 0 1 1 1 0 2 1 1 1 1 1 -1 
0 -2 1 -1 0 -3 1 -1 0 -2 1 -1 0 -1 1 -1 
1 0 0 2 1 1 0 1 1 1 1 1 1 -1 1 -1 
1 -1 1 0 0 2 1 1 0 1 1 1 0 1 1 1 
1 0 1 -1 0 -2 2 -2 1 1 1 1 0 2 1 1 
1 1 1 0 -1 0 2 -2 0 -2 1 -1 0 -2 1 -1 
0 -2 1 -1 1 -1 0 1 2 2 0 2 1 1 0 2 
1 1 0 3 2 2 1 1 1 -1 0 -1 2 -2 0 -2 
2 -2 1 -1 1 0 1 0 1 1 1 1 1 1 1 0 
1 1 1 0 1 1 0 -1 2 -2 0 -2 1 -1 0 -2 
1 -1 1 -1 1 0 1 0 1 0 1 1 1 1 1 1 
1 1 1 1 1 1 1 1 1 0 1 -1 1 -1 1 -1 
0 -1 2 -2 0 -1 2 -2 1 1 1 1 0 2 1 1 
0 2 1 1 0 3 3869 1563 300 MP stroke
1 1 0 1 1 1 1 0 1 -1 0 -2 1 -1 0 -3 
2 -2 1 -1 1 0 1 0 1 0 1 0 1 0 1 0 
-1 0 2 2 0 1 1 1 1 1 1 0 0 -2 2 -2 
0 -1 1 -1 1 -1 1 0 1 -1 1 0 1 0 1 0 
1 1 1 1 1 1 0 1 2 2 1 1 1 1 1 0 
1 0 -1 0 2 -2 0 -2 2 -2 1 -1 1 0 1 0 
1 0 1 0 1 0 -1 0 2 -2 1 -1 1 -1 1 -1 
1 1 0 1 2 2 0 2 1 1 1 1 0 2 1 1 
1 1 1 1 1 1 1 -1 1 -1 1 -1 0 -2 1 -1 
0 -3 1 -1 0 -2 1 -1 1 0 -1 0 2 2 0 2 
1 1 0 3 1 1 0 3 1 1 1 0 1 0 0 -2 
1 -1 0 -2 1 -1 1 -1 1 -1 1 1 1 1 1 1 
1 0 1 -1 0 -1 1 -1 1 -1 0 -2 1 -1 1 -1 
1 -1 1 0 0 1 2 2 0 2 1 1 0 2 1 1 
0 1 1 1 0 1 2 0 1 -1 0 -1 1 -1 1 -1 
1 -1 1 -1 1 0 1 1 0 1 1 1 0 1 1 1 
0 2 1 1 1 0 1 0 -1 0 2 -2 0 -2 1 -1 
0 -1 1 -1 1 -1 1 0 1 0 1 0 1 0 1 0 
1 1 0 1 2 2 1 1 1 0 1 -1 1 -1 1 -1 
1 -1 1 -1 1 -1 1 0 1 0 1 0 1 0 1 0 
1 1 1 0 1 0 1 0 1 1 1 0 1 1 1 1 
1 -1 0 -1 1 -1 0 -2 1 -1 1 -1 0 1 2 2 
0 2 1 1 0 1 1 1 1 1 0 -1 2 -2 0 -2 
1 -1 0 -2 1 -1 0 -1 2 0 1 0 -1 0 2 2 
1 1 0 2 1 1 0 1 1 1 1 1 1 0 1 -1 
1 0 1 0 1 0 1 -1 1 0 -1 0 2 -2 1 -1 
1 -1 1 0 1 0 1 0 1 0 0 1 2 2 1 1 
1 1 1 0 0 -1 2 -2 0 -2 1 -1 0 -1 1 -1 
1 -1 1 0 -1 0 2 2 0 2 1 1 0 3 1 1 
0 2 1 1 0 1 2 0 1 -1 1 -1 1 -1 1 -1 
1 0 0 -1 2 -2 0 -1 1 -1 0 -3 2 -2 1 0 
1 1 0 2 1 1 0 3 1 1 0 3 1 1 0 2 
1 1 0 2 1 1 1 1 -1 0 2 -2 0 -3 1 -1 
0 -4 1 -1 0 -2 1 -1 0 -2 1 -1 1 -1 1 1 
0 2 2 2 0 2 1 1 1 1 1 0 1 -1 0 -1 
1 -1 0 -2 1 -1 0 -2 1 -1 0 -1 1 -1 1 -1 
1 0 0 2 2 2 0 2 1 1 0 1 1 1 1 1 
0 -1 2 -2 0 -1 3635 1574 300 MP stroke
1 -1 1 -1 1 -1 1 1 1 1 1 1 0 1 2 2 
1 1 1 0 1 0 1 -1 1 -1 1 -1 1 0 1 -1 
1 -1 1 0 1 -1 1 -1 1 -1 1 -1 1 0 -1 0 
2 2 0 2 1 1 0 3 1 1 0 2 1 1 0 2 
2 2 1 0 0 -1 2 -2 0 -2 1 -1 0 -2 1 -1 
0 -3 2 -2 0 -1 0 1 2 2 0 3 1 1 0 2 
2 2 1 0 -1 0 2 -2 0 -2 2 -2 1 -1 1 0 
1 0 1 1 1 0 1 -1 1 -1 1 0 1 0 1 0 
1 0 1 0 1 1 1 1 0 2 2 2 1 1 1 1 
1 0 0 -1 2 -2 0 -2 1 -1 0 -2 1 -1 0 -1 
1 -1 1 0 1 0 -1 0 2 2 1 1 1 1 1 0 
-1 0 2 -2 1 -1 1 -1 1 1 1 1 0 2 2 2 
1 1 1 -1 0 -2 2 -2 1 -1 1 1 0 1 1 1 
1 1 0 2 2 2 1 0 1 0 -1 0 2 -2 0 -1 
1 -1 0 -1 1 -1 1 -1 1 0 -1 0 2 0 1 0 
1 -1 1 0 1 0 1 0 1 1 1 0 1 0 1 1 
1 1 1 1 1 0 1 1 1 0 1 1 1 1 1 0 
1 1 1 0 1 0 1 0 -1 0 2 2 1 1 1 1 
1 0 -1 0 2 -2 0 -1 1 -1 0 -2 1 -1 0 -3 
2 -2 1 1 0 2 1 1 0 2 1 1 0 1 1 1 
1 1 1 -1 0 -1 2 -2 0 -2 1 -1 0 -3 2 -2 
1 -1 1 1 0 2 1 1 0 2 2 2 1 1 1 0 
0 -2 2 -2 1 -1 1 0 1 1 0 1 2 2 1 1 
1 1 1 0 1 0 0 -1 2 -2 0 -2 1 -1 1 -1 
1 -1 0 1 2 2 1 1 1 1 1 0 1 0 1 1 
1 0 1 0 1 1 1 0 1 -1 1 -1 0 -2 2 -2 
1 -1 1 -1 1 1 1 1 0 2 2 2 1 0 1 1 
1 -1 1 -1 1 -1 1 0 1 -1 1 -1 1 0 1 -1 
1 0 1 0 -1 0 2 2 0 1 1 1 1 1 1 0 
1 0 1 -1 1 -1 1 1 1 0 1 0 1 -1 1 0 
1 0 1 0 1 1 1 0 1 -1 1 -1 1 -1 1 0 
1 1 1 1 1 1 1 1 1 0 1 0 1 -1 0 -1 
2 -2 1 -1 1 1 1 1 1 1 1 1 1 1 1 0 
1 1 1 1 1 1 1 1 1 -1 1 -1 0 -2 1 -1 
0 -2 2 -2 1 -1 1 1 0 2 2 2 0 2 2 2 
1 1 1 1 1 1 1 0 1 -1 1 0 1 0 1 1 
1 1 1 1 1 0 -1 0 2 -2 0 -1 2 -2 1 -1 
1 0 1 1 1 0 3369 1570 300 MP stroke
0 1 0 -1 2 -2 0 -2 1 -1 0 -2 1 -1 0 -1 
1 -1 1 -1 0 1 2 2 0 2 1 1 0 1 1 1 
0 2 2 2 1 -1 0 -1 2 -2 1 -1 1 -1 1 -1 
1 0 1 0 1 0 1 0 1 0 0 1 2 2 1 1 
1 0 1 0 0 -1 2 -2 0 -2 2 -2 1 -1 1 -1 
1 0 1 1 0 1 2 2 0 2 1 1 0 2 2 2 
1 1 1 -1 1 0 1 -1 1 0 1 0 1 0 1 0 
1 1 1 -1 0 -1 1 -1 0 -1 1 -1 1 -1 1 -1 
1 0 1 1 1 0 1 0 1 1 1 1 1 1 1 0 
-1 0 2 -2 0 -1 2 -2 0 -1 2 -2 1 -1 1 -1 
1 0 1 0 -1 0 2 2 0 2 1 1 0 2 1 1 
0 2 1 1 1 1 1 1 1 0 1 0 0 -1 2 -2 
1 -1 1 -1 1 0 -1 0 2 2 0 2 1 1 1 1 
1 1 1 0 -1 0 2 -2 0 -2 1 -1 0 -3 2 -2 
1 0 0 1 2 2 0 3 2 2 1 0 1 -1 1 -1 
1 -1 1 0 1 0 0 1 2 2 0 2 2 2 1 0 
1 0 -1 0 2 -2 0 -1 1 -1 1 -1 1 -1 1 -1 
1 0 1 -1 1 -1 1 0 1 1 1 1 0 1 2 2 
1 0 1 -1 1 -1 1 -1 1 0 1 0 1 1 0 1 
2 2 1 0 1 1 1 -1 1 -1 0 -1 2 -2 0 -1 
2 -2 1 -1 1 0 1 1 1 1 1 1 1 1 1 -1 
1 -1 1 -1 1 0 0 -1 2 -2 1 -1 1 0 1 -1 
1 1 1 0 0 2 2 2 0 1 1 1 0 1 2 2 
1 0 1 1 1 0 1 0 1 0 0 1 2 2 1 1 
1 0 -1 0 2 -2 0 -2 1 -1 0 -3 1 -1 0 -3 
1 -1 1 -1 1 -1 1 0 1 1 1 1 1 1 0 2 
1 1 0 1 1 1 0 2 2 2 1 1 1 0 -1 0 
2 -2 0 -1 1 -1 0 -2 1 -1 0 -2 2 -2 1 0 
1 0 0 1 2 2 0 1 1 1 0 1 2 2 1 1 
1 0 -1 0 2 -2 0 -1 1 -1 0 -3 2 -2 1 1 
1 1 0 2 1 1 0 2 2 2 1 1 1 0 1 0 
1 0 1 -1 1 0 1 0 -1 0 2 0 1 0 1 0 
1 0 1 0 1 -1 1 0 0 1 2 2 1 1 1 1 
1 0 0 -1 2 -2 0 -2 2 -2 1 -1 1 0 1 0 
1 1 1 0 1 -1 1 -1 0 -1 1 -1 1 -1 1 0 
1 1 1 1 1 1 1 1 0 2 2 2 0 1 1 1 
1 1 1 1 1 -1 0 -1 1 -1 0 -3 1 -1 0 -1 
1 -1 0 -2 1 -1 3111 1578 300 MP stroke
1 0 1 1 0 1 1 1 0 1 1 1 1 1 1 0 
1 -1 0 -1 2 -2 1 -1 1 -1 1 0 1 0 1 1 
1 1 1 0 1 0 1 0 1 -1 1 0 1 1 1 0 
1 1 0 1 2 2 1 0 1 -1 1 -1 1 -1 0 -2 
2 -2 1 0 1 0 -1 0 2 2 0 1 1 1 0 1 
1 1 0 2 1 1 0 1 1 1 0 1 1 1 1 1 
1 0 -1 0 2 -2 0 -2 1 -1 0 -2 1 -1 0 -3 
1 -1 0 -1 1 -1 1 -1 0 1 2 2 1 1 1 1 
1 1 1 0 -1 0 2 0 0 -1 2 -2 0 -1 1 -1 
1 -1 1 0 0 2 2 2 0 2 1 1 1 0 1 -1 
1 -1 1 -1 1 1 0 2 1 1 0 2 2 2 1 0 
0 -2 1 -1 0 -2 1 -1 0 -3 1 -1 0 -2 1 -1 
0 -2 1 -1 1 0 1 0 -1 0 2 2 1 1 0 2 
2 2 1 1 0 -1 2 -2 0 -1 1 -1 0 -2 2 -2 
1 -1 1 0 0 1 2 2 1 1 1 1 1 0 1 -1 
1 0 1 -1 1 0 1 -1 1 0 0 -1 2 -2 1 0 
1 1 1 1 1 1 1 1 1 -1 1 -1 0 -1 1 -1 
0 -1 1 -1 1 -1 1 0 1 0 1 1 1 1 1 0 
1 -1 1 -1 1 -1 1 0 1 0 1 -1 1 0 1 -1 
1 1 1 1 1 1 1 0 1 -1 1 -1 1 -1 0 1 
2 2 0 2 1 1 0 1 1 1 1 -1 0 -1 1 -1 
1 -1 0 -2 2 -2 1 -1 1 -1 1 0 1 0 -1 0 
2 2 0 1 1 1 1 0 1 0 1 -1 1 -1 0 -1 
2 -2 1 0 1 0 1 1 1 0 1 0 1 -1 1 -1 
1 -1 1 0 1 1 0 1 2 2 1 0 -1 0 2 0 
1 0 1 0 1 1 0 2 2 2 1 1 1 1 1 -1 
1 -1 1 -1 1 0 1 0 1 0 1 -1 1 -1 0 -1 
2 -2 1 -1 1 0 1 0 1 -1 1 0 0 -1 2 -2 
0 -2 1 -1 0 -2 2 -2 1 1 1 1 0 2 1 1 
0 2 1 1 0 1 1 1 0 2 1 1 1 1 1 0 
1 -1 1 -1 0 -2 2 -2 0 -1 1 -1 0 -1 2 0 
0 1 1 1 0 2 2 2 1 0 1 0 -1 0 2 -2 
1 -1 1 -1 1 0 1 1 1 0 1 0 1 -1 1 -1 
1 -1 1 -1 1 0 1 1 1 0 1 -1 1 -1 1 -1 
0 1 2 2 0 1 1 1 1 1 1 1 1 1 1 0 
1 0 1 0 0 1 2 2 0 1 1 1 1 1 1 1 
-1 0 2 -2 0 -1 1 -1 0 -2 1 -1 0 -2 1 -1 
0 -3 1 -1 0 -2 2860 1606 300 MP stroke
1 -1 1 -1 1 -1 1 0 1 0 1 0 1 0 1 0 
1 -1 1 0 1 0 1 0 0 1 2 2 1 1 0 2 
2 2 1 0 1 0 1 -1 1 -1 1 0 1 -1 1 0 
1 0 1 -1 1 -1 1 -1 1 -1 1 0 1 1 1 1 
1 1 1 1 1 0 1 0 1 0 1 -1 1 0 1 0 
1 0 1 0 1 1 1 1 1 0 1 0 1 -1 1 -1 
0 -1 1 -1 0 -2 1 -1 0 -2 2 -2 1 0 1 0 
-1 0 2 2 0 1 2 2 1 0 1 1 1 1 1 0 
1 0 1 0 -1 0 2 -2 0 -1 1 -1 0 -2 1 -1 
0 -1 1 -1 0 -2 1 -1 1 -1 1 0 1 1 1 1 
0 1 2 2 1 1 1 1 1 -1 1 -1 1 -1 1 -1 
1 0 1 0 1 0 1 0 -1 0 2 2 0 1 2 2 
0 -1 2 -2 0 -1 1 -1 1 -1 1 0 1 1 0 1 
2 2 1 0 1 -1 1 -1 1 -1 1 0 0 2 2 2 
0 1 2 0 1 0 -1 0 2 -2 1 -1 1 -1 1 -1 
1 -1 1 -1 1 0 1 1 1 1 1 1 1 0 -1 0 
2 -2 0 -1 1 -1 0 -1 1 -1 0 -1 2 -2 1 -1 
1 0 1 1 1 0 1 1 1 0 1 0 1 -1 1 0 
1 1 1 1 0 1 2 2 1 -1 0 -1 1 -1 0 -2 
1 -1 0 -2 1 -1 0 -2 1 -1 1 -1 0 1 2 2 
0 1 1 1 0 2 1 1 0 3 1 1 0 3 1 1 
0 3 1 1 0 1 1 1 0 2 2 0 0 -1 1 -1 
0 -3 1 -1 0 -2 1 -1 0 -2 1 -1 0 -2 1 -1 
1 -1 1 1 0 2 1 1 0 2 1 1 0 3 1 1 
0 2 1 1 1 1 -1 0 2 -2 0 -3 2 -2 1 0 
1 1 1 0 1 0 1 0 1 -1 1 -1 1 -1 0 -2 
2 -2 1 0 -1 0 2 2 0 2 2 2 1 0 1 0 
1 0 1 0 0 2 2 2 1 1 1 0 1 0 1 1 
0 1 2 2 1 1 1 0 1 0 1 -1 0 -2 2 -2 
0 -1 1 -1 1 -1 1 0 1 0 1 0 1 0 1 0 
1 1 0 2 1 1 0 2 1 1 0 3 2 2 1 1 
1 1 1 0 1 0 1 1 1 1 1 1 1 1 1 1 
1 1 0 2 1 1 0 2 1 1 0 3 1 1 0 5 
1 1 0 4 1 1 0 4 1 1 0 3 2 2 1 0 
1 0 1 1 1 0 1 1 1 1 0 1 1 1 0 4 
1 1 0 5 1 2 0 6 1 1 0 5 1 1 0 3 
1 1 0 1 1 1 1 0 1 0 -1 0 2 2 0 2 
1 1 0 3 1 1 2615 1520 300 MP stroke
0 3 1 1 0 4 1 1 0 5 1 2 0 4 1 2 
0 5 1 2 0 4 1 1 0 4 1 1 0 2 1 1 
0 3 1 1 0 1 1 1 0 2 1 1 0 3 1 1 
0 3 1 1 0 3 1 1 0 4 1 2 0 3 1 1 
0 4 1 1 0 4 1 1 0 3 1 1 0 3 1 1 
0 3 1 1 0 3 1 2 0 4 1 1 0 4 1 1 
0 2 1 1 0 2 2 2 0 2 1 1 0 4 1 1 
0 4 1 1 0 3 1 1 0 2 1 1 0 2 1 1 
0 1 1 1 0 2 1 1 0 2 1 1 0 4 1 1 
0 3 1 1 0 4 1 1 0 3 1 1 0 3 1 1 
0 3 1 1 0 4 1 1 0 4 1 1 0 4 1 1 
0 4 1 1 0 3 1 1 0 4 1 1 0 4 1 1 
0 5 1 2 0 6 1 2 0 6 1 1 0 6 1 1 
0 4 1 1 0 3 1 1 0 4 1 1 0 4 1 1 
0 5 1 1 0 5 1 1 0 5 1 1 0 5 1 1 
0 6 1 1 0 5 1 1 0 5 1 1 0 5 1 1 
0 4 1 1 0 5 1 1 0 4 1 1 0 4 1 1 
0 5 1 1 0 5 1 2 0 4 1 1 0 5 1 2 
0 6 1 1 0 6 1 1 0 6 1 2 0 4 1 2 
0 5 1 1 0 5 1 1 0 3 1 1 0 3 1 1 
0 2 1 1 0 2 1 1 0 3 1 1 0 3 1 1 
0 5 1 1 0 5 1 2 0 5 1 1 0 4 1 1 
0 5 1 1 0 4 1 1 0 3 1 1 0 4 1 1 
0 2 1 1 0 3 1 1 0 3 1 1 0 1 1 1 
0 1 1 1 1 1 0 2 2 2 0 1 1 1 0 1 
1 1 0 2 1 1 0 3 1 1 0 2 1 1 0 3 
1 1 0 5 1 1 0 4 1 1 0 4 1 1 0 2 
1 1 0 2 1 1 0 5 1 1 0 4 1 2 0 5 
1 1 0 6 1 1 0 4 1 1 0 5 1 2 0 6 
1 1 0 7 1 2 0 7 1 2 0 6 1 1 0 8 
1 1 0 8 1 2 0 7 1 1 0 7 1 1 0 6 
1 1 0 4 1 1 0 4 1 2 0 4 1 1 0 5 
1 1 0 6 1 2 0 7 1 2 0 6 1 2 0 7 
1 1 0 6 1 1 0 4 1 1 0 3 1 1 0 2 
1 1 0 4 1 1 0 5 1 1 0 5 1 2 0 5 
1 2 0 4 1 1 0 3 1 1 0 3 1 1 0 2 
1 1 0 5 1 1 0 6 1 1 0 7 1 2 0 6 
1 2 0 7 1 2 2463 738 300 MP stroke
0 8 1 2 0 6 1 2 0 5 1 1 0 3 1 1 
0 2 1 1 0 2 1 1 1 1 1 -1 0 -2 2 -2 
0 -2 1 -1 0 -1 2 -2 1 -1 0 -2 2 -2 1 -1 
1 1 1 1 0 2 2 2 1 1 1 -1 1 -1 0 -2 
1 -1 1 -1 1 -1 1 1 0 2 1 1 0 3 1 1 
0 2 1 1 1 1 1 -1 0 -2 1 -1 0 -3 1 -1 
0 -5 1 -1 0 -5 1 -1 0 -3 2 -2 0 3 1 1 
0 5 1 1 0 5 1 1 0 2 1 1 1 0 1 -1 
0 1 2 2 1 0 1 -1 0 -1 2 -2 0 -1 1 -1 
1 -1 0 1 2 2 0 5 1 1 0 5 1 1 0 5 
1 1 1 2 -1 0 2 -2 0 -4 1 -2 0 -7 1 -2 
0 -6 1 -2 0 -5 1 -1 0 -2 1 -1 1 -1 -1 0 
2 2 0 2 1 1 0 4 1 1 0 1 1 1 1 1 
0 -1 2 -2 0 -2 1 -1 0 -3 1 -1 0 -2 1 -1 
1 -1 -1 0 2 2 0 5 1 1 0 7 1 2 0 8 
1 2 0 7 1 1 0 4 1 1 1 1 0 -2 1 -1 
0 -4 1 -2 0 -5 1 -1 0 -3 1 -1 0 -1 1 -1 
0 -2 1 -1 0 -3 1 -1 0 -3 2 -2 1 -1 1 0 
-1 0 2 2 0 2 1 1 0 3 1 1 0 1 1 1 
1 0 1 0 -1 0 2 -2 0 -2 2 -2 1 -1 1 0 
-1 0 2 -2 0 -3 1 -1 0 -3 1 -1 0 -1 1 -1 
1 1 0 2 1 1 0 4 1 1 0 2 1 1 1 -1 
0 -2 1 -1 0 -2 1 -1 0 -2 1 -1 1 -1 1 1 
0 3 1 1 0 3 1 1 0 4 1 1 0 2 1 1 
1 1 1 1 1 1 1 0 1 0 1 0 1 -1 0 -2 
1 -1 0 -2 2 -2 0 -2 1 -1 1 0 1 1 0 1 
2 2 1 1 1 1 1 1 1 0 1 -1 1 0 1 1 
1 1 1 1 1 0 0 -2 2 -2 1 -1 1 0 1 0 
-1 0 2 -2 0 -2 1 -1 0 -2 1 -1 0 -1 1 -1 
1 -1 1 1 1 1 1 0 1 0 1 0 1 1 1 1 
1 0 1 0 1 0 1 1 1 1 0 1 1 1 0 1 
1 1 0 1 1 1 1 1 1 0 1 0 -1 0 2 2 
0 3 1 1 0 4 1 2 0 3 1 1 1 1 0 -3 
1 -1 0 -4 1 -1 0 -6 1 -1 0 -4 1 -1 0 -3 
1 -1 0 -1 1 -1 1 -1 1 1 0 3 2 2 1 1 
-1 0 2 -2 0 -1 1 -1 1 -1 1 1 0 1 1 1 
0 3 1 1 0 3 1 1 0 3 1 1 0 1 1 1 
1 1 0 -2 1 -1 2259 711 300 MP stroke
0 -2 1 -1 0 -1 1 -1 1 -1 1 1 0 2 1 1 
0 2 1 1 0 2 1 1 1 1 -1 0 2 -2 0 -2 
1 -1 0 -4 1 -1 0 -1 1 -1 0 -1 0 1 1 1 
0 1 1 1 0 2 1 1 1 1 1 -1 0 -3 1 -1 
0 -3 1 -1 0 -2 1 -1 1 -1 1 0 -1 0 2 2 
0 2 2 2 0 2 2 2 1 1 0 -1 2 -2 0 -1 
1 -1 0 -2 1 -1 0 -3 2 -2 1 0 1 1 0 1 
1 1 0 2 1 1 0 1 1 1 1 0 1 -1 1 -1 
0 -1 2 -2 1 -1 1 -1 1 1 1 1 0 2 1 1 
0 2 1 1 0 1 1 1 1 1 1 0 -1 0 2 -2 
0 -2 1 -1 0 -1 1 -1 1 -1 1 0 1 1 1 1 
0 1 2 0 1 0 1 -1 1 0 1 0 1 0 1 0 
1 0 1 -1 1 0 1 -1 1 0 1 1 1 1 1 1 
0 2 1 1 0 2 2 2 1 1 1 -1 0 -1 2 -2 
1 -1 1 -1 1 0 1 -1 1 0 1 0 1 0 1 0 
1 0 1 -1 1 -1 1 1 1 1 0 2 1 1 0 2 
1 1 0 2 1 1 1 1 1 0 1 -1 1 -1 1 -1 
1 -1 1 -1 1 -1 0 -2 2 -2 1 -1 1 0 1 0 
1 1 1 1 1 0 1 0 1 0 1 -1 1 1 1 0 
1 0 1 1 1 1 1 1 1 0 1 0 1 0 1 -1 
1 -1 1 0 1 0 1 1 1 1 1 -1 0 -1 2 -2 
1 -1 1 -1 1 1 1 1 0 2 2 2 1 0 1 1 
1 0 1 0 1 -1 1 0 1 -1 1 0 1 0 1 -1 
1 -1 0 -2 2 -2 0 -2 1 -1 1 -1 -1 0 2 2 
0 1 1 1 0 2 1 1 0 3 1 1 0 1 1 1 
1 0 1 -1 1 -1 1 0 0 1 2 2 1 1 1 1 
1 -1 0 -2 1 -1 0 -3 1 -1 0 -3 1 -1 1 -1 
-1 0 2 2 1 1 1 1 0 1 2 2 0 1 1 1 
0 1 1 1 1 1 1 1 1 0 1 -1 0 -1 1 -1 
1 -1 0 -2 2 -2 1 -1 1 0 1 1 0 1 2 2 
1 0 1 0 1 -1 1 -1 1 0 -1 0 2 2 1 1 
1 0 1 1 1 0 1 -1 1 0 -1 0 2 -2 1 -1 
1 -1 1 0 1 1 1 1 0 3 2 2 1 1 1 0 
0 -2 2 -2 0 -2 1 -1 1 -1 1 0 0 1 2 2 
0 2 1 1 0 1 1 1 1 0 1 -1 1 -1 0 -2 
2 -2 1 0 1 0 1 0 1 1 1 0 1 0 1 -1 
1 -1 1 -1 -1 0 2 2 0 2 1 1 0 4 1 1 
0 3 1 1 1 0 2014 703 300 MP stroke
1 -1 0 -3 1 -1 0 -4 1 -1 0 -4 1 -1 0 -3 
1 -1 0 -1 1 -1 1 1 0 2 1 1 0 3 1 1 
0 6 1 1 0 5 1 2 0 5 1 1 0 3 1 1 
1 -1 0 -1 1 -1 0 -3 2 -2 1 0 1 0 1 -1 
1 1 1 0 1 0 1 0 0 -1 0 1 2 2 0 1 
1 1 1 0 0 -2 1 -1 0 -2 1 -1 0 -2 1 -1 
0 -1 0 1 2 2 0 2 1 1 0 1 1 1 1 1 
-1 0 2 -2 0 -3 1 -1 0 -2 1 -1 0 -4 1 -1 
0 -4 1 -1 0 -5 1 -1 0 -5 1 -2 0 -4 1 -1 
0 -1 1 -1 1 1 0 1 1 1 0 3 2 2 1 0 
1 -1 0 -2 1 -1 0 -2 2 -2 1 -1 -1 0 2 2 
0 2 1 1 0 3 2 2 1 -1 1 -1 1 0 -1 0 
2 2 0 1 1 1 0 2 1 1 0 1 1 1 0 2 
2 2 1 0 0 1 2 2 0 2 1 1 0 2 1 1 
0 3 1 1 0 1 1 1 1 0 0 -2 1 -1 0 -3 
1 -1 0 -3 1 -1 0 -2 1 -1 1 -1 1 0 0 1 
2 2 0 1 1 1 1 1 1 0 0 -3 1 -1 0 -4 
1 -1 0 -3 2 -2 1 0 1 0 -1 0 2 -2 0 -2 
1 -1 0 -3 1 -1 0 -3 1 -1 0 -3 1 -1 0 -2 
1 -1 0 -2 1 -1 0 -1 2 -2 1 -1 1 -1 0 -2 
1 -1 0 -4 1 -1 0 -3 1 -2 0 -4 1 -1 1 -1 
0 2 1 1 0 4 1 1 0 5 1 1 0 5 1 2 
0 3 1 1 0 2 1 1 1 0 0 -3 1 -1 0 -4 
1 -1 0 -5 1 -1 1 -1 0 2 1 1 0 3 2 0 
0 -1 2 -2 1 0 -1 0 2 2 0 2 1 1 0 2 
1 1 0 2 2 0 0 -1 1 -1 0 -3 1 -1 0 -3 
1 -1 0 -2 1 -1 1 -1 1 -1 1 0 1 0 1 -1 
1 -1 1 -1 1 0 1 0 1 0 1 0 1 -1 0 -1 
2 -2 0 -2 1 -1 0 -2 1 -1 0 -2 1 -1 0 -4 
1 -1 0 -3 1 -1 0 -3 2 -2 1 -1 1 -1 1 -1 
1 -1 0 -1 2 -2 1 0 1 -1 0 1 2 2 1 1 
0 -1 2 -2 0 -2 2 -2 1 -1 1 0 1 1 1 0 
1 0 1 -1 0 -1 2 -2 1 0 1 -1 0 -1 2 -2 
0 -3 1 -1 0 -3 1 -1 0 -4 1 -1 0 -4 1 -1 
0 -4 1 -1 0 -3 1 -1 0 -2 1 -1 0 -1 1 -1 
0 -1 1 -1 0 -2 2 -2 0 -1 2 -2 1 -1 1 -1 
0 -1 2 -2 0 -2 1 -1 0 -3 1 -1 0 -3 1 -1 
0 -5 1 -1 0 -6 1810 879 300 MP stroke
1 -1 0 -6 1 -1 0 -5 1 -1 0 -3 1 -1 0 -2 
1 -1 1 -1 0 -1 2 -2 0 -2 1 -1 0 -3 1 -1 
0 -4 1 -1 0 -3 1 -1 0 -3 1 -1 0 -2 2 -2 
0 -1 1 -1 0 -2 1 -1 0 -4 1 -1 0 -5 1 -1 
0 -6 1 -1 0 -5 1 -1 0 -7 1 -2 0 -6 1 -2 
0 -6 1 -1 0 -6 1 -2 0 -4 1 -2 0 -6 1 -1 
0 -7 1 -1 0 -7 1 -2 0 -7 1 -2 0 -7 1 -2 
0 -5 1 -2 0 -7 1 -2 0 -7 1 -1 0 -7 1 -1 
0 -6 1 -1 0 -5 1 -1 0 -3 1 -1 0 -5 1 -1 
0 -5 1 -1 0 -6 1 -2 0 -7 1 -2 0 -7 1 -2 
0 -11 1 -3 0 -13 1 -4 0 -14 1 -4 0 -16 1 -4 
0 -17 1 -4 0 -12 1 -4 0 -15 1 -3 0 -14 1 -3 
0 -13 1 -3 0 -11 1 -3 0 -11 1 -3 0 -7 1 -3 
0 -9 1 -2 0 -8 1 -3 0 -9 1 -2 0 -11 1 -3 
0 -9 1 -3 0 -13 1 -4 0 -12 1 -3 0 -12 1 -2 
0 -9 1 -2 0 -7 1 -1 0 -4 1 -2 0 -5 1 -1 
0 -8 1 -2 0 -12 1 -4 0 -18 1 -5 0 -16 1 -6 
0 -27 1 -8 0 -34 1 -10 0 -41 1 -12 0 -46 1 -12 
0 -48 1 -12 0 -33 1 -11 0 -39 1 -9 0 -33 1 -8 
0 -29 1 -7 0 -27 1 -7 0 -27 1 -7 0 -20 1 -7 
0 -27 1 -7 0 -27 1 -7 0 -25 1 -6 0 -24 1 -5 
0 -15 1 -5 0 -17 1 -4 0 -16 1 -4 0 -17 1 -4 
0 -21 1 -6 0 -27 1 -7 0 -25 1 -9 0 -39 1 -10 
0 -42 1 -10 0 -42 1 -10 0 -37 1 -9 0 -32 1 -7 
0 -21 1 -7 0 -27 1 -6 0 -26 1 -7 0 -27 1 -8 
0 -29 1 -7 0 -23 1 -7 0 -19 1 0 1 0 1 0 
1 0 1 0 1 0 1 0 1 0 1 0 1 0 1 0 
1 0 1 0 1 0 1 0 1 0 1 0 1 0 1 0 
1 0 1 0 1 0 1 0 1 0 1 0 1 0 1 0 
1 0 1 0 1 0 1 0 1 0 1 0 1 0 1 0 
1 0 1 0 1 0 1 0 1 0 1 0 1 0 1 0 
1 0 1 0 1 0 1 0 1 0 1 0 1 0 1 0 
1 0 1 0 1 0 1 0 1 0 1 0 1 0 1 0 
1 0 1 0 1 0 1 0 1 0 1 0 1 0 1 0 
1 0 1 0 1 0 1 0 1 0 1 0 1 0 1 0 
1 0 1 0 1 0 1 0 1 0 1 0 1 0 1 0 
1 0 1 0 1 0 1 0 1 0 1 0 1 0 1 0 
1 0 1 0 1 0 1611 2797 300 MP stroke
1 0 1 0 1 0 1 0 1 0 1 0 1 0 1 0 
1 0 1 0 1 0 1 0 1 0 1 0 1 0 1 0 
1 0 1 0 1 0 1 0 1 0 1 0 1 0 1 0 
1 0 1 0 1 0 1 0 1 0 1 0 1 0 1 0 
1 0 1 0 1 0 1 0 1 0 1 0 1 0 1 0 
1 0 1 0 1 0 1 0 1 0 1 0 1 0 1 0 
1 0 1 0 1 0 1 0 1 0 1 0 1 0 1 0 
1 0 1 0 1 0 1 0 1 0 1 0 1 0 1 0 
1 0 1 0 1 0 1 0 1 0 1 0 1 0 1 0 
1 0 1 0 1 0 1 0 1 0 1 0 1 0 1 0 
1 0 1 0 1 0 1 0 1 0 1 0 1 0 1 0 
1 0 1 0 1 0 1 0 1 0 1 0 1 0 1 0 
1 0 1 0 1 0 1 0 1 0 1 0 1 0 1 0 
1 0 1 0 1 0 1 0 1 0 1 0 1 0 1 0 
1 0 1 0 1 0 1 0 1 0 1 0 1 0 1 0 
1 0 1 0 1 0 1 0 1 0 1 0 1 0 1 0 
1 0 1 0 1 0 1 0 1 0 1 0 1 0 1 0 
1 0 1 0 1 0 1 0 1 0 1 0 1 0 1 0 
1 0 1 0 1 0 1 0 1 0 1 0 1 0 1 0 
1 0 1 0 1 0 1 0 1 0 1 0 1 0 1 0 
1 0 1 0 1 0 1 0 1 0 1 0 1 0 1 0 
1 0 1 0 1 0 1 0 1 0 1 0 1 0 1 0 
1 0 1 0 1 0 1 0 1 0 1 0 1 0 1 0 
1 0 1 0 1 0 1 0 1 0 1 0 1 0 1 0 
1 0 1 0 1 0 1 0 1 0 1 0 1 0 1 0 
1 0 1 0 1 0 1 0 1 0 1 0 1 0 1 0 
1 0 1 0 1 0 1 0 1 0 1 0 1 0 1 0 
1 0 1 0 1 0 1 0 1 0 1 0 1 0 1 0 
1 0 1 0 1 0 1 0 1 0 1 0 1 0 1 0 
1 0 1 0 1 0 1 0 1 0 1 0 1 0 1 0 
1 0 1 0 1 0 1 0 1 0 1 0 1 0 1 0 
1 0 1 0 1 0 1 0 1 0 1 0 1 0 1 0 
1 0 1 0 1 0 1 0 1 0 1 0 1 0 1 0 
1 0 1 0 1 0 1 0 1 0 1 0 1 0 1 0 
1 0 1 0 1 0 1 0 1 0 1 0 1 0 1 0 
1 0 1 0 1 0 1 0 1 0 1 0 1 0 1 0 
1 0 1 0 1 0 1 0 1 0 1 0 1 0 1 0 
1 0 1 0 1 0 1312 2797 300 MP stroke
1 0 1 0 1 0 1 0 1 0 1 0 1 0 1 0 
1 0 1 0 1 0 1 0 1 0 1 0 1 0 1 0 
1 0 1 0 1 0 1 0 1 0 1 0 1 0 1 0 
1 0 1 0 1 0 1 0 1 0 1 0 1 0 1 0 
1 0 1 0 1 0 1 0 1 0 1 0 1 0 1 0 
1 0 1 0 1 0 1 0 1 0 1 0 1 0 1 0 
1 0 1 0 1 0 1 0 1 0 1 0 1 0 1 0 
1 0 1 0 1 0 1 0 1 0 1 0 1 0 1 0 
1 0 1 0 1 0 1 0 1 0 1 0 1 0 1 0 
1 0 1 0 1 0 1 0 1 0 1 0 1 0 1 0 
1 0 1 0 1 0 1 0 1 0 1 0 1 0 1 0 
1 0 1 0 1 0 1 0 1 0 1 0 1 0 1 0 
1 0 1 0 1 0 1 0 1 0 1 0 1 0 1 0 
1 0 1 0 1 0 1 0 1 0 1 0 1 0 1 0 
1 0 1 0 1 0 1 0 1 0 1 0 1 0 1 0 
1 0 1 0 1 0 1 0 1 0 1 0 1 0 1 0 
1 0 1 0 1 0 1 0 1 0 1 0 1 0 1 0 
1 0 1 0 1 0 1 0 1 0 1 0 1 0 1 0 
1 0 1 0 1 0 1 0 1 0 1 0 1 0 1 0 
1 0 1 0 1 0 1 0 1 0 1 0 1 0 1 0 
1 0 1 0 1 0 1 0 1 0 1 0 1 0 1 0 
1 0 1 0 1 0 1 0 1 0 1 0 1 0 1 0 
1 0 1 0 1 0 1 0 1 0 1 0 1 0 1 0 
1 0 1 0 1 0 1 0 1 0 1 0 1 0 1 0 
1 0 1 0 1 0 1 0 1 0 1 0 1 0 1 0 
1 0 1 0 1 0 1 0 1 0 1 0 1 0 1 0 
1 0 1 0 1 0 1 0 1 0 1 0 1 0 1 0 
1 0 1 0 1 0 1 0 1 0 1 0 1 0 1 0 
1 0 1 0 1 0 1 0 1 0 1 0 1 0 1 0 
1 0 1 0 1 0 1 0 1 0 1 0 1 0 1 0 
1 0 1 0 1 0 1 0 1 0 1 0 1 0 1 0 
1 0 1 0 1 0 1 0 1 0 1 0 1 0 1 0 
1 0 1 0 1 0 1 0 1 0 1 0 1 0 1 0 
1 0 1 0 1 0 1 0 1 0 1 0 1 0 1 0 
1 0 1 0 1 0 1 0 1 0 1 0 1 0 1 0 
1 0 1 0 1 0 1 0 1 0 1 0 1 0 1 0 
1 0 1 0 1 0 1 0 1 0 1 0 1 0 1 0 
1 0 1 0 1 0 1013 2797 300 MP stroke
1 0 1 0 1 0 1 0 1 0 1 0 1 0 1 0 
1 0 1 0 1 0 1 0 1 0 1 0 1 0 1 0 
1 0 1 0 1 0 1 0 1 0 1 0 1 0 1 0 
1 0 1 0 1 0 1 0 1 0 1 0 1 0 1 0 
1 0 1 0 1 0 1 0 1 0 1 0 1 0 1 0 
1 0 1 0 1 0 1 0 1 0 1 0 1 0 1 0 
1 0 1 0 1 0 1 0 1 0 1 0 1 0 1 0 
1 0 1 0 1 0 1 0 1 0 1 0 1 0 1 0 
1 0 1 0 1 0 1 0 1 0 1 0 1 0 1 0 
1 0 1 0 1 0 1 0 1 0 1 0 1 0 1 0 
1 0 1 0 1 0 1 0 1 0 1 0 1 0 1 0 
1 0 1 0 1 0 1 0 1 0 1 0 1 0 1 0 
1 0 1 0 1 0 1 0 1 0 1 0 1 0 1 0 
1 0 1 0 1 0 1 0 1 0 1 0 1 0 1 0 
1 0 1 0 1 0 1 0 1 0 1 0 1 0 1 0 
1 0 1 0 1 0 1 0 1 0 1 0 1 0 1 0 
1 0 1 0 1 0 1 0 1 0 1 0 1 0 1 0 
1 0 1 0 1 0 1 0 1 0 1 0 1 0 1 0 
1 0 1 0 1 0 1 0 1 0 1 0 1 0 1 0 
1 0 1 0 1 0 1 0 1 0 1 0 1 0 1 0 
1 0 1 0 1 0 1 0 1 0 1 0 1 0 1 0 
1 0 1 0 1 0 1 0 1 0 1 0 1 0 1 0 
1 0 1 0 1 0 1 0 1 0 1 0 1 0 1 0 
1 0 1 0 1 0 1 0 1 0 1 0 1 0 1 0 
1 0 1 0 1 0 1 0 1 0 1 0 1 0 1 0 
1 0 1 0 1 0 1 0 1 0 1 0 1 0 1 0 
1 0 1 0 1 0 1 0 1 0 1 0 1 0 1 0 
1 0 1 0 1 0 1 0 1 0 1 0 1 0 1 0 
1 0 1 0 1 0 1 0 1 0 1 0 1 0 1 0 
1 0 1 0 1 0 1 0 1 0 1 0 1 0 1 0 
1 0 1 0 1 0 1 0 1 0 1 0 1 0 1 0 
1 0 1 0 1 0 1 0 1 0 1 0 1 0 1 0 
1 0 1 0 1 0 1 0 1 0 1 0 1 0 1 0 
1 0 1 0 1 0 1 0 1 0 1 0 1 0 1 0 
1 0 1 0 1 0 1 0 1 0 1 0 1 0 1 0 
1 0 1 0 1 0 1 0 1 0 1 0 1 0 1 0 
1 0 1 0 1 0 1 0 1 0 1 0 1 0 1 0 
1 0 1 0 1 0 714 2797 300 MP stroke
1 0 1 0 1 0 1 0 1 0 1 0 1 0 1 0 
1 0 1 0 1 0 1 0 1 0 1 0 1 0 699 2797 16 MP stroke
DA
/c9 { 0.930000 0.000000 0.000000 sr} bdef
c9
1 0 1 0 1 0 1 0 1 0 1 0 1 0 1 0 
1 0 1 0 1 0 1 0 1 0 1 0 1 0 1 0 
1 0 1 0 1 0 1 0 1 0 1 0 1 0 1 0 
1 0 1 0 1 0 1 0 1 0 1 0 1 0 1 0 
1 0 1 0 1 0 1 0 1 0 1 0 1 0 1 0 
1 0 1 0 1 0 1 0 1 0 1 0 1 0 1 0 
1 0 1 0 1 0 1 0 1 0 1 0 1 0 1 0 
1 0 1 0 1 0 1 0 1 0 1 0 1 0 1 0 
1 0 1 0 1 0 1 0 1 0 1 0 1 0 1 0 
1 0 1 0 1 0 1 0 1 0 1 0 1 0 1 0 
1 0 1 0 1 0 1 0 1 0 1 0 1 0 1 0 
1 0 1 0 1 0 1 0 1 0 1 0 1 0 1 0 
1 0 1 0 1 0 1 0 1 0 1 0 1 0 1 0 
1 0 1 0 1 0 1 0 1 0 1 0 1 0 1 0 
1 0 1 0 1 0 1 0 1 0 1 0 1 0 1 0 
1 0 1 0 1 0 1 0 1 0 1 0 1 0 1 0 
1 0 1 0 1 0 1 0 1 0 1 0 1 0 1 0 
1 0 1 0 1 0 1 0 1 0 1 0 1 0 1 0 
1 0 1 0 1 0 1 0 1 0 1 0 1 0 1 0 
1 0 1 0 1 0 1 0 1 0 1 0 1 0 1 0 
1 0 1 0 1 0 1 0 1 0 1 0 1 0 1 0 
1 0 1 0 1 0 1 0 1 0 1 0 1 0 1 0 
1 0 1 0 1 0 1 0 1 0 1 0 1 0 1 0 
1 0 1 0 1 0 1 0 1 0 1 0 1 0 1 0 
1 0 1 0 1 0 1 0 1 0 1 0 1 0 1 0 
1 0 1 0 1 0 1 0 1 0 1 0 1 0 1 0 
1 0 1 0 1 0 1 0 1 0 1 0 1 0 1 0 
1 0 1 0 1 0 1 0 1 0 1 0 1 0 1 0 
1 0 1 0 1 0 1 0 1 0 1 0 1 0 1 0 
1 0 1 0 1 0 1 0 1 0 1 0 1 0 1 0 
1 0 1 0 1 0 1 0 1 0 1 0 1 0 1 0 
1 0 1 0 1 0 1 0 1 0 1 0 1 0 1 0 
1 0 1 0 1 0 1 0 1 0 1 0 1 0 1 0 
1 0 1 0 1 0 1 0 1 0 1 0 1 0 1 0 
1 0 1 0 1 0 1 0 1 0 1 0 1 0 1 0 
1 0 1 0 1 0 1 0 1 0 1 0 1 0 1 0 
1 0 1 0 1 0 1 0 1 0 1 0 1 0 1 0 
1 0 1 0 1 0 4547 1551 300 MP stroke
1 0 1 0 1 0 1 0 1 0 1 0 1 0 1 0 
1 0 1 0 1 0 1 0 1 0 1 0 1 0 1 0 
1 0 1 0 1 0 1 0 1 0 1 0 1 0 1 0 
1 0 1 0 1 0 1 0 1 0 1 0 1 0 1 0 
1 0 1 0 1 0 1 0 1 0 1 0 1 0 1 0 
1 0 1 0 1 0 1 0 1 0 1 0 1 0 1 0 
1 0 1 0 1 0 1 0 1 0 1 0 1 0 1 0 
1 0 1 0 1 0 1 0 1 0 1 0 1 0 1 0 
1 0 1 0 1 0 1 0 1 0 1 0 1 0 1 0 
1 0 1 0 1 0 1 0 1 0 1 0 1 0 1 0 
1 0 1 0 1 0 1 0 1 0 1 0 1 0 1 0 
1 0 1 0 1 0 1 0 1 0 1 0 1 0 1 0 
1 0 1 0 1 0 1 0 1 0 1 0 1 0 1 0 
1 0 1 0 1 0 1 0 1 0 1 0 1 0 1 0 
1 0 1 0 1 0 1 0 1 0 1 0 1 0 1 0 
1 0 1 0 1 0 1 0 1 0 1 0 1 0 1 0 
1 0 1 0 1 0 1 0 1 0 1 0 1 0 1 0 
1 0 1 0 1 0 1 0 1 0 1 0 1 0 1 0 
1 0 1 0 1 0 1 0 1 0 1 0 1 0 1 0 
1 0 1 0 1 0 1 0 1 0 1 0 1 0 1 0 
1 0 1 0 1 0 1 0 1 0 1 0 1 0 1 0 
1 0 1 0 1 0 1 0 1 0 1 0 1 0 1 0 
1 0 1 0 1 0 1 0 1 0 1 0 1 0 1 0 
1 0 1 0 1 0 1 0 1 0 1 0 1 0 1 0 
1 0 1 0 1 0 1 0 1 0 1 0 1 0 1 0 
1 0 1 0 1 0 1 0 1 0 1 0 1 0 1 0 
1 0 1 0 1 0 1 0 1 0 1 0 1 0 1 0 
1 0 1 0 1 0 1 0 1 0 1 0 1 0 1 0 
1 0 1 0 1 0 1 0 1 0 1 0 1 0 1 0 
1 0 1 0 1 0 1 0 1 0 1 0 1 0 1 0 
1 0 1 0 1 0 1 0 1 0 1 0 1 0 1 0 
1 0 1 0 1 0 1 0 1 0 1 0 1 0 1 0 
1 0 1 0 1 0 1 0 1 0 1 0 1 0 1 0 
1 0 1 0 1 0 1 0 1 0 1 0 1 0 1 0 
1 0 1 0 1 0 1 0 1 0 1 0 1 0 1 0 
1 0 1 0 1 0 1 0 1 0 1 0 1 0 1 0 
1 0 1 0 1 0 1 0 1 0 1 0 1 0 1 0 
1 0 1 0 1 0 4248 1551 300 MP stroke
1 0 1 0 1 0 1 0 1 0 1 0 1 0 1 0 
1 0 1 0 1 0 1 0 1 0 1 0 1 0 1 0 
1 0 1 0 1 0 1 0 1 0 1 0 1 0 1 0 
1 0 1 0 1 0 1 0 1 0 1 0 1 0 1 0 
1 0 1 0 1 0 1 0 1 0 1 0 1 0 1 0 
1 0 1 0 1 0 1 0 1 0 1 0 1 0 1 0 
1 0 1 0 1 0 1 0 1 0 1 0 1 0 1 0 
1 0 1 0 1 0 1 0 1 0 1 0 1 0 1 0 
1 0 1 0 1 0 1 0 1 0 1 0 1 0 1 0 
1 0 1 0 1 0 1 0 1 0 1 0 1 0 1 0 
1 0 1 0 1 0 1 0 1 0 1 0 1 0 1 0 
1 0 1 0 1 0 1 0 1 0 1 0 1 0 1 0 
1 0 1 0 1 0 1 0 1 0 1 0 1 0 1 0 
1 0 1 0 1 0 1 0 1 0 1 0 1 0 1 0 
1 0 1 0 1 0 1 0 1 0 1 0 1 0 1 0 
1 0 1 0 1 0 1 0 1 0 1 0 1 0 1 0 
1 0 1 0 1 0 1 0 1 0 1 0 1 0 1 0 
1 0 1 0 1 0 1 0 1 0 1 0 1 0 1 0 
1 0 1 0 1 0 1 0 1 0 1 0 1 0 1 0 
1 0 1 0 1 0 1 0 1 0 1 0 1 0 1 0 
1 0 1 0 1 0 1 0 1 0 1 0 1 0 1 0 
1 0 1 0 1 0 1 0 1 0 1 0 1 0 1 0 
1 0 1 0 1 0 1 0 1 0 1 0 1 0 1 0 
1 0 1 0 1 0 1 0 1 0 1 0 1 0 1 0 
1 0 1 0 1 0 1 0 1 0 1 0 1 0 1 0 
1 0 1 0 1 0 1 0 1 0 1 0 1 0 1 0 
1 0 1 0 1 0 1 0 1 0 1 0 1 0 1 0 
1 0 1 0 1 0 1 0 1 0 1 0 1 0 1 0 
1 0 1 0 1 0 1 0 1 0 1 0 1 0 1 0 
1 0 1 0 1 0 1 0 1 0 1 0 1 0 1 0 
1 0 1 0 1 0 1 0 1 0 1 0 1 0 1 0 
1 0 1 0 1 0 1 0 1 0 1 0 1 0 1 0 
1 0 1 0 1 0 1 0 1 0 1 0 1 0 1 0 
1 0 1 0 1 0 1 0 1 0 1 0 1 0 1 0 
1 0 1 0 1 0 1 0 1 0 1 0 1 0 1 0 
1 0 1 0 1 0 1 0 1 0 1 0 1 0 1 0 
1 0 1 0 1 0 1 0 1 0 1 0 1 0 1 0 
1 0 1 0 1 0 3949 1551 300 MP stroke
1 0 1 0 1 0 1 0 1 0 1 0 1 0 1 0 
1 0 1 0 1 0 1 0 1 0 1 0 1 0 1 0 
1 0 1 0 1 0 1 0 1 0 1 0 1 0 1 0 
1 0 1 0 1 0 1 0 1 0 1 0 1 0 1 0 
1 0 1 0 1 0 1 0 1 0 1 0 1 0 1 0 
1 0 1 0 1 0 1 0 1 0 1 0 1 0 1 0 
1 0 1 0 1 0 1 0 1 0 1 0 1 0 1 0 
1 0 1 0 1 0 1 0 1 0 1 0 1 0 1 0 
1 0 1 0 1 0 1 0 1 0 1 0 1 0 1 0 
1 0 1 0 1 0 1 0 1 0 1 0 1 0 1 0 
1 0 1 0 1 0 1 0 1 0 1 0 1 0 1 0 
1 0 1 0 1 0 1 0 1 0 1 0 1 0 1 0 
1 0 1 0 1 0 1 0 1 0 1 0 1 0 1 0 
1 0 1 0 1 0 1 0 1 0 1 0 1 0 1 0 
1 0 1 0 1 0 1 0 1 0 1 0 1 0 1 0 
1 0 1 0 1 0 1 0 1 0 1 0 1 0 1 0 
1 0 1 0 1 0 1 0 1 0 1 0 1 0 1 0 
1 0 1 0 1 0 1 0 1 0 1 0 1 0 1 0 
1 0 1 0 1 0 1 0 1 0 1 0 1 0 1 0 
1 0 1 0 1 0 1 0 1 0 1 0 1 0 1 0 
1 0 1 0 1 0 1 0 1 0 1 0 1 0 1 0 
1 0 1 0 1 0 1 0 1 0 1 0 1 0 1 0 
1 0 1 0 1 0 1 0 1 0 1 0 1 0 1 0 
1 0 1 0 1 0 1 0 1 0 1 0 1 0 1 0 
1 0 1 0 1 0 1 0 1 0 1 0 1 0 1 0 
1 0 1 0 1 0 1 0 1 0 1 0 1 0 1 0 
1 0 1 0 1 0 1 0 1 0 1 0 1 0 1 0 
1 0 1 0 1 0 1 0 1 0 1 0 1 0 1 0 
1 0 1 0 1 0 1 0 1 0 1 0 1 0 1 0 
1 0 1 0 1 0 1 0 1 0 1 0 1 0 1 0 
1 0 1 0 1 0 1 0 1 0 1 0 1 0 1 0 
1 0 1 0 1 0 1 0 1 0 1 0 1 0 1 0 
1 0 1 0 1 0 1 0 1 0 1 0 1 0 1 0 
1 0 1 0 1 0 1 0 1 0 1 0 1 0 1 0 
1 0 1 0 1 0 1 0 1 0 1 0 1 0 1 0 
1 0 1 0 1 0 1 0 1 0 1 0 1 0 1 0 
1 0 1 0 1 0 1 0 1 0 1 0 1 0 1 0 
1 0 1 0 1 0 3650 1551 300 MP stroke
1 0 1 0 1 0 1 0 1 0 1 0 1 0 1 0 
1 0 1 0 1 0 1 0 1 0 1 0 1 0 1 0 
1 0 1 0 1 0 1 0 1 0 1 0 1 0 1 0 
1 0 1 0 1 0 1 0 1 0 1 0 1 0 1 0 
1 0 1 0 1 0 1 0 1 0 1 0 1 0 1 0 
1 0 1 0 1 0 1 0 1 0 1 0 1 0 1 0 
1 0 1 0 1 0 1 0 1 0 1 0 1 0 1 0 
1 0 1 0 1 0 1 0 1 0 1 0 1 0 1 0 
1 0 1 0 1 0 1 0 1 0 1 0 1 0 1 0 
1 0 1 0 1 0 1 0 1 0 1 0 1 0 1 0 
1 0 1 0 1 0 1 0 1 0 1 0 1 0 1 0 
1 0 1 0 1 0 1 0 1 0 1 0 1 0 1 0 
1 0 1 0 1 0 1 0 1 0 1 0 1 0 1 0 
1 0 1 0 1 0 1 0 1 0 1 0 1 0 1 0 
1 0 1 0 1 0 1 0 1 0 1 0 1 0 1 0 
1 0 1 0 1 0 1 0 1 0 1 0 1 0 1 0 
1 0 1 0 1 0 1 0 1 0 1 0 1 0 1 0 
1 0 1 0 1 0 1 0 1 0 1 0 1 0 1 0 
1 0 1 0 1 0 1 0 1 0 1 0 1 0 1 0 
1 0 1 0 1 0 1 0 1 0 1 0 1 0 1 0 
1 0 1 0 1 0 1 0 1 0 1 0 1 0 1 0 
1 0 1 0 1 0 1 0 1 0 1 0 1 0 1 0 
1 0 1 0 1 0 1 0 1 0 1 0 1 0 1 0 
1 0 1 0 1 0 1 0 1 0 1 0 1 0 1 0 
1 0 1 0 1 0 1 0 1 0 1 0 1 0 1 0 
1 0 1 0 1 0 1 0 1 0 1 0 1 0 1 0 
1 0 1 0 1 0 1 0 1 0 1 0 1 0 1 0 
1 0 1 0 1 0 1 0 1 0 1 0 1 0 1 0 
1 0 1 0 1 0 1 0 1 0 1 0 1 0 1 0 
1 0 1 0 1 0 1 0 1 0 1 0 1 0 1 0 
1 0 1 0 1 0 1 0 1 0 1 0 1 0 1 0 
1 0 1 0 1 0 1 0 1 0 1 0 1 0 1 0 
1 0 1 0 1 0 1 0 1 0 1 0 1 0 1 0 
1 0 1 0 1 0 1 0 1 0 1 0 1 0 1 0 
1 0 1 0 1 0 1 0 1 0 1 0 1 0 1 0 
1 0 1 0 1 0 1 0 1 0 1 0 1 0 1 0 
1 0 1 0 1 0 1 0 1 0 1 0 1 0 1 0 
1 0 1 0 1 0 3351 1551 300 MP stroke
1 0 1 0 1 0 1 0 1 0 1 0 1 0 1 0 
1 0 1 0 1 0 1 0 1 0 1 0 1 0 1 0 
1 0 1 0 1 0 1 0 1 0 1 0 1 0 1 0 
1 0 1 0 1 0 1 0 1 0 1 0 1 0 1 0 
1 0 1 0 1 0 1 0 1 0 1 0 1 0 1 0 
1 0 1 0 1 0 1 0 1 0 1 0 1 0 1 0 
1 0 1 0 1 0 1 0 1 0 1 0 1 0 1 0 
1 0 1 0 1 0 1 0 1 0 1 0 1 0 1 0 
1 0 1 0 1 0 1 0 1 0 1 0 1 0 1 0 
1 0 1 0 1 0 1 0 1 0 1 0 1 0 1 0 
1 0 1 0 1 0 1 0 1 0 1 0 1 0 1 0 
1 0 1 0 1 0 1 0 1 0 1 0 1 0 1 0 
1 0 1 0 1 0 1 0 1 0 1 0 1 0 1 0 
1 0 1 0 1 0 1 0 1 0 1 0 1 0 1 0 
1 0 1 0 1 0 1 0 1 0 1 0 1 0 1 0 
1 0 1 0 1 0 1 0 1 0 1 0 1 0 1 0 
1 0 1 0 1 0 1 0 1 0 1 0 1 0 1 0 
1 0 1 0 1 0 1 0 1 0 1 0 1 0 1 0 
1 0 1 0 1 0 1 0 1 0 1 0 1 0 1 0 
1 0 1 0 1 0 1 0 1 0 1 0 1 0 1 0 
1 0 1 0 1 0 1 0 1 0 1 0 1 0 1 0 
1 0 1 0 1 0 1 0 1 0 1 0 1 0 1 0 
1 0 1 0 1 0 1 0 1 0 1 0 1 0 1 0 
1 0 1 0 1 0 1 0 1 0 1 0 1 0 1 0 
1 0 1 0 1 0 1 0 1 0 1 0 1 0 1 0 
1 0 1 0 1 0 1 0 1 0 1 0 1 0 1 0 
1 0 1 0 1 0 1 0 1 0 1 0 1 0 1 0 
1 0 1 0 1 0 1 0 1 0 1 0 1 0 1 0 
1 0 1 0 1 0 1 0 1 0 1 0 1 0 1 0 
1 0 1 0 1 0 1 0 1 0 1 0 1 0 1 0 
1 0 1 0 1 0 1 0 1 0 1 0 1 0 1 0 
1 0 1 0 1 0 1 0 1 0 1 0 1 0 1 0 
1 0 1 0 1 0 1 0 1 0 1 0 1 0 1 0 
1 0 1 0 1 0 1 0 1 0 1 0 1 0 1 0 
1 0 1 0 1 0 1 0 1 0 1 0 1 0 1 0 
1 0 1 0 1 0 1 0 1 0 1 0 1 0 1 0 
1 0 1 0 1 0 1 0 1 0 1 0 1 0 1 0 
1 0 1 0 1 0 3052 1551 300 MP stroke
1 0 1 0 1 0 1 0 1 0 1 0 1 0 1 0 
1 0 1 0 1 0 1 0 1 0 1 0 1 0 1 0 
1 0 1 0 1 0 1 0 1 0 1 0 1 0 1 0 
1 0 1 0 1 0 1 0 1 0 1 0 1 0 1 0 
1 0 1 0 1 0 1 0 1 0 1 0 1 0 1 0 
1 0 1 0 1 0 1 0 1 0 1 0 1 0 1 0 
1 0 1 0 1 0 1 0 1 0 1 0 1 0 1 0 
1 0 1 0 1 0 1 0 1 0 1 0 1 0 1 0 
1 0 1 0 1 0 1 0 1 0 1 0 1 0 1 0 
1 0 1 0 1 0 1 0 1 0 1 0 1 0 1 0 
1 0 1 0 1 0 1 0 1 0 1 0 1 0 1 0 
1 0 1 0 1 0 1 0 1 0 1 0 1 0 1 0 
1 0 1 0 1 0 1 0 1 0 1 0 1 0 1 0 
1 0 1 0 1 0 1 0 1 0 1 0 1 0 1 0 
1 0 1 0 1 0 1 0 1 0 1 0 1 0 1 0 
1 0 1 0 1 0 1 0 1 0 1 0 1 0 1 0 
1 0 1 0 1 0 1 0 1 0 1 0 1 0 1 0 
1 0 1 0 1 0 1 0 1 0 1 0 1 0 1 0 
1 0 1 0 1 0 1 0 1 0 1 0 1 0 1 0 
1 0 1 0 1 0 1 0 1 0 1 0 1 0 1 0 
1 0 1 0 1 0 1 0 1 0 1 0 1 0 1 0 
1 0 1 0 1 0 1 0 1 0 1 0 1 0 1 0 
1 0 1 0 1 0 1 0 1 0 1 0 1 0 1 0 
1 0 1 0 1 0 1 0 1 0 1 0 1 0 1 0 
1 0 1 0 1 0 1 0 1 0 1 0 1 0 1 0 
1 0 1 0 1 0 1 0 1 0 1 0 1 0 1 0 
1 0 1 0 1 0 1 0 1 0 1 0 1 0 1 0 
1 0 1 0 1 0 1 0 1 0 1 0 1 0 1 0 
1 0 1 0 1 0 1 0 1 0 1 0 1 0 1 0 
1 0 1 0 1 0 1 0 1 0 1 0 1 0 1 0 
1 0 1 0 1 0 1 0 1 0 1 0 1 0 1 0 
1 0 1 0 1 0 1 0 1 0 1 0 1 0 1 0 
1 0 1 0 1 0 1 0 1 0 1 0 1 0 1 0 
1 0 1 0 1 0 1 0 1 0 1 0 1 0 1 0 
1 0 1 0 1 0 1 0 1 0 1 0 1 0 1 0 
1 0 1 0 1 0 1 0 1 0 1 0 1 0 1 0 
1 0 1 0 1 0 1 0 1 0 1 0 1 0 1 0 
1 0 1 0 1 0 2753 1551 300 MP stroke
1 0 1 0 1 0 1 0 1 0 1 0 1 0 1 0 
1 0 1 0 1 0 1 0 1 0 1 0 1 0 1 0 
1 0 1 0 1 0 1 0 1 0 1 0 1 0 1 0 
1 0 1 0 1 0 1 0 1 0 1 0 1 0 1 0 
1 0 1 0 1 0 1 0 1 0 1 0 1 0 1 0 
1 0 1 0 1 0 1 0 1 0 1 0 1 0 1 0 
1 0 1 0 1 0 1 0 1 0 1 0 1 0 1 0 
1 0 1 0 1 0 1 0 1 0 1 0 1 0 1 0 
1 0 1 0 1 0 1 0 1 0 1 0 1 0 1 0 
1 0 1 0 1 0 1 0 1 0 1 0 1 0 1 0 
1 0 1 0 1 0 1 0 1 0 1 0 1 0 1 0 
1 0 1 0 1 0 1 0 1 0 1 0 1 0 1 0 
1 0 1 0 1 0 1 0 1 0 1 0 1 0 1 0 
1 0 1 0 1 0 1 0 1 0 1 0 1 0 1 0 
1 0 1 0 1 0 1 0 1 0 1 0 1 0 1 0 
1 0 1 0 1 0 1 0 1 0 1 0 1 0 1 0 
1 0 1 0 1 0 1 0 1 0 1 0 1 0 1 0 
1 0 1 0 1 0 1 0 1 0 1 0 1 0 1 0 
1 0 1 0 1 0 1 0 1 0 1 0 1 0 1 0 
1 0 1 0 1 0 1 0 1 0 1 0 1 0 1 0 
1 0 1 0 1 0 1 0 1 0 1 0 1 0 1 0 
1 0 1 0 1 0 1 0 1 0 1 0 1 0 1 0 
1 0 1 0 1 0 1 0 1 0 1 0 1 0 1 0 
1 0 1 0 1 0 1 0 1 0 1 0 1 0 1 0 
1 0 1 0 1 0 1 0 1 0 1 0 1 0 1 0 
1 0 1 0 1 0 1 0 1 0 1 0 1 0 1 0 
1 0 1 0 1 0 1 0 1 0 1 0 1 0 1 0 
1 0 1 0 1 0 1 0 1 0 1 0 1 0 1 0 
1 0 1 0 1 0 1 0 1 0 1 0 1 0 1 0 
1 0 1 0 1 0 1 0 1 0 1 0 1 0 1 0 
1 0 1 0 1 0 1 0 1 0 1 0 1 0 1 0 
1 0 1 0 1 0 1 0 1 0 1 0 1 0 1 0 
1 0 1 0 1 0 1 0 1 0 1 0 1 0 1 0 
1 0 1 0 1 0 1 0 1 0 1 0 1 0 1 0 
1 0 1 0 1 0 1 0 1 0 1 0 1 0 1 0 
1 0 1 0 1 0 1 0 1 0 1 0 1 0 1 0 
1 0 1 0 1 0 1 0 1 0 1 0 1 0 1 0 
1 0 1 0 1 0 2454 1551 300 MP stroke
1 0 1 0 1 0 1 0 1 0 1 0 1 0 1 0 
1 0 1 0 1 0 1 0 1 0 1 0 1 0 1 0 
1 0 1 0 1 0 1 0 1 0 1 0 1 0 1 0 
1 0 1 0 1 0 1 0 1 0 1 0 1 0 1 0 
1 0 1 0 1 0 1 0 1 0 1 0 1 0 1 0 
1 0 1 0 1 0 1 0 1 0 1 0 1 0 1 0 
1 0 1 0 1 0 1 0 1 0 1 0 1 0 1 0 
1 0 1 0 1 0 1 0 1 0 1 0 1 0 1 0 
1 0 1 0 1 0 1 0 1 0 1 0 1 0 1 0 
1 0 1 0 1 0 1 0 1 0 1 0 1 0 1 0 
1 0 1 0 1 0 1 0 1 0 1 0 1 0 1 0 
1 0 1 0 1 0 1 0 1 0 1 0 1 0 1 0 
1 0 1 0 1 0 1 0 1 0 1 0 1 0 1 0 
1 0 1 0 1 0 1 0 1 0 1 0 1 0 1 0 
1 0 1 0 1 0 1 0 1 0 1 0 1 0 1 0 
1 0 1 0 1 0 1 0 1 0 1 0 1 0 1 0 
1 0 1 0 1 0 1 0 1 0 1 0 1 0 1 0 
1 0 1 0 1 0 1 0 1 0 1 0 1 0 1 0 
1 0 1 0 1 0 1 0 1 0 1 0 1 0 1 0 
1 0 1 0 1 0 1 0 1 0 1 0 1 0 1 0 
1 0 1 0 1 0 1 0 1 0 1 0 1 0 1 0 
1 0 1 0 1 0 1 0 1 0 1 0 1 0 1 0 
1 0 1 0 1 0 1 0 1 0 1 0 1 0 1 0 
1 0 1 0 1 0 1 0 1 0 1 0 1 0 1 0 
1 0 1 0 1 0 1 0 1 0 1 0 1 0 1 0 
1 0 1 0 1 0 1 0 1 0 1 0 1 0 1 0 
1 0 1 0 1 0 1 0 1 0 1 0 1 0 1 0 
1 0 1 0 1 0 1 0 1 0 1 0 1 0 1 0 
1 0 1 0 1 0 1 0 1 0 1 0 1 0 1 0 
1 0 1 0 1 0 1 0 1 0 1 0 1 0 1 0 
1 0 1 0 1 0 1 0 1 0 1 0 1 0 1 0 
1 0 1 0 1 0 1 0 1 0 1 0 1 0 1 0 
1 0 1 0 1 0 1 0 1 0 1 0 1 0 1 0 
1 0 1 0 1 0 1 0 1 0 1 0 1 0 1 0 
1 0 1 0 1 0 1 0 1 0 1 0 1 0 1 0 
1 0 1 0 1 0 1 0 1 0 1 0 1 0 1 0 
1 0 1 0 1 0 1 0 1 0 1 0 1 0 1 0 
1 0 1 0 1 0 2155 1551 300 MP stroke
1 0 1 0 1 0 1 0 1 0 1 0 1 0 1 0 
1 0 1 0 1 0 1 0 1 0 1 0 1 0 1 0 
1 0 1 0 1 0 1 0 1 0 1 0 1 0 1 0 
1 0 1 0 1 0 1 0 1 0 1 0 1 0 1 0 
1 0 1 0 1 0 1 0 1 0 1 0 1 0 1 0 
1 0 1 0 1 0 1 0 1 0 1 0 1 0 1 0 
1 0 1 0 1 0 1 0 1 0 1 0 1 0 1 0 
1 0 1 0 1 0 1 0 1 0 1 0 1 0 1 0 
1 0 1 0 1 0 1 0 1 0 1 0 1 0 1 0 
1 0 1 0 1 0 1 0 1 0 1 0 1 0 1 0 
1 0 1 0 1 0 1 0 1 0 1 0 1 0 1 0 
1 0 1 0 1 0 1 0 1 0 1 0 1 0 1 0 
1 0 1 0 1 0 1 0 1 0 1 0 1 0 1 0 
1 0 1 0 1 0 1 0 1 0 1 0 1 0 1 0 
1 0 1 0 1 0 1 0 1 0 1 0 1 0 1 0 
1 0 1 0 1 0 1 0 1 0 1 0 1 0 1 0 
1 0 1 0 1 0 1 0 1 0 1 0 1 0 1 0 
1 0 1 0 1 0 1 0 1 0 1 0 1 0 1 0 
1 0 1 0 1 0 1 0 1 0 1 0 1 0 1 0 
1 0 1 0 1 0 1 0 1 0 1 0 1 0 1 0 
1 0 1 0 1 0 1 0 1 0 1 0 1 0 1 0 
1 0 1 0 1 0 1 0 1 0 1 0 1 0 1 0 
1 0 1 0 1 0 1 0 1 0 1 0 1 0 1 0 
1 0 1 0 1 0 1 0 1 0 1 0 1 0 1 0 
1 0 1 0 1 0 1 0 1 0 1 0 1 0 1 0 
1 0 1 0 1 0 1 0 1 0 1 0 1 0 1 0 
1 0 1 0 1 0 1 0 1 0 1 0 1 0 1 0 
1 0 1 0 1 0 1 0 1 0 1 0 1 0 1 0 
1 0 1 0 1 0 1 0 1 0 1 0 1 0 1 0 
1 0 1 0 1 0 1 0 1 0 1 0 1 0 1 0 
1 0 1 0 1 0 1 0 1 0 1 0 1 0 1 0 
1 0 1 0 1 0 1 0 1 0 1 0 1 0 1 0 
1 0 1 0 1 0 1 0 1 0 1 0 1 0 1 0 
1 0 1 0 1 0 1 0 1 0 1 0 1 0 1 0 
1 0 1 0 1 0 1 0 1 0 1 0 1 0 1 0 
1 0 1 0 1 0 1 0 1 0 1 0 1 0 1 0 
1 0 1 0 1 0 1 0 1 0 1 0 1 0 1 0 
1 0 1 0 1 0 1856 1551 300 MP stroke
1 0 1 0 1 0 1 0 1 0 1 0 1 0 1 0 
1 0 1 0 1 0 1 0 1 0 1 0 1 0 1 0 
1 0 1 0 1 0 1 0 1 0 1 0 1 0 1 0 
1 0 1 0 1 0 1 0 1 0 1 0 1 0 1 0 
1 0 1 0 1 0 1 0 1 0 1 0 1 0 1 0 
1 0 1 0 1 0 1 0 1 0 1 0 1 0 1 0 
1 0 1 0 1 0 1 0 1 0 1 0 1 0 1 0 
1 0 1 0 1 0 1 0 1 0 1 0 1 0 1 0 
1 0 1 0 1 0 1 0 1 0 1 0 1 0 1 0 
1 0 1 0 1 0 1 0 1 0 1 0 1 0 1 0 
1 0 1 0 1 0 1 0 1 0 1 0 1 0 1 0 
1 0 1 0 1 0 1 0 1 0 1 0 1 0 1 0 
1 0 1 0 1 0 1 0 1 0 1 0 1 0 1 0 
1 0 1 0 1 0 1 0 1 0 1 0 1 0 1 0 
1 0 1 0 1 0 1 0 1 0 1 0 1 0 1 0 
1 0 1 0 1 0 1 0 1 0 1 0 1 0 1 0 
1 0 1 0 1 0 1 0 1 0 1 0 1 0 1 0 
1 0 1 0 1 0 1 0 1 0 1 0 1 0 1 0 
1 0 1 0 1 0 1 0 1 0 1 0 1 0 1 0 
1 0 1 0 1 0 1 0 1 0 1 0 1 0 1 0 
1 0 1 0 1 0 1 0 1 0 1 0 1 0 1 0 
1 0 1 0 1 0 1 0 1 0 1 0 1 0 1 0 
1 0 1 0 1 0 1 0 1 0 1 0 1 0 1 0 
1 0 1 0 1 0 1 0 1 0 1 0 1 0 1 0 
1 0 1 0 1 0 1 0 1 0 1 0 1 0 1 0 
1 0 1 0 1 0 1 0 1 0 1 0 1 0 1 0 
1 0 1 0 1 0 1 0 1 0 1 0 1 0 1 0 
1 0 1 0 1 0 1 0 1 0 1 0 1 0 1 0 
1 0 1 0 1 0 1 0 1 0 1 0 1 0 1 0 
1 0 1 0 1 0 1 0 1 0 1 0 1 0 1 0 
1 0 1 0 1 0 1 0 1 0 1 0 1 0 1 0 
1 0 1 0 1 0 1 0 1 0 1 0 1 0 1 0 
1 0 1 0 1 0 1 0 1 0 1 0 1 0 1 0 
1 0 1 0 1 0 1 0 1 0 1 0 1 0 1 0 
1 0 1 0 1 0 1 0 1 0 1 0 1 0 1 0 
1 0 1 0 1 0 1 0 1 0 1 0 1 0 1 0 
1 0 1 0 1 0 1 0 1 0 1 0 1 0 1 0 
1 0 1 0 1 0 1557 1551 300 MP stroke
1 0 1 0 1 0 1 0 1 0 1 0 1 0 1 0 
1 0 1 0 1 0 1 0 1 0 1 0 1 0 1 0 
1 0 1 0 1 0 1 0 1 0 1 0 1 0 1 0 
1 0 1 0 1 0 1 0 1 0 1 0 1 0 1 0 
1 0 1 0 1 0 1 0 1 0 1 0 1 0 1 0 
1 0 1 0 1 0 1 0 1 0 1 0 1 0 1 0 
1 0 1 0 1 0 1 0 1 0 1 0 1 0 1 0 
1 0 1 0 1 0 1 0 1 0 1 0 1 0 1 0 
1 0 1 0 1 0 1 0 1 0 1 0 1 0 1 0 
1 0 1 0 1 0 1 0 1 0 1 0 1 0 1 0 
1 0 1 0 1 0 1 0 1 0 1 0 1 0 1 0 
1 0 1 0 1 0 1 0 1 0 1 0 1 0 1 0 
1 0 1 0 1 0 1 0 1 0 1 0 1 0 1 0 
1 0 1 0 1 0 1 0 1 0 1 0 1 0 1 0 
1 0 1 0 1 0 1 0 1 0 1 0 1 0 1 0 
1 0 1 0 1 0 1 0 1 0 1 0 1 0 1 0 
1 0 1 0 1 0 1 0 1 0 1 0 1 0 1 0 
1 0 1 0 1 0 1 0 1 0 1 0 1 0 1 0 
1 0 1 0 1 0 1 0 1 0 1 0 1 0 1 0 
1 0 1 0 1 0 1 0 1 0 1 0 1 0 1 0 
1 0 1 0 1 0 1 0 1 0 1 0 1 0 1 0 
1 0 1 0 1 0 1 0 1 0 1 0 1 0 1 0 
1 0 1 0 1 0 1 0 1 0 1 0 1 0 1 0 
1 0 1 0 1 0 1 0 1 0 1 0 1 0 1 0 
1 0 1 0 1 0 1 0 1 0 1 0 1 0 1 0 
1 0 1 0 1 0 1 0 1 0 1 0 1 0 1 0 
1 0 1 0 1 0 1 0 1 0 1 0 1 0 1 0 
1 0 1 0 1 0 1 0 1 0 1 0 1 0 1 0 
1 0 1 0 1 0 1 0 1 0 1 0 1 0 1 0 
1 0 1 0 1 0 1 0 1 0 1 0 1 0 1 0 
1 0 1 0 1 0 1 0 1 0 1 0 1 0 1 0 
1 0 1 0 1 0 1 0 1 0 1 0 1 0 1 0 
1 0 1 0 1 0 1 0 1 0 1 0 1 0 1 0 
1 0 1 0 1 0 1 0 1 0 1 0 1 0 1 0 
1 0 1 0 1 0 1 0 1 0 1 0 1 0 1 0 
1 0 1 0 1 0 1 0 1 0 1 0 1 0 1 0 
1 0 1 0 1 0 1 0 1 0 1 0 1 0 1 0 
1 0 1 0 1 0 1258 1551 300 MP stroke
1 0 1 0 1 0 1 0 1 0 1 0 1 0 1 0 
1 0 1 0 1 0 1 0 1 0 1 0 1 0 1 0 
1 0 1 0 1 0 1 0 1 0 1 0 1 0 1 0 
1 0 1 0 1 0 1 0 1 0 1 0 1 0 1 0 
1 0 1 0 1 0 1 0 1 0 1 0 1 0 1 0 
1 0 1 0 1 0 1 0 1 0 1 0 1 0 1 0 
1 0 1 0 1 0 1 0 1 0 1 0 1 0 1 0 
1 0 1 0 1 0 1 0 1 0 1 0 1 0 1 0 
1 0 1 0 1 0 1 0 1 0 1 0 1 0 1 0 
1 0 1 0 1 0 1 0 1 0 1 0 1 0 1 0 
1 0 1 0 1 0 1 0 1 0 1 0 1 0 1 0 
1 0 1 0 1 0 1 0 1 0 1 0 1 0 1 0 
1 0 1 0 1 0 1 0 1 0 1 0 1 0 1 0 
1 0 1 0 1 0 1 0 1 0 1 0 1 0 1 0 
1 0 1 0 1 0 1 0 1 0 1 0 1 0 1 0 
1 0 1 0 1 0 1 0 1 0 1 0 1 0 1 0 
1 0 1 0 1 0 1 0 1 0 1 0 1 0 1 0 
1 0 1 0 1 0 1 0 1 0 1 0 1 0 1 0 
1 0 1 0 1 0 1 0 1 0 1 0 1 0 1 0 
1 0 1 0 1 0 1 0 1 0 1 0 1 0 1 0 
1 0 1 0 1 0 1 0 1 0 1 0 1 0 1 0 
1 0 1 0 1 0 1 0 1 0 1 0 1 0 1 0 
1 0 1 0 1 0 1 0 1 0 1 0 1 0 1 0 
1 0 1 0 1 0 1 0 1 0 1 0 1 0 1 0 
1 0 1 0 1 0 1 0 1 0 1 0 1 0 1 0 
1 0 1 0 1 0 1 0 1 0 1 0 1 0 1 0 
1 0 1 0 1 0 1 0 1 0 1 0 1 0 1 0 
1 0 1 0 1 0 1 0 1 0 1 0 1 0 1 0 
1 0 1 0 1 0 1 0 1 0 1 0 1 0 1 0 
1 0 1 0 1 0 1 0 1 0 1 0 1 0 1 0 
1 0 1 0 1 0 1 0 1 0 1 0 1 0 1 0 
1 0 1 0 1 0 1 0 1 0 1 0 1 0 1 0 
1 0 1 0 1 0 1 0 1 0 1 0 1 0 1 0 
1 0 1 0 1 0 1 0 1 0 1 0 1 0 1 0 
1 0 1 0 1 0 1 0 1 0 1 0 1 0 1 0 
1 0 1 0 1 0 1 0 1 0 1 0 1 0 1 0 
1 0 1 0 1 0 1 0 1 0 1 0 1 0 1 0 
1 0 1 0 1 0 959 1551 300 MP stroke
1 0 1 0 1 0 1 0 1 0 1 0 1 0 1 0 
1 0 1 0 1 0 1 0 1 0 1 0 1 0 1 0 
1 0 1 0 1 0 1 0 1 0 1 0 1 0 1 0 
1 0 1 0 1 0 1 0 1 0 1 0 1 0 1 0 
1 0 1 0 1 0 1 0 1 0 1 0 1 0 1 0 
1 0 1 0 1 0 1 0 1 0 1 0 1 0 1 0 
1 0 1 0 1 0 1 0 1 0 1 0 1 0 1 0 
1 0 1 0 1 0 1 0 1 0 1 0 1 0 1 0 
1 0 1 0 1 0 1 0 1 0 1 0 1 0 1 0 
1 0 1 0 1 0 1 0 1 0 1 0 1 0 1 0 
1 0 1 0 1 0 1 0 1 0 1 0 1 0 1 0 
1 0 1 0 1 0 1 0 1 0 1 0 1 0 1 0 
1 0 1 0 1 0 1 0 1 0 1 0 1 0 1 0 
1 0 1 0 1 0 1 0 1 0 1 0 1 0 1 0 
1 0 1 0 1 0 1 0 1 0 1 0 1 0 1 0 
1 0 1 0 1 0 1 0 1 0 1 0 1 0 1 0 
1 0 1 0 1 0 1 0 1 0 1 0 1 0 1 0 
1 0 1 0 1 0 1 0 1 0 1 0 1 0 1 0 
1 0 1 0 1 0 1 0 1 0 1 0 1 0 1 0 
1 0 1 0 1 0 1 0 1 0 1 0 1 0 1 0 
1 0 1 0 1 0 1 0 1 0 1 0 1 0 1 0 
1 0 1 0 1 0 1 0 1 0 1 0 1 0 1 0 
1 0 1 0 1 0 1 0 1 0 1 0 1 0 1 0 
1 0 1 0 1 0 1 0 1 0 1 0 1 0 1 0 
1 0 1 0 1 0 1 0 1 0 1 0 1 0 1 0 
1 0 1 0 1 0 1 0 1 0 1 0 1 0 1 0 
1 0 1 0 1 0 1 0 1 0 1 0 1 0 1 0 
1 0 1 0 1 0 1 0 1 0 1 0 1 0 1 0 
1 0 1 0 1 0 1 0 1 0 1 0 1 0 1 0 
1 0 1 0 1 0 1 0 1 0 1 0 1 0 1 0 
1 0 1 0 1 0 1 0 1 0 1 0 1 0 1 0 
1 0 1 0 1 0 1 0 1 0 1 0 1 0 1 0 
1 0 1 0 1 0 1 0 699 1551 261 MP stroke
gr

30 w
c9
DA
0 sg
2850 3285 mt 
(Time \(s\)) s
 422 2055 mt  -90 rotate
(Force \(N\)) s
90 rotate
%%IncludeResource: font Helvetica
/Helvetica /ISOLatin1Encoding 120 FMSR

 682 2840 mt 
( ) s
5867  347 mt 
( ) s
SO
18 w
6 w
%%IncludeResource: font Helvetica
/Helvetica /ISOLatin1Encoding 240 FMSR

4537  622 mt 
(External force) s
gs 3838 365 1986 613 rc
30 w
c8
537 0 3945 536 2 MP stroke
gr

30 w
c8
0 sg
4537  891 mt 
(Target force) s
gs 3838 365 1986 613 rc
DA
c9
537 0 3945 805 2 MP stroke
4214 805 PD
SO
6 w
gr

6 w
c9

end %%Color Dict

eplot
%%EndObject

epage
end

showpage

%%Trailer
%%EOF
