%!PS-Adobe-3.0 EPSF-3.0
%%Creator: cairo 1.14.10 (http://cairographics.org)
%%CreationDate: Thu Jul 27 16:03:37 2017
%%Pages: 1
%%DocumentData: Clean7Bit
%%LanguageLevel: 2
%%BoundingBox: 42 19 182 278
%%EndComments
%%BeginProlog
save
50 dict begin
/q { gsave } bind def
/Q { grestore } bind def
/cm { 6 array astore concat } bind def
/w { setlinewidth } bind def
/J { setlinecap } bind def
/j { setlinejoin } bind def
/M { setmiterlimit } bind def
/d { setdash } bind def
/m { moveto } bind def
/l { lineto } bind def
/c { curveto } bind def
/h { closepath } bind def
/re { exch dup neg 3 1 roll 5 3 roll moveto 0 rlineto
      0 exch rlineto 0 rlineto closepath } bind def
/S { stroke } bind def
/f { fill } bind def
/f* { eofill } bind def
/n { newpath } bind def
/W { clip } bind def
/W* { eoclip } bind def
/BT { } bind def
/ET { } bind def
/pdfmark where { pop globaldict /?pdfmark /exec load put }
    { globaldict begin /?pdfmark /pop load def /pdfmark
    /cleartomark load def end } ifelse
/BDC { mark 3 1 roll /BDC pdfmark } bind def
/EMC { mark /EMC pdfmark } bind def
/cairo_store_point { /cairo_point_y exch def /cairo_point_x exch def } def
/Tj { show currentpoint cairo_store_point } bind def
/TJ {
  {
    dup
    type /stringtype eq
    { show } { -0.001 mul 0 cairo_font_matrix dtransform rmoveto } ifelse
  } forall
  currentpoint cairo_store_point
} bind def
/cairo_selectfont { cairo_font_matrix aload pop pop pop 0 0 6 array astore
    cairo_font exch selectfont cairo_point_x cairo_point_y moveto } bind def
/Tf { pop /cairo_font exch def /cairo_font_matrix where
      { pop cairo_selectfont } if } bind def
/Td { matrix translate cairo_font_matrix matrix concatmatrix dup
      /cairo_font_matrix exch def dup 4 get exch 5 get cairo_store_point
      /cairo_font where { pop cairo_selectfont } if } bind def
/Tm { 2 copy 8 2 roll 6 array astore /cairo_font_matrix exch def
      cairo_store_point /cairo_font where { pop cairo_selectfont } if } bind def
/g { setgray } bind def
/rg { setrgbcolor } bind def
/d1 { setcachedevice } bind def
/cairo_flush_ascii85_file { cairo_ascii85_file status { cairo_ascii85_file flushfile } if } def
/cairo_image { image cairo_flush_ascii85_file } def
/cairo_imagemask { imagemask cairo_flush_ascii85_file } def
%%EndProlog
%%BeginSetup
%%EndSetup
%%Page: 1 1
%%BeginPageSetup
%%PageBoundingBox: 42 19 182 278
%%EndPageSetup
q 42 19 140 259 rectclip q
0 g
138.129 235.902 m 139.238 236.484 141.977 237.172 144.211 237.43 c 146.445
 237.691 151.375 238.574 155.164 239.391 c 158.953 240.207 163.055 240.891
 164.281 240.91 c 167.945 240.969 170.414 247.832 169.082 254.258 c 167.609
 261.391 165.969 262.668 159.457 261.738 c 156.535 261.324 149.988 260.637
 144.902 260.211 c 132.004 259.133 128.57 260.84 132.539 266.359 c 134.355
 268.879 135.797 269.523 148.664 273.566 c 165.203 278.762 166.156 278.703
 172.578 272.086 c 176.785 267.75 177.102 267.102 179.547 257.805 c 182.289
 247.398 182.223 241.605 179.312 237.629 c 178.016 235.852 174.844 234.461
 162.992 230.449 c 146.809 224.973 146.992 224.977 140.691 229.926 c 135.883
 233.707 135.523 234.539 138.129 235.902 c h
147.477 228.762 m 150.289 228.531 173.516 236.09 175.797 237.977 c 178.078
 239.863 179.914 246.586 178.59 248.195 c 178.102 248.785 178.133 249.172
 178.652 249.051 c 179.602 248.836 178.383 254.109 175.621 262.184 c 173.859
 267.34 168.352 273.625 164.648 274.699 c 160.867 275.797 136.914 267.754
 134.863 264.695 c 133.738 263.02 133.785 262.594 135.129 262.246 c 136.598
 261.867 153.457 263.164 161.77 264.297 c 166.848 264.992 169.391 262.445
 171.012 255.047 c 171.766 251.617 171.934 247.887 171.391 246.562 c 170.863
 245.266 170.852 244.699 171.375 245.301 c 171.895 245.902 172.469 245.969
 172.645 245.449 c 172.969 244.492 171.836 242.699 170.242 241.648 c 165.941
 238.812 164.117 238.074 162.055 238.324 c 160.734 238.488 156.805 237.914
 153.32 237.051 c 149.836 236.191 145.273 235.215 143.18 234.883 c 139.371
 234.281 l 142.5 231.598 l 144.219 230.121 146.457 228.844 147.477 228.762
 c h
171.73 237.535 m 172.848 237.863 173.148 237.715 172.496 237.156 c 171.906
 236.652 171.078 236.406 170.656 236.613 c 170.234 236.82 170.719 237.234
 171.73 237.535 c h
171.73 237.535 m f
53.637 194.668 m 52 199.359 54.785 205.965 60.293 210.449 c 63.039 212.68
 64.555 214.676 65.02 216.672 c 65.395 218.289 67.293 221.934 69.238 224.773
 c 73.051 230.336 78.828 238.977 82.781 245.023 c 85.707 249.5 88.812 252.215
 89.723 251.094 c 90.086 250.648 90.809 248.281 91.336 245.828 c 92.512 
240.336 96.512 236.445 102.074 235.387 c 104.16 234.988 106.211 234 106.637
 233.191 c 107.477 231.602 101.969 222.484 98.387 219.539 c 97.242 218.598
 96.375 217.305 96.461 216.664 c 96.543 216.023 96.094 215.074 95.461 214.562
 c 94.828 214.047 94.141 212.398 93.934 210.898 c 93.727 209.398 92.152 
206.746 90.441 205 c 88.293 202.809 87.082 200.379 86.543 197.18 c 85.238
 189.453 83.625 186.691 78.578 183.555 c 72.371 179.695 70.797 179.566 64.93
 182.414 c 59.312 185.145 55.535 189.242 53.637 194.668 c h
61.742 187.133 m 63.219 186.113 62.734 187.047 60.184 190.125 c 58.039 
192.719 56.73 193.82 57.07 192.746 c 57.797 190.457 58.98 189.035 61.742
 187.133 c h
55.922 196.578 m 56.082 196.711 56.195 197.816 56.176 199.039 c 56.141 
201.055 56.09 201.059 55.645 199.094 c 55.176 197.031 55.281 196.059 55.922
 196.578 c h
66.207 187.312 m 70.551 184.984 73.344 185.062 76.531 187.602 c 80.402 
190.688 81.578 194.113 80.434 198.973 c 79.414 203.312 79.434 203.367 81.27
 201.188 c 82.305 199.957 83.141 197.734 83.125 196.246 c 83.105 194.762
 83.402 195.68 83.777 198.289 c 84.156 200.902 85.18 203.621 86.055 204.332
 c 87.988 205.906 91.414 211.18 91.688 213.008 c 91.797 213.738 90.797 212.559
 89.469 210.383 c 86.523 205.566 82.129 201.793 81.031 203.148 c 80.535 
203.766 81.434 205.113 83.504 206.848 c 85.324 208.371 89.633 214.387 93.285
 220.496 c 96.871 226.504 100.246 231.773 100.781 232.207 c 101.312 232.641
 101.355 233.137 100.875 233.301 c 100.391 233.469 99.664 233.023 99.254
 232.312 c 97.598 229.43 88.02 235.434 87.156 239.898 c 86.906 241.188 86.59
 242.148 86.453 242.039 c 84.852 240.734 69.359 214.75 68.648 212.172 c 
67.859 209.301 67.215 208.555 64.855 207.773 c 61.199 206.566 57.328 200.195
 58.148 196.738 c 58.973 193.262 62.246 189.438 66.207 187.312 c h
65.27 197.48 m 65.504 199.754 66.875 200.734 69.184 200.277 c 70.391 200.039
 70.793 199.652 70.27 199.227 c 69.816 198.859 68.945 198.73 68.332 198.941
 c 67.594 199.199 66.934 198.648 66.371 197.301 c 65.398 194.98 65.02 195.043
 65.27 197.48 c h
68.383 193.941 m 70.055 193.93 70.633 194.32 70.758 195.555 c 71.012 197.988
 72.363 198.656 72.34 196.336 c 72.316 193.906 69.34 191.918 67.496 193.105
 c 66.348 193.844 66.465 193.957 68.383 193.941 c h
71.238 183.094 m 73.254 183.129 73.258 183.176 71.293 183.625 c 70.102 
183.895 68.992 184.008 68.832 183.875 c 68.191 183.355 69.121 183.055 71.238
 183.094 c h
57.621 202.672 m 58.074 203.461 58.145 204.137 57.773 204.176 c 57.406 
204.215 56.918 203.711 56.691 203.059 c 56.078 201.289 56.684 201.035 57.621
 202.672 c h
76.473 185.371 m 76.832 186.02 76.254 185.844 75.188 184.973 c 74.121 184.105
 73.824 183.574 74.535 183.793 c 75.242 184.012 76.117 184.723 76.473 185.371
 c h
62.156 208.492 m 62.75 209.301 62.18 209.125 60.887 208.102 c 59.594 207.074
 59.105 206.41 59.805 206.625 c 60.504 206.84 61.562 207.68 62.156 208.488
 c h
80.746 188.809 m 81.34 189.617 80.77 189.441 79.477 188.418 c 78.184 187.391
 77.695 186.727 78.395 186.941 c 79.094 187.156 80.148 187.996 80.746 188.809
 c h
67.09 210.496 m 66.996 211.305 67.148 213.066 67.43 214.414 c 67.711 215.758
 67.625 216.18 67.238 215.348 c 66.039 212.766 65.785 210.793 66.539 209.891
 c 67.012 209.324 67.203 209.535 67.09 210.496 c h
70.418 220.359 m 71.578 222.094 72.094 223.348 71.566 223.148 c 70.523 
222.754 67.586 218.09 68.031 217.539 c 68.184 217.355 69.254 218.625 70.418
 220.359 c h
75.93 228.73 m 76.348 229.48 76.012 229.516 75.078 228.816 c 74.234 228.188
 73.926 227.629 74.391 227.582 c 74.859 227.535 75.551 228.051 75.93 228.73
 c h
80.121 235.441 m 80.949 237.637 80.266 237.445 78.926 235.109 c 78.449 
234.281 78.355 233.57 78.715 233.535 c 79.078 233.496 79.711 234.355 80.121
 235.441 c h
84.238 241.531 m 84.871 243.449 84.852 243.469 83.844 241.945 c 83.262 
241.066 82.402 239.984 81.93 239.547 c 81.312 238.969 81.422 238.855 82.324
 239.133 c 83.012 239.344 83.875 240.422 84.238 241.531 c h
101.191 226.984 m 102.395 228.828 103.445 230.973 103.523 231.75 c 103.617
 232.691 103.398 232.699 102.855 231.777 c 102.41 231.02 101.082 228.902
 99.906 227.078 c 98.727 225.25 98.043 223.727 98.383 223.691 c 98.723 223.656
 99.984 225.137 101.191 226.984 c h
87.449 243.434 m 89.141 243.262 89.348 243.457 88.902 244.816 c 88.148 
247.121 88.012 247.172 86.305 245.785 c 84.473 244.297 84.758 243.711 87.449
 243.434 c h
94.418 234.941 m 96.238 233.965 97.934 233.332 98.184 233.535 c 98.434 
233.738 97.73 234.285 96.617 234.75 c 95.504 235.219 93.344 237.086 91.812
 238.902 c 89.672 241.449 89.172 241.727 89.633 240.113 c 90.465 237.184
 90.695 236.938 94.418 234.941 c h
94.418 234.941 m f
88.422 249.383 m 89.32 252.875 90.168 253.891 93.633 255.625 c 98.055 257.844
 102.105 258.422 136.023 261.664 c 158.887 263.852 160.734 263.863 165.383
 261.852 c 168.75 260.391 168.992 260.02 170.426 254.109 c 171.254 250.695
 171.609 246.301 171.211 244.344 c 170.508 240.852 170.336 240.723 162.68
 237.809 c 158.359 236.168 153.387 234.879 151.566 234.93 c 149.75 234.98
 145.383 234.422 141.855 233.691 c 135.785 232.434 128.32 231.539 119.016
 230.953 c 116.742 230.812 111.441 230.316 107.242 229.852 c 103.043 229.391
 98.578 229.441 97.324 229.965 c 90.895 232.66 86.555 242.129 88.422 249.383
 c h
93.301 236.672 m 94.371 235.484 94.332 236.359 93.148 239.996 c 91.914 
243.789 91.863 245.734 92.926 248.371 c 94.203 251.547 94.797 251.961 100.816
 253.891 c 107.324 255.973 l 101.574 255.059 l 93.828 253.824 91.641 252.219
 90.84 247.176 c 90.133 242.723 90.938 239.289 93.301 236.672 c h
102.246 231.879 m 103.5 232.379 103.484 232.469 102.117 232.5 c 101.238
 232.52 99.145 233.074 97.469 233.738 c 94.418 234.941 l 97.598 233.117 
l 99.348 232.117 101.441 231.559 102.246 231.879 c h
99.891 235.914 m 104.336 234.184 103.355 234.156 124.477 236.637 c 147.219
 239.309 149.848 239.68 156.312 241.105 c 161.668 242.285 161.797 242.383
 161.93 245.395 c 162.004 247.086 161.934 250.184 161.777 252.27 c 161.258
 259.148 161.027 259.16 112.488 254.316 c 101.035 253.172 96.867 251.324
 95.227 246.656 c 93.582 241.977 95.469 237.637 99.891 235.914 c h
100.266 245.508 m 102.59 247.441 105.074 247.07 105.895 244.66 c 106.441
 243.062 106.129 242.008 104.914 241.34 c 103.137 240.359 l 104.539 242.445
 l 105.676 244.141 105.633 244.688 104.316 245.344 c 103.02 245.992 102.395
 245.793 101.223 244.352 c 100.293 243.219 99.625 242.914 99.414 243.531
 c 99.23 244.074 99.613 244.961 100.266 245.508 c h
101.012 241.941 m 101.531 242.117 102.113 241.812 102.301 241.262 c 102.488
 240.711 102.125 240.375 101.496 240.52 c 100.867 240.664 100.285 240.973
 100.207 241.199 c 100.129 241.43 100.492 241.762 101.012 241.941 c h
150.375 249.246 m 150.941 249.438 151.391 249 151.375 248.266 c 151.363
 247.535 152.316 246.367 153.492 245.668 c 155.543 244.457 155.523 244.426
 153.062 244.984 c 150.434 245.578 148.52 248.613 150.375 249.246 c h
152.203 251.969 m 153.344 252.363 154.711 252.328 155.242 251.891 c 156.727
 250.668 155.992 250.32 152.926 250.805 c 150.25 251.23 150.219 251.277 
152.203 251.969 c h
106.527 232.535 m 107.18 233.094 106.879 233.242 105.762 232.91 c 104.75
 232.613 104.266 232.199 104.688 231.988 c 105.109 231.781 105.938 232.027
 106.527 232.535 c h
111.637 233.238 m 112.195 233.723 111.59 233.758 110.289 233.312 c 108.988
 232.871 108.527 232.473 109.27 232.434 c 110.008 232.391 111.074 232.754
 111.637 233.238 c h
115.691 233.543 m 116.344 234.102 116.043 234.25 114.926 233.918 c 113.914
 233.621 113.43 233.207 113.852 233 c 114.273 232.793 115.102 233.035 115.691
 233.543 c h
116.211 256.254 m 119.141 256.832 119.766 257.121 118.031 257.102 c 114.102
 257.062 106.957 255.742 109.586 255.543 c 110.777 255.453 113.758 255.77
 116.211 256.254 c h
123.789 234 m 124.684 234.305 124.406 234.547 123.039 234.652 c 121.844
 234.746 120.23 234.605 119.449 234.34 c 118.555 234.035 118.832 233.793
 120.199 233.688 c 121.391 233.594 123.008 233.734 123.789 234 c h
129.484 235.059 m 130.32 235.613 129.727 235.648 128.156 235.133 c 126.59
 234.621 125.902 234.168 126.629 234.129 c 127.359 234.086 128.645 234.508
 129.484 235.059 c h
127.883 257.645 m 129.383 258.152 129.23 258.277 127.152 258.238 c 125.711
 258.215 123.676 257.902 122.637 257.547 c 121.137 257.035 121.289 256.91
 123.367 256.949 c 124.809 256.977 126.844 257.289 127.883 257.645 c h
134.02 235.559 m 134.672 236.117 134.371 236.266 133.254 235.938 c 132.242
 235.637 131.758 235.223 132.18 235.016 c 132.602 234.809 133.43 235.055
 134.02 235.559 c h
138.129 235.902 m 138.781 236.461 138.48 236.609 137.363 236.281 c 136.352
 235.98 135.867 235.566 136.289 235.359 c 136.711 235.152 137.539 235.395
 138.129 235.902 c h
144.648 237.055 m 145.488 237.609 144.891 237.645 143.324 237.133 c 141.754
 236.617 141.066 236.164 141.797 236.125 c 142.527 236.082 143.809 236.504
 144.648 237.055 c h
136.715 258.664 m 137.367 259.223 137.066 259.371 135.949 259.039 c 134.938
 258.742 134.453 258.328 134.875 258.117 c 135.297 257.91 136.125 258.156
 136.715 258.664 c h
145.934 259.711 m 146.492 260.195 145.887 260.23 144.586 259.785 c 143.285
 259.344 142.824 258.945 143.566 258.906 c 144.305 258.863 145.371 259.227
 145.934 259.711 c h
157.699 238.082 m 161.645 239.32 160.254 239.527 155.012 238.484 c 152.039
 237.891 151.285 237.531 152.738 237.402 c 153.938 237.297 156.168 237.602
 157.699 238.082 c h
149.988 260.016 m 150.641 260.574 150.34 260.723 149.223 260.391 c 148.211
 260.094 147.727 259.68 148.148 259.473 c 148.57 259.262 149.398 259.508
 149.988 260.016 c h
154.098 260.355 m 154.75 260.918 154.449 261.066 153.332 260.734 c 152.32
 260.434 151.836 260.02 152.258 259.812 c 152.68 259.605 153.508 259.852
 154.098 260.355 c h
166.098 241.277 m 168.871 243.066 169.281 247.625 167.227 253.727 c 165.559
 258.688 165.203 259.082 161.488 260.105 c 159.309 260.703 157.062 261.016
 156.496 260.797 c 155.93 260.582 156.797 260.176 158.418 259.898 c 162.52
 259.199 163.422 257.738 164.125 250.668 c 164.793 243.973 164.223 241.355
 161.898 240.371 c 160.699 239.867 160.777 239.766 162.277 239.879 c 163.312
 239.957 165.035 240.586 166.098 241.277 c h
166.098 241.277 m f
1 g
149.852 154.414 m 149.184 154.277 142.02 150.461 142.02 150.461 c 139.742
 145.707 l 133.781 143.566 l 138.535 140.082 l 143.824 138.742 l 145.633
 134.191 l 138.602 132.852 l 146.773 123.879 l 161.906 123.34 l 161.238 
137.672 l 156.281 149.992 l 152.598 153.543 l h
149.852 154.414 m f*
0.784314 g
79.102 24.199 m 64.988 29.047 63.605 29.828 58.973 35.562 c 57.172 37.789
 53.625 42.031 51.094 44.984 c 48.562 47.941 45.984 51.867 45.359 53.719
 c 43.926 57.957 41.809 87.852 42.516 93.855 c 43.164 99.352 47.496 115.852
 50.785 125.355 c 52.117 129.207 53.223 134.156 53.246 136.355 c 53.312 
143.289 57.473 155.031 60.586 157.09 c 62.637 158.449 68.672 157.859 71.445
 156.031 c 75.062 153.648 80.93 146.742 81.359 144.371 c 81.625 142.883 
80.762 142.262 77.195 141.379 c 71.52 139.969 71.09 137.488 76.445 137.047
 c 78.508 136.875 80.195 136.266 80.195 135.691 c 80.195 135.113 78.395 
132.383 76.195 129.621 c 73.625 126.391 72.195 123.57 72.195 121.727 c 72.195
 120.148 71.766 118.855 71.238 118.855 c 70.277 118.855 67.297 109.824 65.082
 100.199 c 63.961 95.32 64.07 94.613 67.164 86.938 c 68.961 82.477 70.777
 78.617 71.199 78.355 c 71.93 77.902 86.477 79.379 90.773 80.344 c 91.914
 80.598 94.273 82.168 96.012 83.832 c 99.699 87.355 102.172 87.648 104.695
 84.855 c 105.691 83.758 107.699 82.855 109.156 82.855 c 111.605 82.855 
120.195 77.535 120.195 76.016 c 120.195 74.031 134.957 70.414 136.801 71.941
 c 137.426 72.461 138.211 74.566 138.547 76.621 c 138.879 78.676 139.688
 82.383 140.336 84.855 c 141.594 89.656 142.68 119.797 141.73 123.582 c 
141.418 124.824 139.594 127.266 137.68 129.008 c 132.734 133.508 133.109
 134.855 139.305 134.855 c 143.551 134.855 144.309 135.125 143.805 136.438
 c 143.469 137.309 143.195 138.207 143.195 138.438 c 143.195 138.668 142.129
 138.855 140.82 138.855 c 139.516 138.855 137.039 139.137 135.32 139.48 
c 131.059 140.336 130.949 144.16 135.125 146.32 c 136.738 147.152 138.32
 148.672 138.645 149.699 c 139.512 152.426 148.246 156.91 151.254 156.168
 c 154.93 155.266 155.77 154.32 159.637 146.703 c 162.742 140.59 163.195
 138.785 163.18 132.527 c 163.172 128.582 163.699 116.113 164.355 104.816
 c 165.504 85.008 165.465 83.754 163.211 69.816 c 161.215 57.477 160.234
 54.039 156.52 46.355 c 152.355 37.75 151.785 37.078 143.43 30.902 c 133.801
 23.785 134.695 24.035 111.195 21.891 c 105.422 21.363 98.672 20.695 96.195
 20.402 c 92.59 19.977 89.191 20.73 79.102 24.199 c h
114.18 75.375 m 112.949 76.684 110.578 78.055 108.906 78.422 c 107.23 78.789
 104.988 79.902 103.922 80.898 c 101.645 83.02 100.359 82.68 97.898 79.316
 c 96.355 77.203 96.32 76.855 97.648 76.855 c 98.5 76.855 99.195 76.195 
99.195 75.387 c 99.195 74.488 99.781 74.145 100.711 74.5 c 101.543 74.82
 102.879 74.535 103.68 73.871 c 104.836 72.91 105.445 72.965 106.613 74.129
 c 108.492 76.012 112.957 75.215 114.516 72.715 c 115.16 71.684 115.852 
71.324 116.051 71.918 c 116.25 72.512 115.406 74.07 114.18 75.375 c h
158.719 130.605 m 158.309 133.219 157.664 137.41 157.285 139.918 c 155.914
 149.094 148.891 154.176 145.168 148.691 c 144.359 147.5 142.965 145.758
 142.07 144.816 c 140.562 143.227 140.68 142.996 143.797 141.512 c 148.875
 139.09 149.945 131.98 145.395 130.902 c 143.215 130.383 143.266 130.277
 146.402 128.664 c 150.133 126.746 152.43 126.141 156.582 125.973 c 159.469
 125.855 l h
69.945 132.547 m 67.41 133.211 66.867 136.824 68.66 141.117 c 70.004 144.332
 70.68 144.863 73.461 144.887 c 76.145 144.914 76.398 145.094 74.945 145.938
 c 73.984 146.496 73.195 147.781 73.195 148.793 c 73.195 151.219 66.469 
154.52 64.305 153.156 c 59.859 150.352 56.758 136.578 60.195 134.902 c 61.02
 134.5 62.598 133.68 63.695 133.074 c 64.797 132.469 67.047 132 68.695 132.031
 c 70.348 132.062 70.91 132.293 69.945 132.547 c h
69.945 132.547 m f
0.666667 g
78.695 24.375 m 66.895 28.422 65.281 29.27 61.195 33.598 c 54.832 40.332
 47.914 48.688 46.453 51.398 c 43.738 56.441 41.223 90.199 43.027 97.355
 c 46.969 112.965 50.395 125.102 52.094 129.469 c 53.188 132.277 53.859 
135.43 53.586 136.469 c 52.836 139.344 55.871 149.766 58.707 154.051 c 60.879
 157.332 61.738 157.855 64.961 157.852 c 69.391 157.844 72.93 155.695 77.695
 150.129 c 82.508 144.508 82.328 142.379 76.945 141.246 c 71.434 140.082
 71.121 137.488 76.445 137.047 c 78.508 136.875 80.195 136.266 80.195 135.691
 c 80.195 135.113 78.395 132.383 76.195 129.621 c 73.996 126.855 72.195 
123.738 72.195 122.691 c 72.195 121.645 71.566 119.789 70.801 118.57 c 69.027
 115.766 64.172 98.742 64.266 95.668 c 64.305 94.398 65.789 89.98 67.566
 85.855 c 70.793 78.355 l 76.746 78.66 l 88.07 79.234 93.141 80.586 96.18
 83.84 c 99.457 87.348 102.152 87.668 104.695 84.855 c 105.691 83.758 107.723
 82.855 109.211 82.855 c 110.895 82.855 113.57 81.434 116.305 79.09 c 118.719
 77.016 121.82 74.766 123.195 74.086 c 126.309 72.547 136.312 70.641 137.109
 71.434 c 137.434 71.758 138.559 75.922 139.617 80.691 c 140.984 86.867 
141.645 94.461 141.91 107.105 c 142.285 124.855 l 138.098 128.723 l 135.691
 130.945 134.211 133.07 134.613 133.723 c 135 134.348 137.312 134.855 139.754
 134.855 c 142.199 134.855 144.191 135.195 144.18 135.605 c 144.141 137.625
 142.238 138.676 137.445 139.328 c 132.855 139.957 132.195 140.332 132.195
 142.328 c 132.195 143.918 133.098 144.988 135.164 145.844 c 136.797 146.52
 138.406 147.941 138.742 149.004 c 139.594 151.688 147.031 156.168 150.477
 156.066 c 154.5 155.953 155.844 154.52 159.754 146.164 c 162.617 140.051
 163.195 137.68 163.184 132.086 c 163.176 128.383 163.703 115.824 164.359
 104.172 c 165.242 88.434 165.262 81.621 164.43 77.672 c 163.812 74.75 162.648
 68.281 161.836 63.297 c 160.781 56.824 159.188 51.832 156.242 45.797 c 
152.383 37.895 151.574 36.953 143.566 31.02 c 134.062 23.977 134.246 24.027
 110.695 21.883 c 104.098 21.281 97.121 20.594 95.195 20.355 c 92.781 20.055
 87.664 21.305 78.695 24.375 c h
92.195 25.855 m 91.371 26.391 89.992 26.832 89.137 26.84 c 86.684 26.863
 81.73 32.117 79.445 37.121 c 78.758 38.625 77.688 40.953 77.062 42.289 
c 76.359 43.801 76.188 46.742 76.605 50.039 c 76.977 52.965 77.602 59 77.988
 63.453 c 78.406 68.234 79.312 72.293 80.195 73.359 c 81.625 75.082 81.379
 75.145 75.09 74.641 c 68.652 74.125 68.391 74.195 64.906 77.484 c 62.938
 79.34 60.711 80.855 59.949 80.855 c 59.191 80.855 56.238 81.98 53.387 83.355
 c 50.539 84.73 47.797 85.855 47.297 85.855 c 46.223 85.855 47.086 61.852
 48.211 60.355 c 48.625 59.809 49.297 57.781 49.703 55.855 c 50.168 53.656
 53.273 48.949 58.07 43.176 c 66.262 33.312 66.973 32.867 83.195 27.449 
c 91.277 24.75 94.898 24.109 92.195 25.855 c h
66.195 56.359 m 64.414 61.047 61.281 67.352 59.242 70.355 c 57.016 73.641
 56.555 76.855 58.312 76.855 c 58.926 76.855 61.102 75.082 63.141 72.914
 c 68.586 67.133 72.438 53.855 68.672 53.855 c 67.832 53.855 66.719 54.984
 66.195 56.359 c h
124.695 27.461 m 130.891 28.043 132.445 28.645 138.195 32.715 c 148.012
 39.656 149.219 40.898 151.902 46.855 c 153.266 49.883 154.953 53.48 155.656
 54.855 c 156.359 56.23 157.488 61.184 158.164 65.855 c 158.84 70.531 159.797
 75.391 160.293 76.652 c 161.547 79.848 161.461 114.574 160.195 115.355 
c 159.648 115.695 159.195 117.074 159.195 118.418 c 159.195 120.523 158.734
 120.855 155.82 120.855 c 153.965 120.855 151.039 121.137 149.32 121.48 
c 146.195 122.105 l 146.195 106.543 l 146.195 97.242 145.793 90.727 145.195
 90.355 c 143.965 89.594 143.863 85.855 145.074 85.855 c 145.559 85.855 
148.004 88.105 150.504 90.855 c 157.457 98.496 160.492 97.414 155.684 89.004
 c 152.93 84.188 152.695 83.43 154.254 84.391 c 155.871 85.391 160.195 83.992
 160.195 82.469 c 160.195 81.094 155.129 79.824 147.84 79.371 c 143.371 
79.094 142.234 77.75 142.211 72.73 c 142.188 66.656 139.684 65.965 126.914
 68.48 c 124.133 69.031 l 126.164 65.414 l 127.66 62.746 128.195 59.977 
128.195 54.887 c 128.195 51.086 127.746 47.695 127.195 47.355 c 126.645 
47.016 126.195 45.367 126.195 43.691 c 126.195 37.684 115.934 28.18 107.863
 26.711 c 103.258 25.875 111.973 26.262 124.695 27.461 c h
116.195 72.703 m 116.195 75.109 113.59 77.316 109.027 78.781 c 107.008 
79.43 104.816 80.613 104.152 81.41 c 102.559 83.332 100.969 83.238 99.133
 81.105 c 98.301 80.145 96.516 78.617 95.16 77.715 c 92.223 75.762 93.086
 74.191 96.184 75.852 c 98.027 76.836 98.418 76.719 98.855 75.047 c 99.219
 73.664 99.957 73.242 101.387 73.617 c 102.527 73.914 103.773 73.543 104.258
 72.754 c 104.965 71.613 105.355 71.691 106.445 73.184 c 107.445 74.551 
108.469 74.828 110.566 74.301 c 112.102 73.914 113.594 72.984 113.883 72.227
 c 114.648 70.234 116.195 70.551 116.195 72.703 c h
62.195 86.52 m 62.195 86.887 61.434 88.91 60.504 91.02 c 59.281 93.789 
58.199 94.855 56.617 94.855 c 55.414 94.855 52.922 95.488 51.082 96.262 
c 47.785 97.648 47.719 97.625 46.453 94.613 c 45.746 92.93 45.285 91.457
 45.43 91.336 c 46.102 90.785 59.836 86.004 60.945 85.934 c 61.633 85.891
 62.195 86.156 62.195 86.52 c h
60.195 100.371 m 60.195 101.203 60.602 102.664 61.098 103.621 c 61.594 
104.574 62.559 107.383 63.242 109.855 c 63.926 112.332 65.094 116.285 65.84
 118.641 c 68.035 125.574 68.129 125.418 59.816 128.77 c 58.234 129.41 56.867
 129.801 56.785 129.645 c 55.027 126.359 54.012 123.168 50.281 109.191 c
 48.371 102.027 l 51.035 101 l 53.773 99.938 56.754 99.176 58.945 98.973
 c 59.633 98.91 60.195 99.539 60.195 100.371 c h
158.977 126.105 m 160.355 127.793 157.191 144.438 154.801 148.066 c 153.82
 149.559 152.105 151.07 150.988 151.422 c 148.609 152.18 144.195 149.301
 142.711 146.027 c 142.168 144.836 141.129 143.855 140.398 143.855 c 138.086
 143.855 140.105 142.035 143.164 141.363 c 144.855 140.992 146.336 139.898
 146.652 138.789 c 146.949 137.727 147.457 135.945 147.773 134.832 c 148.227
 133.23 147.691 132.578 145.207 131.711 c 142.066 130.617 l 145.379 128.578
 l 150.836 125.219 157.289 124.047 158.977 126.105 c h
72.551 133.344 m 72.891 134.223 72.406 134.461 71.02 134.102 c 68.133 133.344
 67.199 135.566 68.648 139.746 c 69.66 142.672 70.617 143.551 73.73 144.426
 c 76.562 145.219 77.121 145.672 75.867 146.152 c 74.93 146.512 73.727 147.961
 73.188 149.375 c 72.066 152.328 66.504 155.098 64.211 153.852 c 62.074 
152.691 59.496 147.219 58.332 141.375 c 57.266 136.02 58.066 133.855 61.117
 133.855 c 62.043 133.855 63.223 133.449 63.746 132.953 c 66 130.812 71.676
 131.062 72.551 133.344 c h
72.551 133.344 m f
0.54902 g
79.195 24.422 m 64.453 29.324 64.707 29.137 51.793 44.305 c 45.629 51.547
 44.34 55.324 43.672 68.105 c 43.379 73.746 42.949 81.836 42.719 86.09 c
 42.449 91.031 42.84 95.91 43.793 99.59 c 49.242 120.598 50.469 124.871 
52.305 129.227 c 53.477 132.016 54.105 135.086 53.773 136.414 c 53.02 139.418
 55.543 149.062 58.211 153.379 c 62.277 159.961 68.914 159.297 76.277 151.578
 c 82.621 144.926 82.793 142.297 76.945 141.328 c 74.609 140.941 72.336 
140.414 71.898 140.152 c 70.195 139.145 73.609 136.855 76.82 136.855 c 78.676
 136.855 80.195 136.359 80.195 135.75 c 80.195 135.141 78.395 132.383 76.195
 129.621 c 73.996 126.855 72.195 123.898 72.195 123.043 c 72.195 122.188
 71.324 119.66 70.262 117.422 c 69.199 115.188 67.316 109.449 66.078 104.676
 c 63.605 95.121 63.848 93.211 68.883 82.699 c 71.113 78.039 l 79.406 78.527
 l 89.297 79.105 92.797 80.238 96.391 84.02 c 99.582 87.383 101.062 87.535
 104.469 84.855 c 105.867 83.758 107.75 82.855 108.652 82.855 c 110.969 
82.855 115.352 80.445 117.645 77.914 c 118.715 76.73 120.965 75.117 122.645
 74.324 c 126.098 72.695 136.027 70.637 137.133 71.316 c 137.531 71.562 
138.426 75.051 139.117 79.062 c 139.809 83.074 140.785 87.391 141.285 88.652
 c 141.785 89.918 142.195 98.73 142.195 108.238 c 142.195 125.523 l 138.086
 129.105 l 135.824 131.074 134.273 133.176 134.645 133.77 c 135.012 134.367
 137.348 134.855 139.828 134.855 c 143.59 134.855 144.285 135.148 144.008
 136.605 c 143.762 137.902 142.176 138.582 137.934 139.219 c 132.875 139.98
 132.195 140.355 132.195 142.371 c 132.195 144.02 133.043 144.957 135.203
 145.711 c 136.855 146.285 138.621 147.84 139.121 149.16 c 140.281 152.207
 146.387 155.855 150.328 155.855 c 154.148 155.855 156.48 153.266 160.238
 144.855 c 162.598 139.574 163.145 136.953 163.156 130.855 c 163.164 126.73
 163.703 114.703 164.348 104.129 c 165.57 84.176 165.57 84.18 161.602 62.191
 c 160.789 57.699 159.512 52.75 158.758 51.191 c 158.004 49.633 156.43 46.215
 155.262 43.594 c 153.676 40.039 151.215 37.309 145.57 32.82 c 141.41 29.516
 136.801 26.188 135.324 25.422 c 133.848 24.66 126.805 23.535 119.668 22.922
 c 112.535 22.309 103.77 21.375 100.195 20.852 c 96.621 20.328 93.473 19.906
 93.195 19.914 c 92.922 19.926 86.621 21.953 79.195 24.422 c h
115.695 25.93 m 131.258 27.375 132.168 27.676 141.293 34.355 c 149.039 
40.031 149.699 40.816 153.445 48.855 c 155.652 53.586 158.078 60.906 158.918
 65.355 c 160.562 74.059 161.754 107.219 160.723 115.496 c 160.082 120.637
 l 153.559 121.336 l 149.973 121.719 146.895 121.883 146.715 121.695 c 146.164
 121.125 144.297 85.422 144.793 84.93 c 145.047 84.672 147.703 87.098 150.699
 90.312 c 155 94.934 156.273 95.82 156.77 94.523 c 157.133 93.578 156.277
 90.965 154.758 88.371 c 152.113 83.855 l 155.094 83.855 l 158.129 83.855
 159.98 82.457 158.312 81.426 c 157.805 81.117 154.438 80.672 150.828 80.438
 c 142.91 79.93 142.195 79.551 142.195 75.863 c 142.195 74.281 141.758 71.832
 141.223 70.422 c 140.41 68.293 139.605 67.859 136.473 67.863 c 134.395 
67.867 130.965 68.348 128.852 68.938 c 126.738 69.523 124.766 69.762 124.473
 69.465 c 124.176 69.172 124.668 67.383 125.566 65.492 c 127.285 61.871 
127.617 55.012 126.52 45.855 c 125.918 40.844 125.355 39.863 120.18 34.766
 c 114.035 28.711 111.117 27.543 99.195 26.379 c 93.594 25.828 92.082 26.059
 88.262 28.051 c 84.703 29.902 83.152 31.641 80.41 36.855 c 77.164 43.027
 77.02 43.734 77.551 50.855 c 78.723 66.555 79.512 71.875 80.832 72.969 
c 83.727 75.371 82.188 76.129 75.512 75.594 c 69.336 75.098 68.559 75.266
 65.262 77.812 c 63.301 79.328 60.121 81.168 58.195 81.906 c 56.27 82.641
 53.219 84.055 51.418 85.051 c 47.625 87.137 45.195 87.375 45.195 85.66 
c 45.195 80.316 47.66 60.363 48.812 56.355 c 49.73 53.164 51.875 49.551 
54.75 46.355 c 57.227 43.605 60.703 39.473 62.473 37.168 c 65.145 33.695
 66.977 32.543 73.195 30.41 c 77.32 28.996 83.172 26.945 86.195 25.852 c
 92.02 23.746 92.191 23.746 115.695 25.93 c h
66.133 57.605 m 65.574 59.121 63.562 63.406 61.656 67.133 c 57.621 75.031
 57.371 76.367 60.211 74.848 c 64.215 72.707 71.238 58.355 69.59 55.688 
c 68.598 54.078 67.137 54.891 66.133 57.605 c h
97.914 32.832 m 90.727 33.562 87.539 35.215 90.176 36.844 c 90.98 37.34
 91.426 37.961 91.164 38.223 c 90.906 38.48 89.793 38.027 88.695 37.211 
c 86.715 35.742 86.719 35.711 89.059 33.793 c 90.918 32.27 92.828 31.887
 98.059 32 c 104.695 32.141 l h
114.145 36.547 m 114.449 36.895 113.797 36.82 112.695 36.387 c 111.598 
35.953 109.684 35.379 108.445 35.113 c 107.207 34.844 106.195 34.219 106.195
 33.727 c 106.195 32.859 113.035 35.285 114.145 36.547 c h
116.312 40.562 m 114.328 42.074 113.195 42.18 113.195 40.855 c 113.195 
40.309 113.855 39.855 114.664 39.855 c 115.641 39.855 115.914 39.281 115.477
 38.141 c 114.895 36.625 115 36.594 116.371 37.879 c 117.781 39.191 117.777
 39.449 116.312 40.562 c h
108.926 40.461 m 108.594 40.793 107.73 40.828 107.008 40.539 c 106.211 
40.223 106.449 39.984 107.613 39.938 c 108.668 39.895 109.258 40.129 108.926
 40.461 c h
83.859 44.105 m 83.582 44.793 83.355 44.23 83.355 42.855 c 83.355 41.48
 83.582 40.918 83.859 41.605 c 84.137 42.293 84.137 43.418 83.859 44.105
 c h
120.887 48.605 m 120.633 49.57 120.43 48.781 120.43 46.855 c 120.43 44.934
 120.633 44.145 120.887 45.105 c 121.137 46.07 121.137 47.645 120.887 48.605
 c h
120.91 58.605 m 120.684 60.121 120.496 58.883 120.496 55.855 c 120.496 
52.832 120.684 51.594 120.91 53.105 c 121.141 54.621 121.141 57.094 120.91
 58.605 c h
85.531 58.664 m 86.094 61.594 85.996 61.801 84.684 60.488 c 83.855 59.66
 83.223 57.305 83.258 55.18 c 83.328 50.957 84.348 52.52 85.531 58.664 c
 h
114.926 56.461 m 114.594 56.793 113.73 56.828 113.008 56.539 c 112.211 
56.223 112.445 55.984 113.613 55.938 c 114.664 55.895 115.258 56.129 114.926
 56.461 c h
96.926 58.461 m 96.594 58.793 95.73 58.828 95.008 58.539 c 94.211 58.223
 94.445 57.984 95.613 57.938 c 96.664 57.895 97.258 58.129 96.926 58.461
 c h
110.195 58.242 m 110.195 58.453 109.297 58.859 108.195 59.148 c 107.094
 59.434 106.195 59.262 106.195 58.762 c 106.195 58.266 107.094 57.855 108.195
 57.855 c 109.297 57.855 110.195 58.031 110.195 58.242 c h
118.195 58.855 m 118.195 59.406 117.996 59.855 117.754 59.855 c 117.512
 59.855 117.035 59.406 116.695 58.855 c 116.355 58.309 116.555 57.855 117.137
 57.855 c 117.719 57.855 118.195 58.309 118.195 58.855 c h
105.785 62.602 m 105.094 63.293 103.195 61.883 103.195 60.676 c 103.195
 60.012 103.77 60.09 104.719 60.879 c 105.559 61.574 106.039 62.348 105.785
 62.602 c h
91.195 63.355 m 91.195 65.402 90.707 65.855 88.52 65.855 c 85.848 65.855
 l 88.195 63.355 l 89.488 61.98 90.691 60.855 90.871 60.855 c 91.047 60.855
 91.195 61.98 91.195 63.355 c h
106.91 72.773 m 108.238 74.898 112.086 74.562 113.496 72.199 c 114.348 
70.766 117.195 70.336 117.195 71.633 c 117.195 73.746 113.477 77.238 109.328
 79.016 c 106.781 80.105 103.945 81.68 103.027 82.512 c 101.516 83.875 101.094
 83.723 98.609 80.938 c 97.102 79.242 95.266 77.855 94.531 77.855 c 93.797
 77.855 93.195 76.957 93.195 75.855 c 93.195 74.758 93.645 73.855 94.195
 73.855 c 94.746 73.855 95.195 74.309 95.195 74.855 c 95.195 76.797 98.27
 75.828 99.164 73.605 c 99.66 72.371 100.098 71.918 100.133 72.605 c 100.223
 74.367 103.137 74.168 103.832 72.355 c 104.605 70.352 105.469 70.469 106.91
 72.773 c h
61.723 89.605 m 59.539 94.973 59.129 95.395 55.539 95.91 c 53.426 96.219
 50.746 96.984 49.586 97.621 c 47.758 98.625 47.328 98.445 46.336 96.27 
c 44.266 91.723 44.863 90.141 48.938 89.379 c 50.996 88.992 53.133 88.383
 53.688 88.027 c 54.242 87.668 56.719 86.625 59.195 85.703 c 61.672 84.785
 63.777 83.992 63.875 83.945 c 63.977 83.895 63.004 86.445 61.723 89.605
 c h
62.117 104.605 m 63.27 108.32 64.711 113.156 65.32 115.355 c 65.93 117.559
 66.887 120.613 67.449 122.145 c 68.297 124.461 68.148 125.18 66.582 126.363
 c 65.543 127.152 64.184 127.809 63.559 127.824 c 62.934 127.844 61.145 
128.52 59.582 129.332 c 58.02 130.141 56.453 130.48 56.098 130.082 c 55.062
 128.922 48.195 104.676 48.195 102.184 c 48.195 101.137 55.445 98.266 58.859
 97.961 c 59.5 97.902 60.965 100.895 62.117 104.605 c h
159.551 128.355 m 158.965 140.473 155.734 149.945 151.648 151.512 c 148.824
 152.598 145.082 150.777 143.043 147.324 c 141.918 145.418 140.254 143.844
 139.348 143.824 c 137.938 143.797 137.98 143.578 139.637 142.324 c 140.703
 141.52 142.375 140.855 143.352 140.855 c 145.469 140.855 147.195 137.969
 147.195 134.422 c 147.195 132.352 146.711 131.855 144.695 131.855 c 141.305
 131.855 141.555 130.676 145.445 128.324 c 149.414 125.922 152.738 125 156.695
 125.203 c 159.363 125.34 159.68 125.688 159.551 128.355 c h
72.336 132.926 m 74.695 134.996 l 71.922 134.402 l 68.43 133.652 67.586
 135.477 69.18 140.316 c 70.156 143.273 70.82 143.855 73.215 143.855 c 74.789
 143.855 76.316 144.242 76.605 144.711 c 77.434 146.051 68.457 154.855 66.262
 154.855 c 62.438 154.855 57.215 145.027 57.199 137.793 c 57.195 135.699
 58.066 134.84 61.945 133.098 c 67.957 130.395 69.418 130.371 72.336 132.926
 c h
72.336 132.926 m f
0.431373 g
77.695 24.879 m 66.777 28.508 65.289 29.305 61.195 33.688 c 51.477 44.09
 46.203 51.113 45.133 55.09 c 43.723 60.324 42.289 93.379 43.297 97.355 
c 47.879 115.41 49.566 121.402 51.812 127.57 c 53.258 131.539 54.219 135.363
 53.945 136.07 c 53.16 138.125 55.566 147.977 57.965 152.535 c 59.172 154.832
 61.109 157.012 62.266 157.379 c 65.48 158.398 70.492 157.105 73 154.605
 c 82.766 144.871 83.496 142.414 76.945 141.328 c 74.609 140.941 72.336 
140.414 71.898 140.152 c 70.195 139.145 73.609 136.855 76.82 136.855 c 81.684
 136.855 81.477 135.973 74.945 128.867 c 73.434 127.223 72.195 124.887 72.195
 123.684 c 72.195 122.477 71.316 119.66 70.238 117.422 c 67.852 112.457 
65.07 102.773 64.473 97.32 c 64.152 94.414 64.766 91.609 66.648 87.32 c 
70.887 77.68 69.949 78.32 79.316 78.668 c 88.906 79.02 92.355 80.07 96.98
 84.039 c 100.895 87.398 101.199 87.43 104.469 84.855 c 105.867 83.758 107.758
 82.855 108.672 82.855 c 111.191 82.855 114.301 81 118.496 76.988 c 120.582
 74.992 122.383 73.5 122.496 73.676 c 122.605 73.855 123.84 73.562 125.242
 73.031 c 126.641 72.5 129.996 71.902 132.699 71.711 c 137.609 71.355 l 
139.57 79.855 l 141.02 86.148 141.629 93.199 141.922 106.977 c 142.316 125.602
 l 138.156 129.16 l 135.867 131.121 134.293 133.203 134.656 133.789 c 135.016
 134.375 137.348 134.855 139.828 134.855 c 143.59 134.855 144.285 135.148
 144.008 136.605 c 143.762 137.902 142.176 138.582 137.934 139.219 c 133.223
 139.93 132.195 140.43 132.195 142.023 c 132.195 143.289 133.402 144.461
 135.68 145.414 c 137.824 146.312 139.387 147.77 139.75 149.219 c 140.438
 151.945 146.777 155.855 150.512 155.855 c 153.941 155.855 155.562 154.016
 159.691 145.438 c 162.73 139.113 163.195 137.168 163.184 130.754 c 163.18
 126.684 163.703 114.703 164.348 104.129 c 165.285 88.812 165.266 83.426
 164.254 77.629 c 163.555 73.629 162.352 66.758 161.586 62.355 c 160.82 
57.957 159.234 52.332 158.062 49.855 c 156.891 47.383 155.203 43.832 154.312
 41.965 c 152.609 38.391 139.793 27.527 134.695 25.336 c 131.641 24.023 
113.566 22.02 98.195 21.289 c 90.383 20.922 88.727 21.211 77.695 24.879 
c h
109.137 24.832 m 112.195 25.371 118.836 26.242 123.891 26.773 c 133.086
 27.738 l 141.531 34.047 l 149.535 40.031 150.176 40.801 153.926 48.902 
c 157.004 55.555 158.375 60.402 160.102 70.738 c 162.074 82.555 162.238 
86.008 161.609 101.941 c 161.176 112.992 160.48 120.188 159.801 120.719 
c 158.25 121.93 146.398 122.996 145.773 121.98 c 145.488 121.52 145 113.359
 144.688 103.844 c 144.375 94.328 143.906 86.195 143.645 85.77 c 143.379
 85.344 143.582 84.738 144.09 84.422 c 144.602 84.109 147.531 86.387 150.605
 89.484 c 154.969 93.883 156.195 94.684 156.195 93.129 c 156.195 92.031 
155.109 89.531 153.777 87.574 c 151.188 83.758 151.66 82.938 156.527 82.793
 c 161.02 82.664 153.906 80.684 148.215 80.48 c 142.73 80.285 l 141.91 75.32
 l 140.684 67.934 139.809 67.402 131.238 68.852 c 127.293 69.516 123.887
 69.883 123.668 69.664 c 123.449 69.445 123.977 67.938 124.844 66.312 c 
125.984 64.16 126.402 60.551 126.379 53.016 c 126.344 43.586 126.117 42.352
 123.793 39.016 c 118.469 31.375 113.578 28.75 100.996 26.773 c 95.07 25.84
 93.781 25.949 89.82 27.699 c 85.035 29.816 81.613 34.094 78.605 41.723 
c 77.105 45.539 77.031 47.055 78.047 53.723 c 78.688 57.922 79.207 63.426
 79.203 65.953 c 79.199 69.281 79.746 71.047 81.195 72.355 c 82.297 73.352
 83.195 74.57 83.195 75.066 c 83.195 75.559 79.824 75.871 75.707 75.766 
c 68.84 75.582 68 75.781 65.617 78.164 c 64.191 79.59 61.371 81.305 59.359
 81.969 c 53.758 83.816 45.602 88.598 46.508 89.504 c 46.707 89.703 50.617
 88.512 55.195 86.855 c 59.777 85.203 63.668 83.996 63.848 84.176 c 64.281
 84.605 61.094 93.008 59.891 94.605 c 59.375 95.293 57.934 95.855 56.688
 95.855 c 55.445 95.855 53.137 96.531 51.562 97.352 c 47.656 99.387 46.531
 99.242 45.828 96.605 c 44.25 90.719 46.234 63.684 48.836 55.586 c 49.863
 52.398 52.992 47.742 58.25 41.586 c 66.125 32.355 l 77.91 28.223 l 90.672
 23.742 98.246 22.922 109.137 24.832 c h
66.574 57.605 m 65.652 60.488 63.875 64.137 61.469 68.086 c 60.219 70.141
 59.195 72.578 59.195 73.512 c 59.195 74.918 59.641 74.793 61.793 72.781
 c 65.004 69.785 67.707 64.555 68.605 59.605 c 69.305 55.75 67.68 54.148
 66.574 57.605 c h
102.113 30.965 m 109.773 32.254 116.605 36.176 120.016 41.242 c 122.848
 45.441 124.098 57.602 122.191 62.355 c 121.016 65.293 120.973 65.309 120.125
 63.105 c 119.648 61.871 118.508 60.855 117.59 60.855 c 116.668 60.855 115.344
 60.074 114.648 59.121 c 113.441 57.473 113.281 57.473 111.457 59.121 c 
110.402 60.074 109.012 60.855 108.367 60.855 c 107.723 60.855 107.195 61.48
 107.195 62.242 c 107.195 64.512 103.359 64.945 102.664 62.754 c 101.84 
60.164 99.332 60.363 98.227 63.105 c 97.617 64.629 97.305 64.832 97.262 
63.73 c 97.227 62.836 96.562 61.574 95.785 60.934 c 94.668 60.004 94.047
 60.23 92.785 62.031 c 91.91 63.281 91.195 65.059 91.195 65.984 c 91.195
 67.148 90.609 67.516 89.297 67.172 c 88.254 66.902 86.453 67.184 85.297
 67.801 c 83.324 68.859 83.195 68.684 83.195 64.91 c 83.195 62.703 82.656
 57.738 81.992 53.879 c 81.016 48.18 81.043 46.164 82.141 43.113 c 84.891
 35.445 88.402 31.891 95.113 29.977 c 95.344 29.91 98.496 30.355 102.113
 30.965 c h
116.836 71.363 m 117.766 73.785 114.578 77.574 110.48 78.926 c 108.398 
79.613 105.457 81.086 103.945 82.203 c 101.195 84.234 l 98.078 81.047 l 
96.363 79.293 94.562 77.855 94.078 77.855 c 92.859 77.855 92.965 73.117 
94.195 72.355 c 94.746 72.016 95.195 72.664 95.195 73.797 c 95.195 76.492
 97.871 76.461 98.73 73.758 c 99.207 72.242 99.699 71.961 100.48 72.742 
c 101.266 73.527 102.098 73.352 103.461 72.121 c 105.254 70.496 105.438 
70.527 107.129 72.77 c 108.254 74.262 109.16 74.727 109.586 74.035 c 109.957
 73.438 110.863 73.176 111.598 73.457 c 112.371 73.754 113.16 73.105 113.473
 71.914 c 114.102 69.508 116.008 69.199 116.84 71.363 c h
87.695 72.855 m 88.035 73.406 87.84 73.855 87.254 73.855 c 86.672 73.855
 86.195 73.406 86.195 72.855 c 86.195 72.309 86.395 71.855 86.637 71.855
 c 86.879 71.855 87.355 72.309 87.695 72.855 c h
64.074 109.355 m 69.297 126.324 69.344 125.414 63.059 128.34 c 60.109 129.715
 57.164 130.844 56.516 130.848 c 55.867 130.852 54.688 128.496 53.895 125.605
 c 53.098 122.719 51.316 116.309 49.938 111.355 c 47.145 101.352 47.32 100.684
 53.195 99.004 c 60.066 97.039 60.375 97.336 64.074 109.355 c h
160.195 127.605 m 160.191 137.043 155.438 150.785 151.676 152.227 c 148.711
 153.363 143.645 150.125 142.105 146.105 c 141.582 144.738 140.402 143.855
 139.098 143.855 c 137.305 143.855 137.156 143.609 138.195 142.355 c 138.883
 141.531 140.664 140.855 142.16 140.855 c 144.098 140.855 145.207 140.129
 146.035 138.309 c 148 133.996 147.531 131.855 144.613 131.855 c 141.684
 131.855 141.758 130.082 144.758 128.43 c 145.824 127.84 146.922 127.066
 147.195 126.707 c 147.836 125.879 151.668 125.168 156.445 124.992 c 159.902
 124.867 160.195 125.07 160.195 127.605 c h
73.152 133.301 m 74.27 134.652 74.031 134.855 71.32 134.855 c 67.75 134.855
 67.633 135.262 69.711 140.234 c 70.941 143.184 71.746 143.855 74.043 143.855
 c 78.953 143.855 78.707 144.562 71.027 152.605 c 65.391 158.512 58.008 
151.453 57.797 139.949 c 57.695 134.52 l 63.195 132.289 l 68.816 130.008
 70.562 130.184 73.152 133.301 c h
73.152 133.301 m f
0.317647 g
77.695 25.012 m 64.762 29.32 65.441 28.832 53.559 42.418 c 45.191 51.984
 44.164 55.395 43.324 76.355 c 42.949 85.707 42.953 94.934 43.328 96.855
 c 44.637 103.59 50.176 123.566 51.809 127.445 c 52.715 129.598 53.832 134.73
 54.289 138.855 c 55.625 150.859 59.887 157.855 65.855 157.855 c 67.797 
157.855 75.195 153.777 75.195 152.707 c 75.195 152.277 76.594 150.336 78.301
 148.391 c 82.051 144.117 81.566 142.195 76.5 141.281 c 71.477 140.375 70.875
 139.945 72.27 138.27 c 72.914 137.492 74.961 136.855 76.82 136.855 c 79.156
 136.855 80.195 136.395 80.195 135.355 c 80.195 134.531 79.859 133.848 79.445
 133.84 c 77.852 133.801 71.938 125.562 71.688 123.027 c 71.543 121.559 
70.695 118.672 69.801 116.613 c 68.906 114.551 67.531 110.5 66.746 107.613
 c 65.961 104.723 64.891 100.961 64.371 99.254 c 63.383 96.027 64.922 90.172
 68.895 82.043 c 70.695 78.355 l 80.195 78.727 l 89.988 79.105 93.32 80.125
 96.605 83.754 c 98.816 86.199 103.398 86.523 105.195 84.355 c 105.883 83.531
 107.316 82.855 108.383 82.855 c 111.098 82.855 114.109 81.168 118.195 77.355
 c 122.094 73.719 126.48 72.047 133.195 71.633 c 137.695 71.355 l 139.633
 79.855 l 141.074 86.195 141.656 93.199 141.922 107.387 c 142.277 126.414
 l 138.262 129.387 l 136.055 131.02 134.383 132.809 134.551 133.355 c 134.715
 133.906 136.984 134.496 139.586 134.664 c 143.383 134.91 144.258 135.305
 144 136.645 c 143.777 137.801 141.98 138.641 138.195 139.355 c 131.504 
140.625 130.594 142.723 135.684 145.148 c 137.641 146.082 139.648 147.918
 140.145 149.227 c 141.492 152.766 147.531 156.16 151.09 155.379 c 154.559
 154.617 155.922 153.102 159.645 145.855 c 162.281 140.73 162.539 139.168
 163.395 122.855 c 164.762 96.828 164.789 80.141 163.48 72.855 c 162.84 
69.281 161.875 63.883 161.336 60.855 c 160.801 57.832 158.527 51.438 156.285
 46.645 c 152.75 39.082 151.453 37.367 146.453 33.652 c 143.289 31.297 140.473
 29.086 140.195 28.738 c 138.316 26.371 132.129 23.863 128.16 23.859 c 125.664
 23.859 118.238 23.188 111.66 22.363 c 94.508 20.227 91.324 20.473 77.695
 25.012 c h
111.695 24.867 m 117.746 25.465 124.965 26.176 127.734 26.449 c 132.027
 26.875 134.078 27.934 141.598 33.594 c 149.785 39.758 150.672 40.781 153.898
 47.797 c 160.59 62.34 162.574 75.293 162.059 101.062 c 161.848 111.613 
161.25 120.191 160.691 120.738 c 160.145 121.273 156.492 122.02 152.574 
122.398 c 145.449 123.09 l 144.801 109.223 l 144.441 101.598 143.891 92.77
 143.574 89.605 c 142.852 82.359 143.812 82.254 150.48 88.855 c 153.262 
91.605 155.738 93.648 155.984 93.402 c 156.234 93.152 155.262 90.934 153.816
 88.473 c 152.375 86.016 151.195 83.742 151.195 83.43 c 151.195 83.113 152.66
 82.805 154.445 82.742 c 157.617 82.629 157.598 82.605 153.695 81.801 c 
151.496 81.344 148.031 80.945 145.996 80.914 c 142.297 80.855 l 139.938 
68.855 l 135.816 68.863 l 133.551 68.867 130.004 69.34 127.934 69.914 c 
122.855 71.324 121.871 70.438 124.23 66.57 c 125.652 64.238 126.191 61.547
 126.191 56.746 c 126.199 43.891 125.414 41.266 119.801 35.379 c 113.824
 29.109 109.84 27.691 97.656 27.488 c 87.281 27.32 85.387 28.539 80.621 
38.449 c 76.965 46.047 l 78.582 55.746 l 79.469 61.082 80.195 66.746 80.195
 68.336 c 80.195 69.93 81.172 72.27 82.371 73.543 c 84.82 76.148 84.992 
76.094 75.441 75.867 c 69.828 75.734 68.809 76.031 65.465 78.789 c 63.418
 80.477 61.281 81.867 60.719 81.879 c 60.156 81.891 56.996 83.27 53.695 
84.941 c 48.062 87.797 47.93 87.945 51.488 87.367 c 53.57 87.027 57.344 
85.867 59.867 84.785 c 64.453 82.816 l 63.891 85.586 l 63.578 87.109 62.617
 90.043 61.746 92.105 c 60.434 95.227 59.68 95.855 57.242 95.855 c 55.633
 95.855 54.035 96.309 53.695 96.855 c 53.355 97.406 52.094 97.891 50.887
 97.938 c 49.594 97.984 49.258 98.238 50.062 98.559 c 50.812 98.855 53.188
 98.52 55.344 97.809 c 58.02 96.926 59.582 96.84 60.285 97.543 c 61.215 
98.473 66.246 114.406 68.23 122.707 c 69.027 126.047 69.016 126.062 62.863
 128.879 c 58.16 131.031 56.426 131.426 55.555 130.531 c 54.121 129.059 
46.926 103.129 47.508 101.531 c 47.742 100.887 47.207 99.523 46.316 98.504
 c 45.086 97.094 44.762 94.945 44.969 89.504 c 45.355 79.203 46.961 59.898
 47.742 56.148 c 48.355 53.211 61.188 36.523 65.625 32.895 c 68.992 30.141
 92.387 22.992 96.695 23.398 c 98.895 23.609 105.645 24.27 111.695 24.867
 c h
65.434 61.234 m 64.203 63.918 63.195 66.32 63.195 66.578 c 63.195 66.836
 62.246 68.383 61.086 70.012 c 58.637 73.453 59.293 74.984 62.125 72.422
 c 64.953 69.863 68.359 62.062 67.988 59 c 67.699 56.605 67.457 56.816 65.434
 61.234 c h
110.84 32.492 m 114.891 34.414 121.469 41.051 122.348 44.098 c 123.379 
47.676 123.293 60.473 122.223 63.293 c 121.062 66.34 119.195 66.688 119.195
 63.855 c 119.195 62.758 118.668 61.855 118.023 61.855 c 117.383 61.855 
116.113 61.188 115.207 60.367 c 113.84 59.129 113.098 59.086 110.875 60.117
 c 109.402 60.797 107.938 62.145 107.629 63.105 c 107.316 64.07 106.68 64.855
 106.211 64.855 c 105.742 64.855 104.648 65.129 103.777 65.465 c 102.645
 65.898 102.195 65.473 102.195 63.965 c 102.195 61.188 99.523 61.246 98.637
 64.039 c 97.957 66.184 97.918 66.176 96.539 63.539 c 94.691 60.012 93.688
 60.156 92.555 64.105 c 91.945 66.23 90.941 67.422 89.66 67.543 c 88.578
 67.648 86.734 68.023 85.555 68.383 c 83.188 69.102 82.988 68.273 81.594
 51.711 c 81.027 44.973 81.223 43.523 83.242 39.477 c 85.789 34.379 88.676
 31.324 91.695 30.531 c 95.188 29.621 107.426 30.871 110.84 32.492 c h
117.195 72.27 m 117.195 75.012 112.09 79.855 109.195 79.855 c 108.18 79.855
 106.043 80.957 104.441 82.305 c 101.535 84.75 l 96.703 80.312 l 92.035 
76.027 91.914 75.777 93.223 73.117 c 94.535 70.445 94.59 70.43 94.957 72.605
 c 95.43 75.422 97.844 75.547 98.715 72.805 c 99.234 71.164 99.648 70.988
 100.781 71.926 c 101.871 72.832 102.547 72.812 103.715 71.84 c 104.957 
70.812 105.578 70.895 107.117 72.285 c 108.289 73.344 109.234 73.602 109.629
 72.965 c 109.977 72.402 110.922 72.199 111.727 72.508 c 112.645 72.859 
113.195 72.465 113.195 71.465 c 113.195 70.523 114.027 69.855 115.195 69.855
 c 116.645 69.855 117.195 70.523 117.195 72.27 c h
88.195 72.855 m 88.195 73.406 87.746 73.855 87.195 73.855 c 86.645 73.855
 86.195 73.406 86.195 72.855 c 86.195 72.309 86.645 71.855 87.195 71.855
 c 87.746 71.855 88.195 72.309 88.195 72.855 c h
159.234 124.875 m 161.285 125.977 161.293 125.766 158.688 139.152 c 157.293
 146.305 153.383 152.855 150.512 152.855 c 148.102 152.855 142.195 148.879
 142.195 147.254 c 142.195 146.461 141.07 145.301 139.695 144.676 c 135.617
 142.816 136.27 141.77 142.32 140.453 c 143.988 140.09 145.387 138.809 146.168
 136.93 c 147.645 133.363 146.895 131.855 143.637 131.855 c 142.293 131.855
 141.195 131.504 141.195 131.074 c 141.195 129.355 151.961 124.172 156.012
 123.934 c 156.734 123.891 158.184 124.316 159.234 124.875 c h
72.891 132.324 m 75.695 134.793 l 72.504 134.824 l 68.492 134.867 67.828
 135.922 69.637 139.402 c 71.348 142.703 72.938 143.82 75.945 143.84 c 78.734
 143.859 78.855 145.43 76.195 147.09 c 75.098 147.777 74.195 148.871 74.195
 149.523 c 74.195 151.473 69.129 154.855 66.215 154.855 c 61.766 154.855
 57.836 148.816 56.957 140.625 c 56.379 135.258 57.047 134.355 63.582 131.664
 c 69.055 129.41 69.621 129.449 72.891 132.324 c h
72.891 132.324 m f
0.2 g
77.227 25.406 m 63.656 30.09 63.902 29.902 52.688 43.855 c 46.008 52.172
 45.629 52.965 44.332 61.363 c 43.082 69.488 42.672 97.199 43.777 98.988
 c 44.191 99.656 44.871 101.812 45.293 103.781 c 46.723 110.488 50.965 125.348
 52.449 128.855 c 53.266 130.781 54.215 135.059 54.562 138.355 c 54.906 
141.656 56.172 146.883 57.371 149.973 c 59.156 154.566 60.152 155.801 62.855
 156.777 c 65.586 157.766 66.742 157.691 69.574 156.348 c 72.773 154.828
 81.207 145.996 81.188 144.176 c 81.18 143.145 76.34 140.855 74.164 140.855
 c 71.809 140.855 71.043 139.746 72.328 138.199 c 72.941 137.461 74.961 
136.855 76.82 136.855 c 78.676 136.855 80.195 136.406 80.195 135.852 c 80.195
 135.297 78.172 132.848 75.695 130.41 c 72.504 127.262 71.195 125.164 71.195
 123.191 c 71.195 121.66 70.125 117.469 68.812 113.883 c 63.699 99.871 62.637
 93.566 64.898 90.625 c 65.434 89.926 66.895 86.77 68.148 83.605 c 69.402
 80.445 70.828 77.855 71.312 77.855 c 71.797 77.855 72.195 77.406 72.195
 76.855 c 72.195 75.129 70.211 75.758 66.387 78.691 c 64.359 80.25 60.672
 82.355 58.195 83.375 c 52.168 85.855 50.957 87.031 55.781 85.73 c 57.934
 85.148 60.125 84.262 60.645 83.766 c 61.836 82.629 65.195 82.57 65.195 
83.688 c 65.195 84.145 64.121 87.16 62.809 90.387 c 60.695 95.578 60.57 
96.609 61.711 99.309 c 62.422 100.984 63.562 104.383 64.246 106.855 c 64.926
 109.332 66.055 113.172 66.754 115.387 c 67.453 117.602 68.324 121.023 68.695
 122.988 c 69.363 126.562 l 62.746 129.375 l 58.477 131.188 55.781 131.844
 55.156 131.219 c 54.625 130.688 53.469 127.574 52.586 124.305 c 50.219 
115.527 49.316 112.273 48.105 108.105 c 47.504 106.043 46.887 103.457 46.734
 102.355 c 46.582 101.258 45.949 99.09 45.328 97.543 c 43.816 93.781 43.934
 83.941 45.66 69.355 c 47.605 52.945 48.051 51.738 54.844 44.34 c 55.863
 43.234 58.867 39.746 61.523 36.59 c 64.18 33.438 66.996 30.855 67.789 30.855
 c 68.578 30.855 70.004 30.441 70.961 29.938 c 71.914 29.43 77.184 27.586
 82.668 25.84 c 91.633 22.984 93.395 22.73 100.168 23.344 c 104.309 23.719
 109.945 24.223 112.695 24.461 c 131.156 26.062 133.012 26.617 141.949 33.176
 c 149.828 38.961 150.609 39.875 154.168 47.422 c 156.258 51.859 158.508
 58.16 159.164 61.422 c 159.82 64.688 160.883 69.383 161.527 71.855 c 162.289
 74.785 162.609 83.848 162.445 97.777 c 162.148 123.453 162.395 122.855 
152.043 122.855 c 145.195 122.855 l 145.195 117.047 l 145.195 113.309 144.645
 110.547 143.648 109.297 c 142.23 107.52 142.137 108.117 142.535 116.48 
c 142.773 121.5 142.684 126.035 142.332 126.559 c 141.984 127.082 139.977
 128.664 137.871 130.078 c 133.648 132.91 133.926 133.469 140.043 134.449
 c 142.625 134.863 144.195 135.645 144.195 136.516 c 144.195 138.016 144.191
 138.016 136.945 139.891 c 134.332 140.566 132.199 141.621 132.207 142.238
 c 132.211 142.852 134.012 144.109 136.207 145.031 c 139.027 146.219 140.195
 147.312 140.195 148.77 c 140.195 151.867 147.238 156 151.176 155.211 c 
154.691 154.508 156.746 151.867 160.395 143.355 c 162.723 137.918 163.043
 135.527 163.805 117.855 c 164.875 92.875 164.777 81.945 163.398 73.855 
c 162.789 70.281 161.828 64.574 161.266 61.172 c 160.703 57.773 158.426 
51.219 156.203 46.605 c 152.633 39.199 151.379 37.633 145.43 33.145 c 135.078
 25.332 132.195 23.867 127.195 23.852 c 124.723 23.848 117.312 23.168 110.734
 22.348 c 94.105 20.273 91.375 20.523 77.227 25.406 c h
160.449 129.855 m 159.773 144.738 153.754 155.762 147.938 152.762 c 144.73
 151.109 141.195 147.715 141.195 146.293 c 141.195 145.621 139.957 144.762
 138.445 144.383 c 135.695 143.688 l 138.059 141.773 l 139.355 140.719 141.395
 139.855 142.59 139.855 c 144.07 139.855 145.109 138.926 145.867 136.914
 c 147.148 133.523 146.762 132.855 143.531 132.855 c 139.969 132.855 140.695
 130.199 145 127.48 c 149.668 124.535 151.574 124 156.695 124.199 c 160.695
 124.355 l h
72.309 131.414 m 75.879 133.262 75.641 135.227 71.789 135.68 c 69.816 135.914
 69.203 136.43 69.617 137.512 c 69.938 138.344 70.195 139.586 70.195 140.277
 c 70.195 141.73 74.383 143.855 77.242 143.855 c 79.938 143.855 79.688 145.488
 76.695 147.449 c 75.32 148.352 74.195 149.516 74.195 150.043 c 74.195 152.625
 67.312 156.352 64.312 155.391 c 61.738 154.566 57.199 146.52 57.18 142.754
 c 57.172 140.887 56.746 138.691 56.23 137.879 c 55.199 136.25 57.57 132.855
 59.738 132.855 c 60.414 132.855 62.258 132.184 63.832 131.363 c 67.445 
129.48 68.578 129.484 72.309 131.414 c h
91.383 27.859 m 87.207 28.832 84.035 31.785 81.391 37.16 c 78.137 43.781
 77.984 45.172 79.211 57.617 c 80.07 66.371 80.867 70.07 82.348 72.156 c
 85.238 76.242 84.363 77.277 78.129 77.137 c 73.855 77.039 74.617 77.281
 81.695 78.273 c 92.121 79.73 94.031 80.41 96.52 83.555 c 98.602 86.184 
102.352 86.559 104.555 84.355 c 105.379 83.531 106.707 82.855 107.504 82.855
 c 110.461 82.855 116.035 79.836 118.512 76.895 c 119.918 75.223 121.746
 73.855 122.574 73.855 c 123.402 73.855 124.355 73.406 124.695 72.855 c 
125.035 72.309 126.609 71.855 128.191 71.855 c 129.773 71.855 132.145 71.445
 133.465 70.945 c 134.785 70.445 136.352 70.336 136.945 70.703 c 138.52 
71.672 141.453 86.844 142.195 97.855 c 142.551 103.082 142.953 105.781 143.094
 103.855 c 143.352 100.301 143.223 88.914 142.883 85.465 c 142.543 82.027
 144.996 82.672 149.629 87.238 c 152.672 90.238 154.195 91.199 154.195 90.113
 c 154.195 89.219 153.227 87.457 152.043 86.195 c 149.895 83.906 l 152.293
 82.945 l 154.664 81.996 154.656 81.98 151.695 81.742 c 150.047 81.605 147.246
 81.598 145.477 81.719 c 142.836 81.898 142.168 81.523 141.781 79.648 c 
139.469 68.441 140.059 69.336 135.152 69.551 c 132.703 69.66 128.785 70.043
 126.445 70.406 c 121.66 71.152 120.992 70.02 123.836 65.961 c 125.113 64.141
 125.461 61.316 125.406 53.18 c 125.348 43.324 125.184 42.531 122.531 39.047
 c 118.309 33.508 115.176 31.074 110.195 29.477 c 104.422 27.625 95.621 
26.867 91.383 27.859 c h
103.113 30.004 m 112.824 31.691 119.473 36.488 122.648 44.09 c 124.672 
48.93 124.656 59.625 122.625 63.703 c 120.793 67.371 118.199 67.898 118.188
 64.605 c 118.18 62.203 113.027 58.863 112.371 60.836 c 112.184 61.398 111.168
 61.855 110.113 61.855 c 109.059 61.855 108.195 62.48 108.195 63.242 c 108.195
 64 107.41 64.902 106.445 65.242 c 105.484 65.582 104.172 66.109 103.531
 66.414 c 102.891 66.719 102.074 66.043 101.715 64.914 c 100.969 62.566 
99.195 62.133 99.195 64.297 c 99.195 66.934 97.207 67.016 96.219 64.418 
c 94.914 60.98 93.805 61.195 92.652 65.105 c 91.93 67.566 91.086 68.402 
89.195 68.535 c 87.82 68.637 85.812 68.859 84.734 69.035 c 83.574 69.227
 82.691 68.746 82.57 67.855 c 80.184 50.156 79.953 45.855 81.234 42.68 c
 83.738 36.473 87.215 31.855 90.461 30.438 c 94.566 28.641 95.168 28.621
 103.113 30.004 c h
117.094 70.234 m 119.395 73.004 114.246 79.855 109.871 79.855 c 109.105
 79.855 106.773 81.012 104.691 82.422 c 100.91 84.992 l 98.082 82.172 l 
96.527 80.625 94.363 78.594 93.277 77.66 c 91.398 76.047 91.383 75.793 92.926
 72.695 c 94.555 69.434 l 95.461 72.145 l 96.543 75.402 97.762 75.633 98.52
 72.727 c 98.914 71.227 99.574 70.789 100.762 71.246 c 101.691 71.602 103.012
 71.426 103.695 70.855 c 105.344 69.492 108.176 70.641 108.277 72.715 c 
108.324 73.75 108.539 73.895 108.859 73.105 c 109.137 72.418 110.016 71.855
 110.812 71.855 c 111.609 71.855 112.52 71.184 112.836 70.355 c 113.555 
68.48 115.59 68.422 117.094 70.234 c h
89.02 73.191 m 89.211 74.176 88.699 74.855 87.77 74.855 c 86.844 74.855
 86.195 74.004 86.195 72.773 c 86.195 70.336 88.535 70.68 89.02 73.191 c
 h
64.25 64.91 m 62.574 68.367 61.379 71.371 61.59 71.586 c 62.168 72.164 
65.66 66.824 67.156 63.074 c 69.531 57.125 67.355 58.496 64.25 64.91 c h
64.25 64.91 m f
Q Q
showpage
%%Trailer
end restore
%%EOF
