%!PS-Adobe-3.0 EPSF-3.0
%%Creator: MATLAB, The MathWorks, Inc. Version 8.1.0.604 (R2013a). Operating System: Linux 4.8.11-1-ARCH #1 SMP PREEMPT Sun Nov 27 09:26:14 CET 2016 x86_64.
%%Title: ./plotForce.eps
%%CreationDate: 12/07/2016  22:20:31
%%DocumentNeededFonts: Helvetica
%%DocumentProcessColors: Cyan Magenta Yellow Black
%%LanguageLevel: 2
%%Pages: 1
%%BoundingBox:    45   256   541   521
%%EndComments

%%BeginProlog
% MathWorks dictionary
/MathWorks 160 dict begin
% definition operators
/bdef {bind def} bind def
/ldef {load def} bind def
/xdef {exch def} bdef
/xstore {exch store} bdef
% operator abbreviations
/c  /clip ldef
/cc /concat ldef
/cp /closepath ldef
/gr /grestore ldef
/gs /gsave ldef
/mt /moveto ldef
/np /newpath ldef
/cm /currentmatrix ldef
/sm /setmatrix ldef
/rm /rmoveto ldef
/rl /rlineto ldef
/s {show newpath} bdef
/sc {setcmykcolor} bdef
/sr /setrgbcolor ldef
/sg /setgray ldef
/w /setlinewidth ldef
/j /setlinejoin ldef
/cap /setlinecap ldef
/rc {rectclip} bdef
/rf {rectfill} bdef
% page state control
/pgsv () def
/bpage {/pgsv save def} bdef
/epage {pgsv restore} bdef
/bplot /gsave ldef
/eplot {stroke grestore} bdef
% orientation switch
/portraitMode 0 def /landscapeMode 1 def /rotateMode 2 def
% coordinate system mappings
/dpi2point 0 def
% font control
/FontSize 0 def
/FMS {/FontSize xstore findfont [FontSize 0 0 FontSize neg 0 0]
  makefont setfont} bdef
/reencode {exch dup where {pop load} {pop StandardEncoding} ifelse
  exch dup 3 1 roll findfont dup length dict begin
  { 1 index /FID ne {def}{pop pop} ifelse } forall
  /Encoding exch def currentdict end definefont pop} bdef
/isroman {findfont /CharStrings get /Agrave known} bdef
/FMSR {3 1 roll 1 index dup isroman {reencode} {pop pop} ifelse
  exch FMS} bdef
/csm {1 dpi2point div -1 dpi2point div scale neg translate
 dup landscapeMode eq {pop -90 rotate}
  {rotateMode eq {90 rotate} if} ifelse} bdef
% line types: solid, dotted, dashed, dotdash
/SO { [] 0 setdash } bdef
/DO { [3 dpi2point mul 3 dpi2point mul] 0 setdash } bdef
/DA { [6 dpi2point mul] 0 setdash } bdef
/DD { [2 dpi2point mul 2 dpi2point mul 6 dpi2point mul 2 dpi2point mul] 0 setdash } bdef
% macros for lines and objects
/L {lineto stroke} bdef
/MP {3 1 roll moveto 1 sub {rlineto} repeat} bdef
/AP {{rlineto} repeat} bdef
/PDlw -1 def
/W {/PDlw currentlinewidth def setlinewidth} def
/PP {closepath eofill} bdef
/DP {closepath stroke} bdef
/MR {4 -2 roll moveto dup  0 exch rlineto exch 0 rlineto
  neg 0 exch rlineto closepath} bdef
/FR {MR stroke} bdef
/PR {MR fill} bdef
/L1i {{currentfile picstr readhexstring pop} image} bdef
/tMatrix matrix def
/MakeOval {newpath tMatrix currentmatrix pop translate scale
0 0 1 0 360 arc tMatrix setmatrix} bdef
/FO {MakeOval stroke} bdef
/PO {MakeOval fill} bdef
/PD {currentlinewidth 2 div 0 360 arc fill
   PDlw -1 eq not {PDlw w /PDlw -1 def} if} def
/FA {newpath tMatrix currentmatrix pop translate scale
  0 0 1 5 -2 roll arc tMatrix setmatrix stroke} bdef
/PA {newpath tMatrix currentmatrix pop	translate 0 0 moveto scale
  0 0 1 5 -2 roll arc closepath tMatrix setmatrix fill} bdef
/FAn {newpath tMatrix currentmatrix pop translate scale
  0 0 1 5 -2 roll arcn tMatrix setmatrix stroke} bdef
/PAn {newpath tMatrix currentmatrix pop translate 0 0 moveto scale
  0 0 1 5 -2 roll arcn closepath tMatrix setmatrix fill} bdef
/vradius 0 def /hradius 0 def /lry 0 def
/lrx 0 def /uly 0 def /ulx 0 def /rad 0 def
/MRR {/vradius xdef /hradius xdef /lry xdef /lrx xdef /uly xdef
  /ulx xdef newpath tMatrix currentmatrix pop ulx hradius add uly
  vradius add translate hradius vradius scale 0 0 1 180 270 arc 
  tMatrix setmatrix lrx hradius sub uly vradius add translate
  hradius vradius scale 0 0 1 270 360 arc tMatrix setmatrix
  lrx hradius sub lry vradius sub translate hradius vradius scale
  0 0 1 0 90 arc tMatrix setmatrix ulx hradius add lry vradius sub
  translate hradius vradius scale 0 0 1 90 180 arc tMatrix setmatrix
  closepath} bdef
/FRR {MRR stroke } bdef
/PRR {MRR fill } bdef
/MlrRR {/lry xdef /lrx xdef /uly xdef /ulx xdef /rad lry uly sub 2 div def
  newpath tMatrix currentmatrix pop ulx rad add uly rad add translate
  rad rad scale 0 0 1 90 270 arc tMatrix setmatrix lrx rad sub lry rad
  sub translate rad rad scale 0 0 1 270 90 arc tMatrix setmatrix
  closepath} bdef
/FlrRR {MlrRR stroke } bdef
/PlrRR {MlrRR fill } bdef
/MtbRR {/lry xdef /lrx xdef /uly xdef /ulx xdef /rad lrx ulx sub 2 div def
  newpath tMatrix currentmatrix pop ulx rad add uly rad add translate
  rad rad scale 0 0 1 180 360 arc tMatrix setmatrix lrx rad sub lry rad
  sub translate rad rad scale 0 0 1 0 180 arc tMatrix setmatrix
  closepath} bdef
/FtbRR {MtbRR stroke } bdef
/PtbRR {MtbRR fill } bdef
/stri 6 array def /dtri 6 array def
/smat 6 array def /dmat 6 array def
/tmat1 6 array def /tmat2 6 array def /dif 3 array def
/asub {/ind2 exch def /ind1 exch def dup dup
  ind1 get exch ind2 get sub exch } bdef
/tri_to_matrix {
  2 0 asub 3 1 asub 4 0 asub 5 1 asub
  dup 0 get exch 1 get 7 -1 roll astore } bdef
/compute_transform {
  dmat dtri tri_to_matrix tmat1 invertmatrix 
  smat stri tri_to_matrix tmat2 concatmatrix } bdef
/ds {stri astore pop} bdef
/dt {dtri astore pop} bdef
/db {2 copy /cols xdef /rows xdef mul dup 3 mul string
  currentfile 
  3 index 0 eq {/ASCIIHexDecode filter}
  {/ASCII85Decode filter 3 index 2 eq {/RunLengthDecode filter} if }
  ifelse exch readstring pop
  dup 0 3 index getinterval /rbmap xdef
  dup 2 index dup getinterval /gbmap xdef
  1 index dup 2 mul exch getinterval /bbmap xdef pop pop}bdef
/it {gs np dtri aload pop moveto lineto lineto cp c
  cols rows 8 compute_transform 
  rbmap gbmap bbmap true 3 colorimage gr}bdef
/il {newpath moveto lineto stroke}bdef
currentdict end def
%%EndProlog

%%BeginSetup
MathWorks begin

0 cap

end
%%EndSetup

%%Page: 1 1
%%BeginPageSetup
%%PageBoundingBox:    45   256   541   521
MathWorks begin
bpage
%%EndPageSetup

%%BeginObject: obj1
bplot

/dpi2point 12 def
portraitMode 0468 6420 csm

   77   163  5957  3178 rc
88 dict begin %Colortable dictionary
/c0 { 0.000000 0.000000 0.000000 sr} bdef
/c1 { 1.000000 1.000000 1.000000 sr} bdef
/c2 { 0.900000 0.000000 0.000000 sr} bdef
/c3 { 0.000000 0.820000 0.000000 sr} bdef
/c4 { 0.000000 0.000000 0.800000 sr} bdef
/c5 { 0.910000 0.820000 0.320000 sr} bdef
/c6 { 1.000000 0.260000 0.820000 sr} bdef
/c7 { 0.000000 0.820000 0.820000 sr} bdef
c0
1 j
1 sg
   0    0 6395 3342 rf
18 w
0 2592 5184 0 0 -2592 699 2897 4 MP
PP
-5184 0 0 2592 5184 0 0 -2592 699 2897 5 MP stroke
12 w
DO
SO
18 w
0 sg
 699 2897 mt 5883 2897 L
 699  305 mt 5883  305 L
 699 2897 mt  699  305 L
5883 2897 mt 5883  305 L
 699 2897 mt 5883 2897 L
 699 2897 mt  699  305 L
 699 2897 mt  699 2793 L
 699  305 mt  699  408 L
%%IncludeResource: font Helvetica
/Helvetica /ISOLatin1Encoding 180 FMSR

 649 3098 mt 
(0) s
 828 2897 mt  828 2845 L
 828  305 mt  828  356 L
 958 2897 mt  958 2845 L
 958  305 mt  958  356 L
1087 2897 mt 1087 2845 L
1087  305 mt 1087  356 L
1217 2897 mt 1217 2845 L
1217  305 mt 1217  356 L
1347 2897 mt 1347 2845 L
1347  305 mt 1347  356 L
1347 2897 mt 1347 2845 L
1347  305 mt 1347  356 L
1347 2897 mt 1347 2845 L
1347  305 mt 1347  356 L
1347 2897 mt 1347 2845 L
1347  305 mt 1347  356 L
1347 2897 mt 1347 2845 L
1347  305 mt 1347  356 L
1347 2897 mt 1347 2793 L
1347  305 mt 1347  408 L
1247 3098 mt 
(10) s
1476 2897 mt 1476 2845 L
1476  305 mt 1476  356 L
1606 2897 mt 1606 2845 L
1606  305 mt 1606  356 L
1735 2897 mt 1735 2845 L
1735  305 mt 1735  356 L
1865 2897 mt 1865 2845 L
1865  305 mt 1865  356 L
1995 2897 mt 1995 2845 L
1995  305 mt 1995  356 L
1995 2897 mt 1995 2845 L
1995  305 mt 1995  356 L
1995 2897 mt 1995 2845 L
1995  305 mt 1995  356 L
1995 2897 mt 1995 2845 L
1995  305 mt 1995  356 L
1995 2897 mt 1995 2845 L
1995  305 mt 1995  356 L
1995 2897 mt 1995 2793 L
1995  305 mt 1995  408 L
1895 3098 mt 
(20) s
2124 2897 mt 2124 2845 L
2124  305 mt 2124  356 L
2254 2897 mt 2254 2845 L
2254  305 mt 2254  356 L
2383 2897 mt 2383 2845 L
2383  305 mt 2383  356 L
2513 2897 mt 2513 2845 L
2513  305 mt 2513  356 L
2643 2897 mt 2643 2845 L
2643  305 mt 2643  356 L
2643 2897 mt 2643 2845 L
2643  305 mt 2643  356 L
2643 2897 mt 2643 2845 L
2643  305 mt 2643  356 L
2643 2897 mt 2643 2845 L
2643  305 mt 2643  356 L
2643 2897 mt 2643 2845 L
2643  305 mt 2643  356 L
2643 2897 mt 2643 2793 L
2643  305 mt 2643  408 L
2543 3098 mt 
(30) s
2772 2897 mt 2772 2845 L
2772  305 mt 2772  356 L
2902 2897 mt 2902 2845 L
2902  305 mt 2902  356 L
3031 2897 mt 3031 2845 L
3031  305 mt 3031  356 L
3161 2897 mt 3161 2845 L
3161  305 mt 3161  356 L
3291 2897 mt 3291 2845 L
3291  305 mt 3291  356 L
3291 2897 mt 3291 2845 L
3291  305 mt 3291  356 L
3291 2897 mt 3291 2845 L
3291  305 mt 3291  356 L
3291 2897 mt 3291 2845 L
3291  305 mt 3291  356 L
3291 2897 mt 3291 2845 L
3291  305 mt 3291  356 L
3291 2897 mt 3291 2793 L
3291  305 mt 3291  408 L
3191 3098 mt 
(40) s
3420 2897 mt 3420 2845 L
3420  305 mt 3420  356 L
3550 2897 mt 3550 2845 L
3550  305 mt 3550  356 L
3679 2897 mt 3679 2845 L
3679  305 mt 3679  356 L
3809 2897 mt 3809 2845 L
3809  305 mt 3809  356 L
3939 2897 mt 3939 2845 L
3939  305 mt 3939  356 L
3939 2897 mt 3939 2845 L
3939  305 mt 3939  356 L
3939 2897 mt 3939 2845 L
3939  305 mt 3939  356 L
3939 2897 mt 3939 2845 L
3939  305 mt 3939  356 L
3939 2897 mt 3939 2845 L
3939  305 mt 3939  356 L
3939 2897 mt 3939 2793 L
3939  305 mt 3939  408 L
3839 3098 mt 
(50) s
4068 2897 mt 4068 2845 L
4068  305 mt 4068  356 L
4198 2897 mt 4198 2845 L
4198  305 mt 4198  356 L
4327 2897 mt 4327 2845 L
4327  305 mt 4327  356 L
4457 2897 mt 4457 2845 L
4457  305 mt 4457  356 L
4587 2897 mt 4587 2845 L
4587  305 mt 4587  356 L
4587 2897 mt 4587 2845 L
4587  305 mt 4587  356 L
4587 2897 mt 4587 2845 L
4587  305 mt 4587  356 L
4587 2897 mt 4587 2845 L
4587  305 mt 4587  356 L
4587 2897 mt 4587 2845 L
4587  305 mt 4587  356 L
4587 2897 mt 4587 2793 L
4587  305 mt 4587  408 L
4487 3098 mt 
(60) s
4716 2897 mt 4716 2845 L
4716  305 mt 4716  356 L
4846 2897 mt 4846 2845 L
4846  305 mt 4846  356 L
4975 2897 mt 4975 2845 L
4975  305 mt 4975  356 L
5105 2897 mt 5105 2845 L
5105  305 mt 5105  356 L
5235 2897 mt 5235 2845 L
5235  305 mt 5235  356 L
5235 2897 mt 5235 2845 L
5235  305 mt 5235  356 L
5235 2897 mt 5235 2845 L
5235  305 mt 5235  356 L
5235 2897 mt 5235 2845 L
5235  305 mt 5235  356 L
5235 2897 mt 5235 2845 L
5235  305 mt 5235  356 L
5235 2897 mt 5235 2793 L
5235  305 mt 5235  408 L
5135 3098 mt 
(70) s
5364 2897 mt 5364 2845 L
5364  305 mt 5364  356 L
5494 2897 mt 5494 2845 L
5494  305 mt 5494  356 L
5623 2897 mt 5623 2845 L
5623  305 mt 5623  356 L
5753 2897 mt 5753 2845 L
5753  305 mt 5753  356 L
5883 2897 mt 5883 2845 L
5883  305 mt 5883  356 L
5883 2897 mt 5883 2845 L
5883  305 mt 5883  356 L
5883 2897 mt 5883 2845 L
5883  305 mt 5883  356 L
5883 2897 mt 5883 2845 L
5883  305 mt 5883  356 L
5883 2897 mt 5883 2845 L
5883  305 mt 5883  356 L
5883 2897 mt 5883 2793 L
5883  305 mt 5883  408 L
5783 3098 mt 
(80) s
 699 2897 mt  802 2897 L
5883 2897 mt 5779 2897 L
 564 2963 mt 
(0) s
 699 2729 mt  750 2729 L
5883 2729 mt 5831 2729 L
 699 2562 mt  750 2562 L
5883 2562 mt 5831 2562 L
 699 2395 mt  750 2395 L
5883 2395 mt 5831 2395 L
 699 2228 mt  750 2228 L
5883 2228 mt 5831 2228 L
 699 2060 mt  750 2060 L
5883 2060 mt 5831 2060 L
 699 2060 mt  750 2060 L
5883 2060 mt 5831 2060 L
 699 2060 mt  750 2060 L
5883 2060 mt 5831 2060 L
 699 2060 mt  750 2060 L
5883 2060 mt 5831 2060 L
 699 2060 mt  750 2060 L
5883 2060 mt 5831 2060 L
 699 2060 mt  802 2060 L
5883 2060 mt 5779 2060 L
 464 2126 mt 
(50) s
 699 1893 mt  750 1893 L
5883 1893 mt 5831 1893 L
 699 1726 mt  750 1726 L
5883 1726 mt 5831 1726 L
 699 1559 mt  750 1559 L
5883 1559 mt 5831 1559 L
 699 1391 mt  750 1391 L
5883 1391 mt 5831 1391 L
 699 1224 mt  750 1224 L
5883 1224 mt 5831 1224 L
 699 1224 mt  750 1224 L
5883 1224 mt 5831 1224 L
 699 1224 mt  750 1224 L
5883 1224 mt 5831 1224 L
 699 1224 mt  750 1224 L
5883 1224 mt 5831 1224 L
 699 1224 mt  750 1224 L
5883 1224 mt 5831 1224 L
 699 1224 mt  802 1224 L
5883 1224 mt 5779 1224 L
 364 1290 mt 
(100) s
 699 1057 mt  750 1057 L
5883 1057 mt 5831 1057 L
 699  890 mt  750  890 L
5883  890 mt 5831  890 L
 699  723 mt  750  723 L
5883  723 mt 5831  723 L
 699  555 mt  750  555 L
5883  555 mt 5831  555 L
 699  388 mt  750  388 L
5883  388 mt 5831  388 L
 699  388 mt  750  388 L
5883  388 mt 5831  388 L
 699  388 mt  750  388 L
5883  388 mt 5831  388 L
 699  388 mt  750  388 L
5883  388 mt 5831  388 L
 699  388 mt  750  388 L
5883  388 mt 5831  388 L
 699  388 mt  802  388 L
5883  388 mt 5779  388 L
 364  454 mt 
(150) s
 699 2897 mt 5883 2897 L
 699  305 mt 5883  305 L
 699 2897 mt  699  305 L
5883 2897 mt 5883  305 L
gs 699 305 5185 2593 rc
30 w
/c8 { 0.160000 0.440000 1.000000 sr} bdef
c8
1 0 1 0 1 0 1 0 1 0 1 0 1 0 1 0 
1 0 1 0 1 0 1 0 1 0 1 0 1 0 1 0 
1 0 1 0 1 0 1 0 1 0 1 0 1 0 1 0 
1 0 1 0 1 0 1 0 1 0 1 0 1 0 1 0 
1 0 1 0 1 0 1 0 1 0 1 0 1 0 1 0 
1 0 1 0 1 0 1 0 1 0 1 0 1 0 1 0 
1 0 1 0 1 0 1 0 1 0 1 0 1 0 1 0 
1 0 1 0 1 0 1 0 1 0 1 0 1 0 1 0 
1 0 1 0 1 0 1 0 1 0 1 0 1 0 1 0 
1 0 1 0 1 0 1 0 1 0 1 0 1 0 1 0 
1 0 1 0 1 0 1 0 1 0 1 0 1 0 1 0 
1 0 1 0 1 0 1 0 1 0 1 0 1 0 1 0 
1 0 1 0 1 0 1 0 1 0 1 0 1 0 1 0 
1 0 1 0 1 0 1 0 1 0 1 0 1 0 1 0 
1 0 1 0 1 0 1 0 1 0 1 0 1 0 1 0 
1 0 1 0 1 0 1 0 1 0 1 0 1 0 1 0 
1 0 1 0 1 0 1 0 1 0 1 0 1 0 1 0 
1 0 1 0 1 0 1 0 1 0 1 0 1 0 1 0 
1 0 1 0 1 0 1 0 1 0 1 0 1 0 1 0 
1 0 1 0 1 0 1 0 1 0 1 0 1 0 1 0 
1 0 1 0 1 0 1 0 1 0 1 0 1 0 1 0 
1 0 1 0 1 0 1 0 1 0 1 0 1 0 1 0 
1 0 1 0 1 0 1 0 1 0 1 0 1 0 1 0 
1 0 1 0 1 0 1 0 1 0 1 0 1 0 1 0 
1 0 1 0 1 0 1 0 1 0 1 0 1 0 1 0 
1 0 1 0 1 0 1 0 1 0 1 0 1 0 1 0 
1 0 1 0 1 0 1 0 1 0 1 0 1 0 1 0 
1 0 1 0 1 0 1 0 1 0 1 0 1 0 1 0 
1 0 1 0 1 0 1 0 1 0 1 0 1 0 1 0 
1 0 1 0 1 0 1 0 1 0 1 0 1 0 1 0 
1 0 1 0 1 0 1 0 1 0 1 0 1 0 1 0 
1 0 1 0 1 0 1 0 1 0 1 0 1 0 1 0 
1 0 1 0 1 0 1 0 1 0 1 0 1 0 1 0 
1 0 1 0 1 0 1 0 1 0 1 0 1 0 1 0 
1 0 1 0 1 0 1 0 1 0 1 0 1 0 1 0 
1 0 1 0 1 0 1 0 1 0 1 0 1 0 1 0 
1 0 1 0 1 0 1 0 1 0 1 0 1 0 1 0 
1 0 1 0 1 0 5341 2897 300 MP stroke
1 0 1 0 1 0 1 0 1 0 1 0 1 0 1 0 
1 0 1 0 1 0 1 0 1 0 1 0 1 0 1 0 
1 0 1 0 1 0 1 0 1 0 1 0 1 0 1 0 
1 0 1 0 1 0 1 0 1 0 1 0 1 0 1 0 
1 0 1 0 1 0 1 0 1 0 1 0 1 0 1 0 
1 0 1 0 1 0 1 0 1 0 1 0 1 0 1 0 
1 0 1 0 1 0 1 0 1 0 1 0 1 0 1 0 
1 0 1 0 1 0 1 0 1 0 1 0 1 0 1 0 
1 0 1 0 1 0 1 0 1 0 1 0 1 0 1 0 
1 0 1 0 1 0 1 0 1 0 1 0 1 0 1 0 
1 0 1 0 1 0 1 0 1 0 1 0 1 0 1 0 
1 0 1 0 1 0 1 0 1 0 1 0 1 0 1 0 
1 0 1 0 1 0 1 0 1 0 1 0 1 0 1 0 
1 0 1 0 1 0 1 0 1 0 1 0 1 0 1 0 
1 0 1 0 1 0 1 0 1 0 1 0 1 0 1 0 
1 0 1 0 1 0 1 0 1 0 1 0 1 0 1 0 
1 0 1 0 1 0 1 0 1 0 1 0 1 0 1 0 
1 0 1 0 1 0 1 0 1 0 1 0 1 0 1 0 
1 0 1 0 1 0 1 0 1 0 1 0 1 0 1 0 
1 0 1 0 1 0 1 0 1 0 1 0 1 0 1 0 
1 0 1 0 1 0 1 0 1 0 1 0 1 0 1 0 
1 0 1 0 1 0 1 0 1 0 1 0 1 0 1 0 
1 0 1 0 1 0 1 0 1 0 1 0 1 0 1 0 
1 0 1 0 1 0 1 0 1 0 1 0 1 0 1 0 
1 0 1 0 1 0 1 0 1 0 1 0 1 0 1 0 
1 0 1 0 1 0 1 0 1 1 1 0 1 0 1 0 
1 1 1 0 1 0 1 0 1 1 1 0 1 0 1 0 
1 1 1 0 1 0 1 0 1 0 1 0 1 0 1 1 
1 0 1 0 1 0 1 0 1 0 1 -1 1 0 1 0 
1 0 1 0 1 0 1 -1 1 0 1 0 1 0 1 0 
1 -1 1 0 1 0 1 0 1 -1 1 0 1 0 1 0 
1 0 1 0 1 -1 1 0 1 0 1 0 1 0 1 0 
1 0 1 0 1 0 1 0 1 0 1 0 1 0 1 0 
1 0 1 0 1 0 1 0 1 0 1 0 1 0 1 0 
1 0 1 0 1 0 1 0 1 0 1 0 1 0 1 0 
1 0 1 0 1 0 1 0 1 0 1 0 1 0 1 0 
1 0 1 0 1 0 1 0 1 0 1 0 1 0 1 0 
1 0 1 0 1 0 5042 2897 300 MP stroke
1 0 1 0 1 0 1 0 1 0 1 0 1 0 1 0 
1 0 1 0 1 0 1 0 1 0 1 0 1 0 1 0 
1 0 1 0 1 0 1 0 1 0 1 0 1 0 1 0 
1 0 1 0 1 0 1 0 1 0 1 0 1 0 1 0 
1 0 1 0 1 0 1 0 1 0 1 0 1 0 1 0 
1 0 1 0 1 0 1 0 1 0 1 0 1 0 1 0 
1 0 1 0 1 0 1 0 1 0 1 0 1 0 1 0 
1 0 1 0 1 0 1 0 1 0 1 0 1 0 1 0 
1 0 1 0 1 0 1 0 1 0 1 0 1 0 1 0 
1 0 1 0 1 0 1 0 1 0 1 0 1 0 1 0 
1 0 1 0 1 0 1 0 1 0 1 0 1 0 1 0 
1 0 1 0 1 0 1 0 1 0 1 0 1 0 1 0 
1 0 1 0 1 0 1 0 1 0 1 0 1 0 1 0 
1 0 1 0 1 0 1 0 1 0 1 0 1 0 1 0 
1 0 1 0 1 0 1 0 1 0 1 0 1 0 1 0 
1 0 1 0 1 0 1 0 1 0 1 0 1 0 1 0 
1 0 1 0 1 0 1 0 1 0 1 0 1 0 1 0 
1 0 1 0 1 0 1 0 1 0 1 0 1 0 1 0 
1 0 1 0 1 0 1 0 1 0 1 0 1 0 1 0 
1 0 1 0 1 0 1 0 1 0 1 0 1 0 1 0 
1 0 1 0 1 0 1 0 1 0 1 0 1 0 1 0 
1 0 1 0 1 0 1 0 1 0 1 0 1 0 1 0 
1 0 1 0 1 0 1 0 1 0 1 0 1 0 1 0 
1 0 1 0 1 0 1 0 1 0 1 0 1 0 1 0 
1 0 1 0 1 0 1 0 1 0 1 0 1 0 1 0 
1 0 1 0 1 0 1 0 1 0 1 0 1 0 1 0 
1 0 1 0 1 0 1 0 1 0 1 0 1 0 1 0 
1 0 1 0 1 0 1 0 1 0 1 0 1 0 1 0 
1 0 1 0 1 0 1 0 1 0 1 0 1 0 1 0 
1 0 1 0 1 0 1 0 1 0 1 0 1 0 1 0 
1 0 1 0 1 0 1 0 1 0 1 0 1 0 1 0 
1 0 1 0 1 0 1 0 1 0 1 0 1 0 1 0 
1 0 1 0 1 0 1 0 1 0 1 0 1 0 1 0 
1 0 1 0 1 0 1 0 1 0 1 0 1 0 1 0 
1 0 1 0 1 0 1 0 1 0 1 0 1 0 1 0 
1 0 1 0 1 0 1 1 1 0 1 0 1 0 1 1 
1 0 1 0 1 0 1 0 1 1 1 0 1 0 1 0 
1 0 1 1 1 0 4743 2893 300 MP stroke
1 0 1 0 1 0 1 0 1 0 1 0 1 0 1 0 
1 0 1 0 1 0 1 0 1 0 1 0 1 -1 1 0 
1 0 1 0 1 0 1 0 1 0 1 0 1 0 1 0 
1 0 1 0 1 0 1 0 1 1 1 0 1 0 1 0 
1 0 1 0 1 0 1 0 1 0 1 0 1 0 1 0 
1 0 1 0 1 0 1 0 1 0 1 0 1 0 1 0 
1 0 1 -1 1 0 1 0 1 0 1 0 1 0 1 0 
1 -1 1 0 1 0 1 0 1 0 1 0 1 -1 1 0 
1 0 1 0 1 0 1 -1 1 0 1 0 1 0 1 0 
1 0 1 0 1 0 1 0 1 0 1 0 1 0 1 0 
1 0 1 0 1 0 1 0 1 0 1 0 1 0 1 0 
1 0 1 0 1 0 1 0 1 0 1 0 1 0 1 0 
1 0 1 0 1 0 1 0 1 0 1 0 1 0 1 0 
1 0 1 0 1 0 1 0 1 0 1 0 1 0 1 0 
1 0 1 0 1 0 1 0 1 0 1 0 1 0 1 0 
1 0 1 0 1 0 1 0 1 0 1 0 1 0 1 0 
1 0 1 0 1 0 1 0 1 0 1 0 1 0 1 0 
1 0 1 0 1 0 1 0 1 0 1 0 1 0 1 0 
1 0 1 0 1 0 1 0 1 0 1 0 1 0 1 0 
1 0 1 0 1 0 1 1 1 0 1 0 1 0 1 0 
1 0 1 1 1 0 1 0 1 0 1 0 1 1 1 0 
1 0 1 0 1 0 1 1 1 0 1 0 1 0 1 0 
1 1 1 0 1 0 1 0 1 0 1 0 1 1 1 0 
1 0 1 0 1 0 1 0 1 1 1 0 1 0 1 0 
1 0 1 0 1 0 1 0 1 0 1 0 1 -1 1 0 
1 0 1 0 1 0 1 0 1 -1 1 0 1 0 1 0 
1 -1 1 0 1 -1 1 0 1 -1 1 0 1 -1 1 0 
1 -1 1 0 1 0 1 0 1 0 1 0 1 0 1 0 
1 0 1 0 1 0 1 0 1 0 1 0 1 0 1 0 
1 0 1 0 1 0 1 0 0 3 1 1 0 6 1 1 
0 6 1 1 0 6 1 1 0 7 1 1 0 6 1 1 
0 7 1 1 0 7 1 1 0 6 1 1 0 7 1 1 
0 7 1 1 0 7 1 1 0 6 1 1 0 6 1 1 
0 6 1 1 0 6 1 1 0 6 1 1 0 6 1 1 
0 5 1 1 0 5 1 1 0 5 1 1 0 4 1 1 
0 4 1 1 0 4 1 1 0 4 1 1 0 3 1 1 
0 3 1 1 0 2 1 1 0 2 1 1 0 2 1 1 
0 2 2 2 0 2 4475 2707 300 MP stroke
2 2 1 1 1 1 1 1 1 0 1 1 1 0 1 0 
1 0 1 0 1 1 1 0 1 0 1 0 1 0 1 0 
1 1 1 0 1 1 1 0 1 1 1 1 1 1 1 1 
0 1 2 2 1 1 0 2 2 2 0 2 2 2 0 3 
2 2 0 2 1 1 0 1 1 1 0 3 2 2 0 3 
2 2 0 2 1 1 0 2 1 1 0 2 2 2 0 2 
1 1 0 2 2 2 0 1 2 2 1 1 1 1 1 0 
1 1 1 0 1 -1 1 -1 1 -1 1 -1 0 -2 2 -2 
0 -2 1 -1 0 -2 1 -1 0 -3 1 -1 0 -3 1 -1 
0 -3 1 -1 0 -3 1 -1 0 -4 1 -1 0 -5 1 -1 
0 -4 1 -1 0 -5 1 -1 0 -5 1 -1 0 -5 1 -1 
0 -6 1 -1 0 -6 1 -1 0 -6 1 -1 0 -6 1 -1 
0 -6 1 -1 0 -6 1 -1 0 -6 1 -1 0 -6 1 -1 
0 -5 1 -1 0 -6 1 -1 0 -5 1 -1 0 -5 1 -1 
0 -5 1 -1 0 -3 1 -1 0 -4 1 -1 0 -2 1 -1 
0 -2 1 -1 1 -1 1 -1 1 0 1 -1 1 0 1 0 
1 -1 1 -1 1 0 1 -1 1 -1 1 -1 1 -1 1 -1 
1 -1 1 -1 1 -1 0 -1 2 -2 1 -1 0 -1 2 -2 
1 -1 1 -1 1 -1 1 0 1 0 1 0 1 1 0 1 
2 2 0 1 2 2 0 1 2 2 0 1 2 2 1 1 
1 1 1 0 1 1 1 0 1 1 1 0 1 0 1 0 
1 -1 1 0 1 -1 1 0 1 -1 1 0 1 -1 1 -1 
1 -1 1 0 1 -1 1 -1 1 0 1 -1 1 0 1 -1 
1 0 1 0 1 0 1 0 1 0 1 0 1 0 1 0 
1 1 1 1 1 0 0 1 2 2 1 1 1 1 0 2 
2 2 0 2 2 2 0 2 1 1 0 1 1 1 0 2 
1 1 0 2 1 1 0 2 1 1 0 2 1 1 0 3 
1 1 0 2 1 1 0 2 1 1 0 2 1 1 0 3 
1 1 0 2 1 1 0 2 1 1 0 2 1 1 0 2 
1 1 0 2 1 1 0 3 2 2 0 2 1 1 0 1 
1 1 0 2 2 2 0 1 2 2 0 1 2 2 1 1 
1 1 1 1 1 0 1 1 1 1 1 1 1 0 1 1 
1 1 1 0 1 1 1 1 1 1 1 1 1 1 1 1 
1 1 1 1 1 1 0 1 2 2 1 1 0 2 2 2 
1 1 0 2 2 2 0 2 2 2 0 2 2 2 0 3 
2 2 0 2 1 1 0 1 1 1 0 2 1 1 0 1 
1 1 0 2 1 1 0 2 1 1 0 1 1 1 0 2 
1 1 0 2 1 1 4236 2670 300 MP stroke
0 3 2 2 0 2 1 1 0 2 1 1 0 3 2 2 
0 3 2 2 0 2 1 1 0 2 2 2 0 2 2 2 
0 2 2 2 1 1 1 1 1 1 1 1 1 1 1 0 
1 0 1 0 1 0 1 0 1 -1 1 -1 0 -1 2 -2 
0 -1 2 -2 0 -2 2 -2 0 -2 1 -1 0 -1 1 -1 
0 -2 1 -1 0 -1 1 -1 0 -2 1 -1 0 -2 1 -1 
0 -2 1 -1 0 -2 1 -1 0 -2 1 -1 0 -1 1 -1 
0 -2 1 -1 0 -2 1 -1 0 -2 1 -1 0 -2 1 -1 
0 -2 2 -2 0 -2 2 -2 0 -2 2 -2 1 -1 1 -1 
1 -1 1 -1 1 -1 1 0 1 0 1 0 1 1 1 0 
-1 0 2 2 0 1 2 2 0 2 2 2 0 2 1 1 
0 2 1 1 0 3 1 1 0 3 1 1 0 3 1 1 
0 3 1 1 0 4 1 1 0 4 1 1 0 5 1 1 
0 4 1 1 0 5 1 1 0 5 1 1 0 5 1 1 
0 6 1 1 0 5 1 1 0 5 1 1 0 5 1 1 
0 5 1 1 0 5 1 1 0 4 1 1 0 4 1 1 
0 4 1 1 0 3 1 1 0 3 1 1 0 2 1 1 
0 2 2 2 1 1 1 0 1 -1 0 -1 2 -2 0 -2 
1 -1 0 -3 1 -1 0 -4 1 -1 0 -4 1 -1 0 -5 
1 -1 0 -6 1 -1 0 -7 1 -1 0 -8 1 -1 0 -8 
1 -1 0 -9 1 -1 0 -10 1 -1 0 -10 1 -1 0 -11 
1 -1 0 -12 1 -1 0 -12 1 -1 0 -13 1 -1 0 -12 
1 -1 0 -14 1 -1 0 -13 1 -1 0 -13 1 -1 0 -15 
1 -1 0 -13 1 -1 0 -15 1 -1 0 -13 1 -1 0 -14 
1 -1 0 -13 1 -1 0 -12 1 -1 0 -13 1 -1 0 -10 
1 -1 0 -3 1 -1 1 0 1 0 1 0 1 0 1 0 
1 0 1 -1 1 0 1 0 1 0 1 0 1 -1 1 0 
1 0 1 0 1 -1 1 0 1 0 1 -1 1 0 1 -1 
1 0 1 0 1 -1 1 0 1 0 1 -1 1 0 1 0 
1 -1 1 0 1 0 1 0 1 0 1 0 1 0 1 0 
1 0 1 0 1 0 1 0 1 0 1 0 1 0 1 0 
1 0 1 0 1 0 1 0 1 0 1 0 1 0 1 0 
1 0 1 0 1 0 1 0 1 0 1 0 1 0 1 0 
1 0 1 0 1 0 1 0 1 0 1 0 1 0 1 0 
1 0 1 0 1 0 1 0 1 0 1 0 1 0 1 0 
1 0 1 0 1 0 1 0 1 0 1 0 1 0 1 0 
1 0 1 0 1 0 1 0 1 0 1 0 1 0 1 0 
1 0 1 0 1 0 4010 2897 300 MP stroke
1 0 1 0 1 0 1 0 1 0 1 0 1 0 1 0 
1 0 1 0 1 0 1 0 1 0 1 0 1 0 1 0 
1 0 1 0 1 0 1 0 1 0 1 0 1 0 1 0 
1 0 1 0 1 0 1 0 1 0 1 0 1 0 1 0 
1 0 1 0 1 0 1 0 1 0 1 0 1 0 1 0 
1 0 1 0 1 0 1 0 1 0 1 0 1 0 1 0 
1 0 1 0 1 0 1 0 1 0 1 0 1 0 1 0 
1 0 1 0 1 0 1 0 1 0 1 0 1 0 1 0 
1 0 1 0 1 0 1 0 1 0 1 0 1 0 1 0 
1 0 1 0 1 0 1 0 1 0 1 0 1 0 1 0 
1 0 1 0 1 0 1 0 1 0 1 0 1 0 1 0 
1 0 1 0 1 0 1 0 1 0 1 0 1 0 1 0 
1 0 1 0 1 0 1 0 1 0 1 0 1 0 1 0 
1 0 1 0 1 0 1 0 1 0 1 0 1 0 1 0 
0 4 1 1 0 10 1 1 0 14 1 1 0 18 1 2 
0 22 1 1 0 22 1 2 0 25 1 2 0 25 1 2 
0 27 1 2 0 30 1 3 0 30 1 2 0 33 1 2 
0 32 1 2 0 35 1 2 0 33 1 3 0 33 1 2 
0 36 1 2 0 34 1 2 0 36 1 2 0 34 1 2 
0 35 1 3 0 32 1 3 0 34 1 2 0 32 1 2 
0 32 1 2 0 33 1 2 0 30 1 2 0 31 1 2 
0 29 1 2 0 28 1 2 0 29 1 1 0 27 1 1 
0 28 1 1 0 25 1 2 0 25 1 1 0 23 1 2 
0 23 1 2 0 21 1 1 0 21 1 1 0 21 1 2 
0 18 1 2 0 19 1 1 0 18 1 1 0 18 1 1 
0 16 1 1 0 17 1 1 0 15 1 1 0 14 1 1 
0 15 1 1 0 13 1 1 0 13 1 1 0 12 1 1 
0 12 1 1 0 10 1 1 0 10 1 1 0 10 1 1 
0 9 1 1 0 8 1 1 0 7 1 1 0 7 1 1 
0 5 1 1 0 5 1 1 0 4 1 1 0 3 1 1 
0 3 1 1 0 1 1 1 1 1 1 1 1 0 1 -1 
1 -1 0 -2 1 -1 0 -2 1 -1 0 -3 1 -1 0 -3 
1 -1 0 -4 1 -1 0 -4 1 -1 0 -5 1 -1 0 -6 
1 -1 0 -6 1 -1 0 -6 1 -1 0 -6 1 -1 0 -6 
1 -1 0 -7 1 -1 0 -6 1 -1 0 -7 1 -1 0 -6 
1 -1 0 -6 1 -1 0 -6 1 -1 0 -5 1 -1 0 -6 
1 -1 0 -5 1 -1 0 -4 1 -1 0 -4 1 -1 0 -4 
1 -1 0 -3 1 -1 3802 1569 300 MP stroke
0 -3 1 -1 0 -3 1 -1 0 -2 1 -1 0 -1 1 -1 
0 -2 1 -1 0 -2 2 -2 0 -2 2 -2 0 -3 2 -2 
0 -2 1 -1 0 -3 1 -1 0 -3 1 -1 0 -4 1 -1 
0 -5 1 -1 0 -6 1 -1 0 -7 1 -1 0 -8 1 -1 
0 -11 1 -1 0 -11 1 -1 0 -14 1 -1 0 -14 1 -1 
0 -18 1 -1 0 -18 1 -1 0 -20 1 -1 0 -23 1 -1 
0 -23 1 -2 0 -26 1 -2 0 -27 1 -1 0 -28 1 -2 
0 -32 1 -2 0 -30 1 -3 0 -34 1 -2 0 -33 1 -2 
0 -37 1 -2 0 -35 1 -2 0 -36 1 -2 0 -38 1 -3 
0 -36 1 -3 0 -38 1 -3 0 -36 1 -3 0 -38 1 -3 
0 -36 1 -2 0 -38 1 -2 0 -35 1 -2 0 -34 1 -2 
0 -35 1 -2 0 -32 1 -2 0 -33 1 -2 0 -29 1 -2 
0 -29 1 -2 0 -26 1 -2 0 -24 1 -2 0 -24 1 -2 
0 -21 1 -2 0 -21 1 -1 0 -18 1 -1 0 -17 1 -1 
0 -16 1 -1 0 -13 1 -1 0 -12 1 -1 0 -9 1 -1 
0 -8 1 -1 0 -6 1 -1 1 -1 1 0 1 0 1 0 
1 0 1 0 1 0 1 0 1 0 0 3 1 1 0 5 
1 1 0 5 1 1 0 6 1 1 0 6 1 1 0 6 
1 1 0 6 1 1 0 7 1 1 0 6 1 1 0 6 
1 1 0 6 1 1 0 5 1 1 0 5 1 1 0 4 
1 1 0 3 1 1 0 3 1 1 0 2 2 2 1 0 
1 -1 0 -2 1 -1 0 -3 1 -1 0 -5 1 -1 0 -7 
1 -1 0 -8 1 -1 0 -10 1 -1 0 -13 1 -1 0 -14 
1 -1 0 -17 1 -1 0 -12 1 -1 1 0 1 0 1 0 
0 5 1 1 0 6 1 1 0 7 1 1 0 12 1 2 
0 31 1 3 0 34 1 2 0 37 1 2 0 41 1 3 
0 39 1 3 0 44 1 3 0 42 1 3 0 45 1 3 
0 44 1 3 0 43 1 4 0 47 1 3 0 43 1 4 
0 46 1 3 0 43 1 3 0 43 1 3 0 44 1 3 
0 40 1 3 0 41 1 3 0 38 1 2 0 38 1 3 
0 34 1 2 0 34 1 2 0 30 1 2 0 27 1 2 
0 27 1 2 0 23 1 2 0 22 1 1 0 19 1 1 
0 17 1 1 0 14 1 1 0 12 1 1 0 10 1 1 
0 7 1 1 0 5 1 1 0 3 1 1 0 2 1 1 
1 0 1 -1 0 -2 1 -1 0 -3 1 -1 0 -5 1 -1 
0 -6 1 -1 0 -8 1 -1 0 -9 1 -1 0 -10 1 -1 
0 -11 1 -1 0 -13 1 -1 0 -14 1 -1 0 -14 1 -1 
0 -16 1 -1 0 -16 3641 1812 300 MP stroke
1 -1 0 -17 1 -1 0 -19 1 -1 0 -18 1 -2 0 -20 
1 -1 0 -19 1 -2 0 -21 1 -1 0 -21 1 -1 0 -22 
1 -2 0 -21 1 -1 0 -21 1 -2 0 -23 1 -1 0 -22 
1 -1 0 -23 1 -2 0 -21 1 -1 0 -23 1 -2 0 -21 
1 -1 0 -22 1 -2 0 -20 1 -2 0 -20 1 -1 0 -21 
1 -1 0 -19 1 -1 0 -20 1 -1 0 -17 1 -1 0 -18 
1 -1 0 -16 1 -1 0 -15 1 -1 0 -16 1 -1 0 -13 
1 -1 0 -13 1 -1 0 -11 1 -1 0 -10 1 -1 0 -10 
1 -1 0 -8 1 -1 0 -7 1 -1 0 -7 1 -1 0 -6 
1 -1 0 -5 1 -1 0 -4 1 -1 0 -4 1 -1 0 -3 
1 -1 0 -3 1 -1 0 -2 1 -1 0 -2 1 -1 0 -1 
1 -1 1 -1 1 -1 1 0 1 0 1 1 1 1 0 1 
2 2 0 2 2 2 0 2 1 1 0 1 1 1 0 3 
2 2 0 2 1 1 0 2 1 1 0 2 2 2 0 2 
2 2 1 1 1 1 1 1 1 1 1 0 1 -1 1 -1 
1 -1 0 -1 2 -2 1 -1 0 -3 2 -2 0 -2 1 -1 
0 -2 1 -1 0 -2 1 -1 0 -2 1 -1 0 -2 1 -1 
0 -3 1 -1 0 -2 1 -1 0 -3 1 -1 0 -3 1 -1 
0 -3 1 -1 0 -2 1 -1 0 -3 1 -1 0 -3 1 -1 
0 -3 1 -1 0 -2 1 -1 0 -3 1 -1 0 -2 1 -1 
0 -3 1 -1 0 -2 1 -1 0 -3 1 -1 0 -2 1 -1 
0 -2 1 -1 0 -2 1 -1 0 -2 1 -1 0 -1 1 -1 
0 -3 2 -2 0 -2 2 -2 0 -1 2 -2 1 -1 1 -1 
1 -1 1 0 1 0 1 0 1 0 1 1 1 1 1 1 
0 1 2 2 0 1 2 2 0 2 2 2 0 2 2 2 
0 2 2 2 0 2 2 2 0 2 2 2 0 1 2 2 
1 1 1 0 1 1 1 -1 1 0 1 -1 1 -1 0 -2 
2 -2 0 -2 1 -1 0 -3 1 -1 0 -2 1 -1 0 -4 
1 -1 0 -4 1 -1 0 -4 1 -1 0 -5 1 -1 0 -5 
1 -1 0 -7 1 -1 0 -6 1 -1 0 -7 1 -1 0 -7 
1 -1 0 -7 1 -1 0 -8 1 -1 0 -8 1 -1 0 -9 
1 -1 0 -9 1 -1 0 -9 1 -1 0 -9 1 -1 0 -9 
1 -1 0 -9 1 -1 0 -9 1 -1 0 -10 1 -1 0 -9 
1 -1 0 -9 1 -1 0 -9 1 -1 0 -8 1 -1 0 -9 
1 -1 0 -8 1 -1 0 -8 1 -1 0 -8 1 -1 0 -7 
1 -1 0 -7 1 -1 0 -7 1 -1 0 -6 1 -1 0 -5 
1 -1 0 -5 1 -1 0 -5 1 -1 0 -5 1 -1 0 -3 
1 -1 0 -4 1 -1 3456 2874 300 MP stroke
0 -3 1 -1 0 -3 1 -1 0 -2 1 -1 0 -2 1 -1 
0 -2 1 -1 0 -3 2 -2 1 -1 1 0 1 0 1 0 
1 0 1 0 1 0 1 0 1 0 1 0 1 0 1 0 
1 0 1 0 1 0 1 0 1 0 1 0 1 0 1 0 
1 0 1 0 1 0 1 0 1 0 1 0 1 0 1 0 
1 0 1 0 1 0 1 0 1 0 1 0 1 0 1 0 
1 0 1 0 1 0 1 0 1 0 1 0 1 0 1 0 
1 0 1 0 1 0 1 0 1 0 1 0 1 0 1 0 
1 0 1 0 1 0 1 0 1 0 1 0 1 0 1 0 
1 0 1 0 1 0 1 0 1 0 1 0 1 0 1 0 
1 0 1 0 1 0 1 0 1 0 1 0 1 0 1 0 
1 0 1 0 1 0 1 0 1 0 1 0 1 0 1 0 
1 0 1 0 1 0 1 0 1 0 1 0 1 0 1 0 
1 0 1 0 1 0 1 0 1 0 1 0 1 0 1 0 
1 0 1 0 1 0 1 0 1 0 1 0 1 0 1 0 
1 0 1 0 1 0 1 0 1 0 1 0 1 0 1 0 
1 0 1 0 1 0 1 0 1 0 1 0 1 0 1 0 
1 1 1 0 1 0 1 0 1 1 1 0 1 0 1 0 
1 1 1 0 1 0 1 0 1 0 1 0 1 1 1 0 
1 0 1 0 1 0 1 0 1 0 1 0 1 0 1 0 
1 0 1 1 1 0 1 0 1 0 1 0 1 0 1 0 
1 0 1 0 1 0 1 0 1 -1 1 0 1 0 1 0 
1 -1 1 0 1 0 1 -1 1 0 1 -1 1 0 1 -1 
1 0 1 0 1 0 1 0 1 0 1 0 1 0 1 0 
1 0 1 0 1 0 1 0 1 0 1 0 1 0 1 0 
1 0 1 0 1 0 1 0 1 0 1 0 1 0 1 0 
1 0 1 0 1 0 1 0 1 0 1 0 1 0 1 0 
1 0 1 0 1 0 1 0 1 0 1 0 1 0 1 0 
1 0 1 0 1 0 1 0 1 0 1 0 1 0 1 0 
1 0 1 0 1 0 1 0 1 0 1 0 1 0 1 0 
0 5 1 1 0 6 1 1 0 6 1 1 0 6 1 1 
0 6 1 1 0 7 1 1 0 7 1 1 0 7 1 1 
0 6 1 1 0 8 1 1 0 6 1 1 0 7 1 1 
0 7 1 1 0 6 1 1 0 7 1 1 0 6 1 1 
0 6 1 1 0 7 1 1 0 5 1 1 0 6 1 1 
0 5 1 1 0 6 1 1 0 4 1 1 0 5 1 1 
0 4 1 1 0 4 1 1 0 4 1 1 0 3 1 1 
0 4 1 1 0 2 3192 2700 300 MP stroke
1 1 0 3 1 1 0 2 1 1 0 2 1 1 0 2 
1 1 0 2 2 2 0 2 2 2 1 1 1 1 1 1 
1 1 1 1 1 0 1 1 1 0 1 0 1 0 1 1 
1 0 1 0 1 0 1 0 1 0 1 1 1 0 1 0 
1 1 1 0 1 1 1 1 1 0 1 1 1 1 1 1 
1 1 1 0 1 1 1 1 0 1 2 2 1 1 1 1 
1 1 1 1 1 1 1 1 1 1 1 0 1 1 1 1 
1 1 1 0 1 1 1 0 1 1 1 0 1 1 1 0 
1 0 1 0 1 1 1 0 1 0 1 0 1 1 1 0 
1 0 1 0 1 1 1 0 1 1 1 0 1 1 1 0 
1 1 1 1 1 1 1 1 1 1 0 1 2 2 1 1 
0 1 2 2 0 1 2 2 0 1 2 2 0 1 2 2 
0 1 2 2 1 1 0 1 2 2 1 1 1 1 1 1 
1 0 1 1 1 0 1 0 1 0 1 0 1 0 1 -1 
0 -1 2 -2 0 -1 2 -2 0 -2 1 -1 0 -1 1 -1 
0 -2 1 -1 0 -3 1 -1 0 -3 1 -1 0 -3 1 -1 
0 -3 1 -1 0 -4 1 -1 0 -4 1 -1 0 -5 1 -1 
0 -5 1 -1 0 -5 1 -1 0 -6 1 -1 0 -5 1 -1 
0 -7 1 -1 0 -6 1 -1 0 -6 1 -1 0 -8 1 -1 
0 -6 1 -1 0 -8 1 -1 0 -7 1 -1 0 -8 1 -1 
0 -7 1 -1 0 -8 1 -1 0 -8 1 -1 0 -7 1 -1 
0 -8 1 -1 0 -7 1 -1 0 -8 1 -1 0 -7 1 -1 
0 -8 1 -1 0 -7 1 -1 0 -7 1 -1 0 -7 1 -1 
0 -6 1 -1 0 -7 1 -1 0 -5 1 -1 0 -6 1 -1 
0 -5 1 -1 0 -5 1 -1 0 -5 1 -1 0 -4 1 -1 
1 -1 1 0 1 0 1 0 1 0 1 0 1 0 1 0 
1 0 1 0 1 0 1 0 1 0 1 0 1 0 1 0 
1 0 1 0 1 0 1 0 1 0 1 0 1 0 1 0 
1 0 1 0 1 0 1 0 1 0 1 0 1 0 1 0 
1 0 1 0 1 0 1 0 1 0 1 0 1 0 1 0 
1 0 1 0 1 0 1 0 1 0 1 0 1 0 1 0 
1 0 1 0 1 0 1 0 1 0 1 0 1 0 1 0 
1 0 1 0 1 0 1 0 1 0 1 0 1 0 1 0 
1 0 1 0 0 0 2 2 0 3 1 1 0 3 1 1 
0 2 1 1 0 3 1 1 0 3 1 1 0 3 1 1 
0 3 1 1 0 2 1 1 0 3 1 1 0 3 1 1 
0 3 1 1 0 3 1 1 0 3 1 1 0 3 1 1 
0 3 1 1 0 4 2955 2833 300 MP stroke
1 1 0 3 1 1 0 4 1 1 0 4 1 1 0 4 
1 1 0 4 1 1 0 4 1 1 0 5 1 1 0 5 
1 1 0 4 1 1 0 5 1 1 0 5 1 1 0 6 
1 1 0 5 1 1 0 6 1 1 0 5 1 1 0 5 
1 1 0 6 1 1 0 6 1 1 0 6 1 1 0 5 
1 1 0 6 1 1 0 5 1 1 0 6 1 1 0 5 
1 1 0 4 1 1 0 5 1 1 0 5 1 1 0 4 
1 1 0 4 1 1 0 4 1 1 0 3 1 1 0 3 
1 1 0 3 1 1 0 2 1 1 0 2 1 1 0 2 
2 2 1 1 1 1 1 1 1 0 1 0 1 -1 1 -1 
1 -1 0 -1 2 -2 0 -2 1 -1 0 -1 1 -1 0 -2 
1 -1 0 -2 1 -1 0 -2 1 -1 0 -2 1 -1 0 -2 
1 -1 0 -2 1 -1 0 -2 1 -1 0 -3 1 -1 0 -2 
1 -1 0 -2 1 -1 0 -2 1 -1 0 -2 1 -1 0 -1 
1 -1 0 -2 1 -1 0 -2 2 -2 0 -1 2 -2 1 0 
1 -1 1 0 1 0 1 0 0 1 2 2 0 1 2 2 
0 2 1 1 0 2 1 1 0 2 1 1 0 3 1 1 
0 3 1 1 0 4 1 1 0 4 1 1 0 4 1 1 
0 5 1 1 0 5 1 1 0 6 1 1 0 5 1 1 
0 6 1 1 0 7 1 1 0 6 1 1 0 6 1 1 
0 7 1 1 0 6 1 1 0 7 1 1 0 6 1 1 
0 6 1 1 0 6 1 1 0 5 1 1 0 6 1 1 
0 5 1 1 0 4 1 1 0 4 1 1 0 4 1 1 
0 3 1 1 0 2 1 1 0 2 2 2 1 1 1 0 
1 -1 1 -1 0 -2 1 -1 0 -2 1 -1 0 -3 1 -1 
0 -4 1 -1 0 -4 1 -1 0 -5 1 -1 0 -6 1 -1 
0 -7 1 -1 0 -7 1 -1 0 -8 1 -1 0 -9 1 -1 
0 -9 1 -1 0 -10 1 -1 0 -10 1 -1 0 -10 1 -1 
0 -11 1 -1 0 -11 1 -1 0 -12 1 -1 0 -12 1 -1 
0 -12 1 -1 0 -12 1 -1 0 -12 1 -1 0 -13 1 -1 
0 -13 1 -1 0 -13 1 -1 0 -12 1 -1 0 -13 1 -1 
0 -12 1 -1 0 -13 1 -1 0 -11 1 -1 0 -11 1 -1 
0 -11 1 -1 0 -10 1 -1 0 -9 1 -1 0 -7 1 -1 
0 -4 2 -2 0 -1 2 -2 1 -1 1 -1 1 -1 1 -1 
1 -1 1 -1 1 -1 1 -1 1 -1 1 -1 1 0 1 -1 
1 0 1 -1 1 0 1 -1 1 0 1 -1 1 0 1 0 
1 0 1 0 1 0 1 0 1 0 1 0 1 0 1 0 
1 0 1 0 1 0 2772 2897 300 MP stroke
1 0 1 0 1 0 1 0 1 0 1 0 1 0 1 0 
1 0 1 0 1 0 1 0 1 0 1 0 1 0 1 0 
1 0 1 0 1 0 1 0 1 0 1 0 1 0 1 0 
1 0 1 0 1 0 1 0 1 0 1 0 1 0 1 0 
1 0 1 0 1 0 1 0 1 0 1 0 1 0 1 0 
1 0 1 0 1 0 1 0 1 0 1 0 1 0 1 0 
1 0 1 0 1 0 1 0 1 0 1 0 1 0 1 0 
1 0 1 0 1 0 1 0 1 0 1 0 1 0 1 0 
1 0 1 0 1 0 1 0 1 0 1 0 1 0 1 0 
1 0 1 0 1 0 1 0 1 0 1 0 1 0 1 0 
1 0 1 0 1 0 1 0 1 0 1 0 1 0 1 0 
1 0 1 0 1 0 1 0 1 0 1 0 1 0 1 0 
1 0 1 0 1 0 1 0 1 0 1 0 1 0 1 0 
1 0 1 0 1 0 1 0 1 0 1 0 1 0 1 0 
1 0 1 0 1 0 1 0 1 0 1 0 1 0 1 0 
1 0 1 0 1 0 1 0 1 0 1 0 1 0 1 0 
1 0 1 0 1 0 1 0 1 0 1 0 1 0 1 0 
1 0 1 0 1 0 1 0 1 0 1 0 1 0 1 0 
1 0 1 0 1 0 1 0 1 0 1 0 1 0 1 0 
1 0 1 0 0 3 1 1 0 11 1 1 0 11 1 1 
0 12 1 1 0 13 1 1 0 14 1 1 0 15 1 1 
0 15 1 1 0 17 1 1 0 16 1 1 0 18 1 1 
0 18 1 2 0 19 1 2 0 22 1 2 0 21 1 2 
0 24 1 2 0 23 1 2 0 24 1 2 0 26 1 1 
0 25 1 1 0 27 1 1 0 25 1 1 0 26 1 2 
0 24 1 1 0 26 1 1 0 23 1 2 0 22 1 1 
0 23 1 2 0 21 1 1 0 21 1 2 0 19 1 1 
0 18 1 1 0 19 1 1 0 16 1 1 0 16 1 1 
0 14 1 1 0 13 1 1 0 12 1 1 0 11 1 1 
0 9 1 1 0 9 1 1 0 8 1 1 0 6 1 1 
0 6 1 1 0 5 1 1 0 5 1 1 0 3 1 1 
0 3 1 1 0 2 1 1 0 3 2 2 0 2 2 2 
1 1 1 1 1 1 1 0 1 1 1 0 1 1 1 0 
1 1 1 0 1 1 1 0 1 1 1 1 1 1 1 1 
1 1 0 1 2 2 1 1 0 2 2 2 1 1 0 2 
2 2 0 2 2 2 0 2 2 2 1 1 0 2 2 2 
1 1 1 1 1 1 1 1 1 1 1 0 1 0 1 0 
1 -1 1 -1 0 -1 2523 2009 300 MP stroke
2 -2 0 -2 2 -2 0 -3 1 -1 0 -2 1 -1 0 -3 
1 -1 0 -3 1 -1 0 -4 1 -1 0 -5 1 -1 0 -5 
1 -1 0 -6 1 -1 0 -6 1 -1 0 -7 1 -1 0 -7 
1 -1 0 -8 1 -1 0 -9 1 -1 0 -8 1 -1 0 -10 
1 -1 0 -9 1 -1 0 -11 1 -1 0 -10 1 -1 0 -12 
1 -1 0 -11 1 -1 0 -11 1 -1 0 -12 1 -1 0 -11 
1 -1 0 -12 1 -1 0 -12 1 -1 0 -12 1 -1 0 -11 
1 -1 0 -11 1 -1 0 -11 1 -1 0 -10 1 -1 0 -11 
1 -1 0 -9 1 -1 0 -10 1 -1 0 -8 1 -1 0 -8 
1 -1 0 -7 1 -1 0 -6 1 -1 0 -6 1 -1 0 -5 
1 -1 0 -5 1 -1 0 -3 1 -1 0 -3 1 -1 0 -2 
1 -1 0 -2 1 -1 1 -1 1 -1 1 0 1 0 1 1 
1 1 0 2 2 2 0 2 1 1 0 2 1 1 0 1 
1 1 0 2 1 1 0 2 1 1 0 2 1 1 0 2 
1 1 0 2 2 2 1 1 1 1 1 0 1 0 0 -2 
2 -2 0 -2 1 -1 0 -3 1 -1 0 -4 1 -1 0 -4 
1 -1 0 -6 1 -1 0 -7 1 -1 0 -8 1 -1 0 -9 
1 -1 0 -10 1 -1 0 -11 1 -1 0 -11 1 -1 0 -13 
1 -1 0 -14 1 -1 0 -13 1 -1 0 -16 1 -1 0 -16 
1 -1 0 -15 1 -2 0 -15 1 -2 0 -17 1 -1 0 -17 
1 -1 0 -18 1 -1 0 -17 1 -1 0 -17 1 -2 0 -18 
1 -1 0 -17 1 -1 0 -19 1 -1 0 -17 1 -1 0 -18 
1 -1 0 -17 1 -1 0 -18 1 -1 0 -16 1 -1 0 -16 
1 -1 0 -16 1 -1 0 -15 1 -1 0 -13 1 -1 0 -11 
1 -1 0 -11 1 -1 0 -1 1 -1 1 0 1 0 1 0 
1 0 1 0 1 0 1 0 1 0 1 0 1 0 1 0 
1 0 1 0 1 0 1 0 1 0 1 0 1 0 1 0 
1 0 1 0 1 0 1 0 1 0 1 0 1 0 1 0 
1 0 1 0 1 0 1 0 1 0 1 0 1 0 1 0 
1 0 1 0 1 0 1 0 1 0 1 0 1 0 1 0 
1 0 1 0 1 0 1 0 1 0 1 0 1 0 1 0 
1 0 1 0 1 0 1 0 1 0 1 0 1 0 1 0 
1 0 1 0 1 0 1 0 1 0 1 0 1 0 1 0 
1 0 1 0 1 0 1 0 1 0 1 0 1 0 1 0 
1 0 1 0 1 0 1 0 1 0 1 0 1 0 1 0 
1 0 1 0 1 0 1 0 1 0 1 0 1 0 1 0 
1 0 1 0 1 0 1 0 1 0 1 0 1 0 1 0 
1 0 1 0 1 0 2312 2897 300 MP stroke
1 0 1 0 1 0 1 0 1 0 1 0 1 0 1 0 
1 0 1 0 1 0 1 0 1 0 1 0 1 0 1 0 
1 0 1 0 1 0 1 0 1 0 1 0 1 0 1 0 
1 0 1 0 1 0 1 0 1 0 1 0 1 0 1 0 
1 0 1 0 1 0 1 0 1 0 1 0 1 0 1 0 
1 0 1 0 1 0 1 0 1 0 1 0 1 0 1 0 
1 0 1 0 1 0 1 0 1 0 1 0 1 0 1 0 
1 0 1 0 1 0 1 0 1 0 1 0 1 0 1 0 
1 0 1 0 1 0 1 0 1 0 1 0 1 0 1 0 
1 0 1 0 1 0 1 0 1 0 1 0 1 0 1 0 
1 0 1 0 1 0 1 0 1 0 1 0 1 0 1 0 
1 0 1 0 1 0 1 0 1 0 1 0 1 0 1 0 
1 0 1 0 1 0 1 0 1 0 1 0 1 0 1 0 
1 0 1 0 1 0 1 0 1 0 1 0 1 0 1 0 
1 0 1 0 1 0 1 0 1 0 1 0 1 0 1 0 
1 0 1 0 1 0 1 0 1 0 1 0 1 0 1 0 
1 0 1 0 1 0 1 0 1 0 1 0 1 0 1 0 
1 0 1 0 1 0 1 0 1 0 1 0 1 0 1 0 
1 0 1 0 1 0 1 0 1 0 1 0 1 0 1 0 
1 0 1 0 1 0 1 0 1 0 1 0 1 0 1 0 
1 0 1 0 1 0 1 0 1 0 1 0 1 0 1 0 
1 0 1 0 1 0 1 0 1 0 1 0 1 0 1 0 
1 0 1 0 1 0 1 0 1 0 1 0 1 0 1 0 
1 0 1 0 1 0 1 0 1 0 1 0 1 0 1 0 
1 0 1 0 1 0 1 0 1 0 1 0 1 0 1 0 
1 0 1 0 1 0 1 0 1 0 1 0 1 0 1 0 
1 0 1 0 1 0 1 0 1 0 1 0 1 0 1 0 
1 0 1 0 1 0 1 0 1 0 1 0 1 0 1 0 
1 0 1 0 1 0 1 0 1 0 1 0 1 0 1 0 
1 0 1 0 1 0 1 0 1 0 1 0 1 0 0 1 
2 2 0 2 1 1 0 2 2 2 0 2 2 2 1 1 
0 2 2 2 1 1 0 2 2 2 0 1 2 2 1 1 
0 2 2 2 1 1 0 2 2 2 0 2 2 2 1 1 
0 2 2 2 0 2 2 2 1 1 0 2 2 2 0 1 
2 2 1 1 0 1 2 2 1 1 1 1 1 1 1 0 
1 1 1 1 1 0 1 1 1 0 1 1 1 0 1 0 
1 0 1 1 1 0 1 0 1 0 1 1 1 0 1 0 
1 0 1 1 1 0 2014 2825 300 MP stroke
1 0 1 0 1 0 1 0 1 0 1 0 1 0 1 -1 
1 0 1 -1 1 0 1 -1 1 -1 1 -1 0 -1 2 -2 
0 -1 2 -2 0 -1 2 -2 0 -2 2 -2 0 -3 2 -2 
0 -2 1 -1 0 -1 1 -1 0 -2 1 -1 0 -1 1 -1 
0 -2 1 -1 0 -2 1 -1 0 -2 1 -1 0 -2 1 -1 
0 -2 1 -1 0 -1 1 -1 0 -2 1 -1 0 -2 1 -1 
0 -2 1 -1 0 -2 1 -1 0 -2 1 -1 0 -2 1 -1 
0 -2 2 -2 1 0 1 0 1 0 1 0 1 0 1 0 
1 0 1 0 1 0 1 0 1 0 1 0 1 0 1 0 
1 0 1 0 1 0 1 0 1 0 1 0 1 0 1 0 
1 0 1 0 1 0 1 0 1 0 1 0 1 0 1 0 
1 0 1 0 1 0 1 0 1 0 1 0 1 0 1 0 
1 0 1 0 1 1 1 1 1 1 1 1 1 0 1 1 
1 0 1 1 1 0 1 0 1 0 1 0 1 0 1 0 
1 0 1 0 1 0 1 0 1 0 1 -1 1 0 1 0 
1 -1 1 0 1 0 1 0 1 -1 1 0 1 0 1 0 
1 0 1 -1 1 0 1 0 1 0 1 0 1 -1 1 0 
1 0 1 0 1 -1 1 0 1 0 1 0 1 0 1 0 
1 0 1 0 1 0 1 0 1 0 1 0 1 0 1 0 
1 0 1 0 1 0 1 0 1 0 1 0 1 0 1 0 
1 0 1 0 1 0 1 0 1 0 1 0 1 0 1 0 
1 0 1 0 1 0 1 0 1 0 1 0 1 0 1 0 
1 0 1 0 1 0 1 0 1 0 1 0 1 0 1 0 
1 0 1 0 1 0 1 0 1 0 1 0 1 0 1 0 
1 0 1 0 1 0 1 0 1 0 1 0 1 0 1 0 
1 0 1 0 1 0 1 0 1 0 1 0 1 0 1 0 
1 0 1 0 1 0 1 0 1 0 1 0 1 0 1 0 
1 0 1 0 1 0 1 0 1 0 1 0 1 0 1 0 
1 0 1 0 1 0 1 0 1 0 1 0 1 0 1 0 
1 0 1 0 1 0 1 0 1 0 1 1 1 1 1 1 
1 0 1 1 1 0 1 1 1 0 1 0 1 -1 1 0 
1 0 1 -1 1 -1 1 -1 1 0 1 -1 1 0 1 0 
1 0 1 0 1 0 1 0 1 0 1 0 1 0 1 0 
1 0 1 0 1 0 1 0 1 0 1 0 1 0 1 0 
1 0 1 0 1 0 1 0 1 0 1 0 1 0 1 0 
1 0 1 0 1 0 1 0 1 0 1 0 1 1 0 2 
2 2 0 2 1 1 0 1 1 1 0 2 2 2 0 3 
2 2 0 2 1 1 1734 2875 300 MP stroke
0 2 2 2 0 2 1 1 0 2 2 2 0 2 2 2 
0 2 2 2 0 2 2 2 0 1 2 2 1 1 1 1 
1 1 1 1 1 0 1 1 1 0 1 0 1 1 1 -1 
1 0 1 0 1 0 1 -1 1 0 1 -1 1 0 1 -1 
1 -1 1 0 1 -1 1 0 1 -1 1 0 1 -1 1 0 
1 0 1 -1 1 0 1 0 1 0 1 0 1 0 1 0 
1 -1 1 0 1 0 1 0 1 -1 1 0 1 -1 1 0 
1 -1 1 -1 1 -1 1 0 -1 0 2 -2 1 -1 1 -1 
1 -1 0 -1 2 -2 0 -1 2 -2 0 -1 2 -2 1 -1 
0 -2 2 -2 0 -1 2 -2 0 -2 2 -2 0 -1 2 -2 
0 -2 2 -2 0 -2 2 -2 1 -1 1 -1 1 0 1 0 
1 0 1 0 1 0 1 0 1 0 1 0 1 0 1 0 
1 0 1 0 1 0 1 0 1 0 1 0 1 0 1 0 
1 0 1 0 1 0 1 0 1 0 1 0 1 0 1 0 
1 0 1 0 1 0 1 0 1 0 1 0 1 0 1 0 
1 0 1 0 1 0 1 0 1 0 1 0 1 0 1 0 
1 0 1 0 1 0 1 0 1 0 1 0 1 0 1 0 
1 0 1 0 1 0 1 0 1 0 1 0 1 0 1 0 
1 0 1 0 1 0 1 0 1 0 1 0 1 0 1 0 
1 0 1 0 1 0 1 0 1 0 1 0 1 0 1 0 
1 0 1 0 1 0 1 0 1 0 1 0 1 0 1 0 
1 0 1 0 1 0 1 0 1 0 1 0 1 0 1 0 
1 0 1 0 1 0 1 0 1 0 1 0 1 0 1 0 
1 0 1 0 1 0 1 0 1 0 1 0 1 0 1 0 
1 0 1 0 1 0 1 0 1 0 1 0 1 0 1 0 
1 0 1 0 1 0 1 0 1 0 1 0 1 0 1 0 
1 0 1 0 1 0 1 0 1 0 1 0 1 0 1 0 
1 0 1 0 1 0 1 0 1 0 1 0 1 0 1 0 
1 0 1 0 1 0 1 0 1 0 1 0 1 0 1 0 
1 0 1 0 1 0 1 0 1 0 1 0 1 0 1 0 
1 0 1 0 1 0 1 0 1 0 1 0 1 0 1 0 
1 0 1 0 1 0 1 0 1 0 1 0 1 0 1 0 
1 0 1 0 1 0 1 0 1 0 1 0 0 5 1 1 
0 5 1 1 0 6 1 1 0 7 1 1 0 7 1 1 
0 9 1 1 0 9 1 1 0 11 1 1 0 12 1 1 
0 13 1 1 0 13 1 1 0 14 1 1 0 17 1 1 
0 16 1 1 0 19 1 1 0 18 1 1 0 20 1 1 
0 21 1 2 0 21 1456 2635 300 MP stroke
1 1 0 23 1 2 0 22 1 2 0 25 1 1 0 24 
1 1 0 26 1 2 0 24 1 2 0 25 1 2 0 26 
1 2 0 25 1 2 0 26 1 2 0 25 1 2 0 25 
1 1 0 27 1 1 0 24 1 2 0 26 1 1 0 23 
1 2 0 24 1 2 0 21 1 2 0 23 1 1 0 20 
1 2 0 19 1 1 0 19 1 2 0 17 1 1 0 17 
1 1 0 15 1 1 0 14 1 1 0 12 1 1 0 11 
1 1 0 11 1 1 0 8 1 1 0 9 1 1 0 6 
1 1 0 7 1 1 0 5 1 1 0 6 1 1 0 5 
1 1 0 4 1 1 0 6 1 1 0 4 1 1 0 6 
1 1 0 5 1 1 0 6 1 1 0 6 1 1 0 7 
1 1 0 7 1 1 0 6 1 1 0 8 1 1 0 7 
1 1 0 7 1 1 0 9 1 1 0 8 1 1 0 8 
1 1 0 8 1 1 0 9 1 1 0 8 1 1 0 8 
1 1 0 9 1 1 0 8 1 1 0 8 1 1 0 8 
1 1 0 8 1 1 0 6 1 1 0 7 1 1 0 5 
1 1 0 4 1 1 0 4 1 1 0 3 1 1 0 2 
1 1 1 1 1 1 1 -1 0 -2 1 -1 0 -3 1 -1 
0 -4 1 -1 0 -7 1 -1 0 -7 1 -1 0 -10 1 -1 
0 -11 1 -1 0 -12 1 -1 0 -15 1 -1 0 -16 1 -1 
0 -18 1 -2 0 -18 1 -2 0 -20 1 -1 0 -23 1 -2 
0 -23 1 -2 0 -26 1 -2 0 -25 1 -2 0 -29 1 -2 
0 -28 1 -2 0 -31 1 -2 0 -30 1 -3 0 -33 1 -2 
0 -32 1 -2 0 -32 1 -2 0 -35 1 -3 0 -32 1 -3 
0 -35 1 -3 0 -33 1 -2 0 -36 1 -2 0 -33 1 -2 
0 -32 1 -3 0 -34 1 -2 0 -31 1 -2 0 -32 1 -2 
0 -30 1 -2 0 -30 1 -2 0 -27 1 -2 0 -28 1 -2 
0 -25 1 -2 0 -24 1 -1 0 -25 1 -1 0 -22 1 -1 
0 -22 1 -1 0 -19 1 -1 0 -18 1 -1 0 -17 1 -2 
0 -15 1 -1 0 -14 1 -1 0 -13 1 -1 0 -12 1 -1 
0 -7 1 -1 1 0 1 0 1 0 1 0 1 0 1 0 
1 0 1 0 1 0 1 0 1 0 1 0 1 0 1 0 
1 0 1 0 1 0 1 0 1 0 1 0 1 0 1 0 
1 0 1 0 1 0 1 0 1 0 1 0 1 0 1 0 
1 0 1 0 1 0 1 0 1 0 1 0 1 0 1 0 
1 0 1 0 1 0 1 0 1 0 1 0 1 0 1 0 
1 0 1 0 1 0 1 0 1 0 1 0 1 0 1 0 
1 0 1 0 1 0 1276 2897 300 MP stroke
1 0 1 0 1 0 1 0 1 0 1 0 1 0 1 0 
1 0 1 1 0 5 1 1 0 6 1 1 0 6 1 1 
0 7 1 1 0 6 1 1 0 7 1 1 0 7 1 1 
0 7 1 1 0 7 1 1 0 7 1 1 0 9 1 1 
0 8 1 1 0 9 1 1 0 9 1 1 0 9 1 1 
0 11 1 1 0 11 1 1 0 11 1 1 0 11 1 1 
0 12 1 1 0 13 1 1 0 15 1 1 0 14 1 1 
0 15 1 1 0 16 1 2 0 16 1 1 0 18 1 2 
0 17 1 2 0 18 1 2 0 20 1 2 0 20 1 2 
0 22 1 2 0 21 1 2 0 24 1 2 0 23 1 2 
0 25 1 2 0 24 1 2 0 25 1 2 0 27 1 2 
0 26 1 2 0 29 1 2 0 27 1 2 0 29 1 2 
0 27 1 2 0 28 1 2 0 29 1 2 0 28 1 2 
0 29 1 2 0 27 1 2 0 29 1 1 0 27 1 2 
0 26 1 2 0 27 1 1 0 25 1 2 0 25 1 2 
0 23 1 2 0 23 1 2 0 21 1 1 0 22 1 1 
0 19 1 1 0 18 1 1 0 18 1 1 0 16 1 1 
0 15 1 1 0 13 1 1 0 11 1 1 0 11 1 1 
0 9 1 1 0 7 1 1 0 6 1 1 0 5 1 1 
0 4 1 1 0 2 1 1 1 1 1 1 0 -1 2 -2 
0 -3 1 -1 0 -3 1 -1 0 -5 1 -1 0 -6 1 -1 
0 -7 1 -1 0 -8 1 -1 0 -9 1 -1 0 -11 1 -1 
0 -11 1 -1 0 -12 1 -1 0 -13 1 -1 0 -15 1 -1 
0 -14 1 -2 0 -15 1 -1 0 -17 1 -1 0 -17 1 -1 
0 -19 1 -1 0 -19 1 -1 0 -19 1 -1 0 -21 1 -1 
0 -20 1 -2 0 -22 1 -2 0 -21 1 -1 0 -23 1 -2 
0 -22 1 -1 0 -23 1 -2 0 -24 1 -2 0 -23 1 -1 
0 -25 1 -2 0 -24 1 -1 0 -26 1 -1 0 -24 1 -2 
0 -24 1 -2 0 -26 1 -1 0 -25 1 -1 0 -26 1 -2 
0 -24 1 -2 0 -26 1 -2 0 -24 1 -2 0 -25 1 -2 
0 -24 1 -2 0 -26 1 -1 0 -24 1 -2 0 -24 1 -1 
0 -25 1 -2 0 -23 1 -2 0 -25 1 -1 0 -23 1 -1 
0 -24 1 -2 0 -18 1 -2 0 -21 1 -1 0 -23 1 -1 
0 -20 1 -2 0 -20 1 -2 0 -18 1 -2 0 -18 1 -1 
0 -18 1 -2 0 -16 1 -1 0 -17 1 -1 0 -14 1 -1 
0 -14 1 -1 0 -12 1 -1 0 -10 1 -1 0 -8 1 -1 
0 -5 1 -1 0 -4 1 -1 0 -3 1 -1 0 -4 1 -1 
0 -3 1 -1 0 -4 1120 2877 300 MP stroke
1 -1 0 -3 1 -1 0 -3 1 -1 0 -3 1 -1 0 -2 
1 -1 0 -3 1 -1 1 0 1 0 1 0 1 0 1 0 
1 0 1 0 1 0 1 0 1 0 1 0 1 0 1 0 
1 0 1 0 1 0 1 0 1 0 1 0 1 0 1 0 
1 0 1 0 1 0 1 0 1 0 1 0 1 0 1 0 
1 0 1 0 1 0 1 0 1 0 1 0 1 0 1 0 
1 0 1 0 1 0 1 0 1 0 1 0 1 0 1 0 
1 0 1 0 1 0 1 0 1 0 1 0 1 0 1 0 
1 0 1 0 1 0 1 0 1 0 1 0 1 0 1 0 
1 0 1 0 1 0 1 0 1 0 1 0 1 0 1 0 
1 0 1 0 1 0 1 0 1 0 1 0 1 0 1 0 
1 0 1 0 1 0 1 0 1 0 1 0 1 0 1 0 
1 0 1 0 1 0 1 0 1 0 1 0 1 0 1 0 
1 0 1 0 1 0 1 0 1 0 1 0 1 0 1 0 
1 0 1 0 1 0 1 0 1 0 1 0 1 0 1 0 
1 0 1 0 1 0 1 0 1 0 1 0 1 0 1 0 
1 0 1 0 1 0 1 0 1 0 1 0 1 0 1 0 
1 0 1 0 1 0 1 0 1 0 1 0 1 0 1 0 
1 0 1 0 1 0 1 0 1 0 1 0 1 0 1 0 
1 0 1 0 1 0 1 0 1 0 1 0 1 0 1 0 
1 0 1 0 1 0 1 0 1 0 1 0 1 0 1 0 
1 0 1 0 1 0 1 0 1 0 1 0 1 0 1 0 
1 0 1 0 1 0 1 0 1 0 1 0 1 0 1 0 
1 0 1 0 1 0 1 0 1 0 1 0 1 0 1 0 
1 0 1 0 1 0 1 0 1 0 1 0 1 0 1 0 
1 0 1 0 1 0 1 0 1 0 1 0 1 0 1 0 
1 0 1 0 1 0 1 0 1 0 1 0 1 0 1 0 
1 0 1 0 1 0 1 0 1 0 1 0 1 0 1 0 
1 0 1 0 1 0 1 0 1 0 1 0 1 0 1 0 
1 0 1 0 1 0 1 0 1 0 1 0 1 0 1 0 
1 0 1 0 1 0 1 0 1 0 1 0 1 0 1 0 
1 0 1 0 1 0 1 0 1 0 1 0 1 0 1 0 
1 0 1 0 1 0 1 0 1 0 1 0 1 0 1 0 
1 0 1 0 1 0 1 0 1 0 1 0 1 0 1 0 
1 0 1 0 1 0 1 0 1 0 1 0 1 0 1 0 
1 0 1 0 1 0 1 0 1 0 1 0 1 0 1 0 
1 0 1 0 1 0 1 0 1 0 1 0 1 0 1 0 
1 0 1 0 1 0 826 2897 300 MP stroke
1 0 1 0 1 0 1 0 1 0 1 0 1 0 1 0 
1 0 1 0 1 0 1 0 1 0 1 0 1 0 1 0 
1 0 1 0 1 0 1 0 1 0 1 0 1 0 1 0 
1 0 1 0 1 0 1 0 1 0 1 0 1 0 1 0 
1 0 1 0 1 0 1 0 1 0 1 0 1 0 1 0 
1 0 1 0 1 0 1 0 1 0 1 0 1 0 1 0 
1 0 1 0 1 0 1 0 1 0 1 0 1 0 1 0 
1 0 1 0 1 0 1 0 1 0 1 0 1 0 1 0 
1 0 1 0 1 0 1 0 1 0 1 0 1 0 1 0 
1 0 1 0 1 0 1 0 1 0 1 0 1 0 1 0 
1 0 1 0 1 0 1 0 1 0 1 0 1 0 1 0 
1 0 1 0 1 0 1 0 1 0 1 0 1 0 1 0 
1 0 1 0 1 0 1 0 1 0 1 0 1 0 1 0 
1 0 1 0 1 0 1 0 1 0 1 0 1 0 1 0 
1 0 1 0 1 0 1 0 1 0 1 0 1 0 1 0 
1 0 1 0 1 0 1 0 1 0 1 0 1 0 699 2897 128 MP stroke
DA
/c9 { 0.930000 0.000000 0.000000 sr} bdef
c9
1 0 1 0 1 0 1 0 1 0 1 0 1 0 1 0 
1 0 1 0 1 0 1 0 1 0 1 0 1 0 1 0 
1 0 1 0 1 0 1 0 1 0 1 0 1 0 1 0 
1 0 1 0 1 0 1 0 1 0 1 0 1 0 1 0 
1 0 1 0 1 0 1 0 1 0 1 0 1 0 1 0 
1 0 1 0 1 0 1 0 1 0 1 0 1 0 1 0 
1 0 1 0 1 0 1 0 1 0 1 0 1 0 1 0 
1 0 1 0 1 0 1 0 1 0 1 0 1 0 1 0 
1 0 1 0 1 0 1 0 1 0 1 0 1 0 1 0 
1 0 1 0 1 0 1 0 1 0 1 0 1 0 1 0 
1 0 1 0 1 0 1 0 1 0 1 0 1 0 1 0 
1 0 1 0 1 0 1 0 1 0 1 0 1 0 1 0 
1 0 1 0 1 0 1 0 1 0 1 0 1 0 1 0 
1 0 1 0 1 0 1 0 1 0 1 0 1 0 1 0 
1 0 1 0 1 0 1 0 1 0 1 0 1 0 1 0 
1 0 1 0 1 0 1 0 1 0 1 0 1 0 1 0 
1 0 1 0 1 0 1 0 1 0 1 0 1 0 1 0 
1 0 1 0 1 0 1 0 1 0 1 0 1 0 1 0 
1 0 1 0 1 0 1 0 1 0 1 0 1 0 1 0 
1 0 1 0 1 0 1 0 1 0 1 0 1 0 1 0 
1 0 1 0 1 0 1 0 1 0 1 0 1 0 1 0 
1 0 1 0 1 0 1 0 1 0 1 0 1 0 1 0 
1 0 1 0 1 0 1 0 1 0 1 0 1 0 1 0 
1 0 1 0 1 0 1 0 1 0 1 0 1 0 1 0 
1 0 1 0 1 0 1 0 1 0 1 0 1 0 1 0 
1 0 1 0 1 0 1 0 1 0 1 0 1 0 1 0 
1 0 1 0 1 0 1 0 1 0 1 0 1 0 1 0 
1 0 1 0 1 0 1 0 1 0 1 0 1 0 1 0 
1 0 1 0 1 0 1 0 1 0 1 0 1 0 1 0 
1 0 1 0 1 0 1 0 1 0 1 0 1 0 1 0 
1 0 1 0 1 0 1 0 1 0 1 0 1 0 1 0 
1 0 1 0 1 0 1 0 1 0 1 0 1 0 1 0 
1 0 1 0 1 0 1 0 1 0 1 0 1 0 1 0 
1 0 1 0 1 0 1 0 1 0 1 0 1 0 1 0 
1 0 1 0 1 0 1 0 1 0 1 0 1 0 1 0 
1 0 1 0 1 0 1 0 1 0 1 0 1 0 1 0 
1 0 1 0 1 0 1 0 1 0 1 0 1 0 1 0 
1 0 1 0 1 0 5341 388 300 MP stroke
1 0 1 0 1 0 1 0 1 0 1 0 1 0 1 0 
1 0 1 0 1 0 1 0 1 0 1 0 1 0 1 0 
1 0 1 0 1 0 1 0 1 0 1 0 1 0 1 0 
1 0 1 0 1 0 1 0 1 0 1 0 1 0 1 0 
1 0 1 0 1 0 1 0 1 0 1 0 1 0 1 0 
1 0 1 0 1 0 1 0 1 0 1 0 1 0 1 0 
1 0 1 0 1 0 1 0 1 0 1 0 1 0 1 0 
1 0 1 0 1 0 1 0 1 0 1 0 1 0 1 0 
1 0 1 0 1 0 1 0 1 0 1 0 1 0 1 0 
1 0 1 0 1 0 1 0 1 0 1 0 1 0 1 0 
1 0 1 0 1 0 1 0 1 0 1 0 1 0 1 0 
1 0 1 0 1 0 1 0 1 0 1 0 1 0 1 0 
1 0 1 0 1 0 1 0 1 0 1 0 1 0 1 0 
1 0 1 0 1 0 1 0 1 0 1 0 1 0 1 0 
1 0 1 0 1 0 1 0 1 0 1 0 1 0 1 0 
1 0 1 0 1 0 1 0 1 0 1 0 1 0 1 0 
1 0 1 0 1 0 1 0 1 0 1 0 1 0 1 0 
1 0 1 0 1 0 1 0 1 0 1 0 1 0 1 0 
1 0 1 0 1 0 1 0 1 0 1 0 1 0 1 0 
1 0 1 0 1 0 1 0 1 0 1 0 1 0 1 0 
1 0 1 0 1 0 1 0 1 0 1 0 1 0 1 0 
1 0 1 0 1 0 1 0 1 0 1 0 1 0 1 0 
1 0 1 0 1 0 1 0 1 0 1 0 1 0 1 0 
1 0 1 0 1 0 1 0 1 0 1 0 1 0 1 0 
1 0 1 0 1 0 1 0 1 0 1 0 1 0 1 0 
1 0 1 0 1 0 1 0 1 0 1 0 1 0 1 0 
1 0 1 0 1 0 1 0 1 0 1 0 1 0 1 0 
1 0 1 0 1 0 1 0 1 0 1 0 1 0 1 0 
1 0 1 0 1 0 1 0 1 0 1 0 1 0 1 0 
1 0 1 0 1 0 1 0 1 0 1 0 1 0 1 0 
1 0 1 0 1 0 1 0 1 0 1 0 1 0 1 0 
1 0 1 0 1 0 1 0 1 0 1 0 1 0 1 0 
1 0 1 0 1 0 1 0 1 0 1 0 1 0 1 0 
1 0 1 0 1 0 1 0 1 0 1 0 1 0 1 0 
1 0 1 0 1 0 1 0 1 0 1 0 1 0 1 0 
1 0 1 0 1 0 1 0 1 0 1 0 1 0 1 0 
1 0 1 0 1 0 1 0 1 0 1 0 1 0 1 0 
1 0 1 0 1 0 5042 388 300 MP stroke
1 0 1 0 1 0 1 0 1 0 1 0 1 0 1 0 
1 0 1 0 1 0 1 0 1 0 1 0 1 0 1 0 
1 0 1 0 1 0 1 0 1 0 1 0 1 0 1 0 
1 0 1 0 1 0 1 0 1 0 1 0 1 0 1 0 
1 0 1 0 1 0 1 0 1 0 1 0 1 0 1 0 
1 0 1 0 1 0 1 0 1 0 1 0 1 0 1 0 
1 0 1 0 1 0 1 0 1 0 1 0 1 0 1 0 
1 0 1 0 1 0 1 0 1 0 1 0 1 0 1 0 
1 0 1 0 1 0 1 0 1 0 1 0 1 0 1 0 
1 0 1 0 1 0 1 0 1 0 1 0 1 0 1 0 
1 0 1 0 1 0 1 0 1 0 1 0 1 0 1 0 
1 0 1 0 1 0 1 0 1 0 1 0 1 0 1 0 
1 0 1 0 1 0 1 0 1 0 1 0 1 0 1 0 
1 0 1 0 1 0 1 0 1 0 1 0 1 0 1 0 
1 0 1 0 1 0 1 0 1 0 1 0 1 0 1 0 
1 0 1 0 1 0 1 0 1 0 1 0 1 0 1 0 
1 0 1 0 1 0 1 0 1 0 1 0 1 0 1 0 
1 0 1 0 1 0 1 0 1 0 1 0 1 0 1 0 
1 0 1 0 1 0 1 0 1 0 1 0 1 0 1 0 
1 0 1 0 1 0 1 0 1 0 1 0 1 0 1 0 
1 0 1 0 1 0 1 0 1 0 1 0 1 0 1 0 
1 0 1 0 1 0 1 0 1 0 1 0 1 0 1 0 
1 0 1 0 1 0 1 0 1 0 1 0 1 0 1 0 
1 0 1 0 1 0 1 0 1 0 1 0 1 0 1 0 
1 0 1 0 1 0 1 0 1 0 1 0 1 0 1 0 
1 0 1 0 1 0 1 0 1 0 1 0 1 0 1 0 
1 0 1 0 1 0 1 0 1 0 1 0 1 0 1 0 
1 0 1 0 1 0 1 0 1 0 1 0 1 0 1 0 
1 0 1 0 1 0 1 0 1 0 1 0 1 0 1 0 
1 0 1 0 1 0 1 0 1 0 1 0 1 0 1 0 
1 0 1 0 1 0 1 0 1 0 1 0 1 0 1 0 
1 0 1 0 1 0 1 0 1 0 1 0 1 0 1 0 
1 0 1 0 1 0 1 0 1 0 1 0 1 0 1 0 
1 0 1 0 1 0 1 0 1 0 1 0 1 0 1 0 
1 0 1 0 1 0 1 0 1 0 1 0 1 0 1 0 
1 0 1 0 1 0 1 0 1 0 1 0 1 0 1 0 
1 0 1 0 1 0 1 0 1 0 1 0 1 0 1 0 
1 0 1 0 1 0 4743 388 300 MP stroke
1 0 1 0 1 0 1 0 1 0 1 0 1 0 1 0 
1 0 1 0 1 0 1 0 1 0 1 0 1 0 1 0 
1 0 1 0 1 0 1 0 1 0 1 0 1 0 1 0 
1 0 1 0 1 0 1 0 1 0 1 0 1 0 1 0 
1 0 1 0 1 0 1 0 1 0 1 0 1 0 1 0 
1 0 1 0 1 0 1 0 1 0 1 0 1 0 1 0 
1 0 1 0 1 0 1 0 1 0 1 0 1 0 1 0 
1 0 1 0 1 0 1 0 1 0 1 0 1 0 1 0 
1 0 1 0 1 0 1 0 1 0 1 0 1 0 1 0 
1 0 1 0 1 0 1 0 1 0 1 0 1 0 1 0 
1 0 1 0 1 0 1 0 1 0 1 0 1 0 1 0 
1 0 1 0 1 0 1 0 1 0 1 0 1 0 1 0 
1 0 1 0 1 0 1 0 1 0 1 0 1 0 1 0 
1 0 1 0 1 0 1 0 1 0 1 0 1 0 1 0 
1 0 1 0 1 0 1 0 1 0 1 0 1 0 1 0 
1 0 1 0 1 0 1 0 1 0 1 0 1 0 1 0 
1 0 1 0 1 0 1 0 1 0 1 0 1 0 1 0 
1 0 1 0 1 0 1 0 1 0 1 0 1 0 1 0 
1 0 1 0 1 0 1 0 1 0 1 0 1 0 1 0 
1 0 1 0 1 0 1 0 1 0 1 0 1 0 1 0 
1 0 1 0 1 0 1 0 1 0 1 0 1 0 1 0 
1 0 1 0 1 0 1 0 1 0 1 0 1 0 1 0 
1 0 1 0 1 0 1 0 1 0 1 0 1 0 1 0 
1 0 1 0 1 0 1 0 1 0 1 0 1 0 1 0 
1 0 1 0 1 0 1 0 1 0 1 0 1 0 1 0 
1 0 1 0 1 0 1 0 1 0 1 0 1 0 1 0 
1 0 1 0 1 0 1 0 1 0 1 0 1 0 1 0 
1 0 1 0 1 0 1 0 1 0 1 0 1 0 1 0 
1 0 1 0 1 0 1 0 1 0 1 0 1 0 1 0 
1 0 1 0 1 0 1 0 1 0 1 0 1 0 1 0 
1 0 1 0 1 0 1 0 1 0 1 0 1 0 1 0 
1 0 1 0 1 0 1 0 1 0 1 0 1 0 1 0 
1 0 1 0 1 0 1 0 1 0 1 0 1 0 1 0 
1 0 1 0 1 0 1 0 1 0 1 0 1 0 1 0 
1 0 1 0 1 0 1 0 1 0 1 0 1 0 1 0 
1 0 1 0 1 0 1 0 1 0 1 0 1 0 1 0 
1 0 1 0 1 0 1 0 1 0 1 0 1 0 1 0 
1 0 1 0 1 0 4444 388 300 MP stroke
1 0 1 0 1 0 1 0 1 0 1 0 1 0 1 0 
1 0 1 0 1 0 1 0 1 0 1 0 1 0 1 0 
1 0 1 0 1 0 1 0 1 0 1 0 1 0 1 0 
1 0 1 0 1 0 1 0 1 0 1 0 1 0 1 0 
1 0 1 0 1 0 1 0 1 0 1 0 1 0 1 0 
1 0 1 0 1 0 1 0 1 0 1 0 1 0 1 0 
1 0 1 0 1 0 1 0 1 0 1 0 1 0 1 0 
1 0 1 0 1 0 1 0 1 0 1 0 1 0 1 0 
1 0 1 0 1 0 1 0 1 0 1 0 1 0 1 0 
1 0 1 0 1 0 1 0 1 0 1 0 1 0 1 0 
1 0 1 0 1 0 1 0 1 0 1 0 1 0 1 0 
1 0 1 0 1 0 1 0 1 0 1 0 1 0 1 0 
1 0 1 0 1 0 1 0 1 0 1 0 1 0 1 0 
1 0 1 0 1 0 1 0 1 0 1 0 1 0 1 0 
1 0 1 0 1 0 1 0 1 0 1 0 1 0 1 0 
1 0 1 0 1 0 1 0 1 0 1 0 1 0 1 0 
1 0 1 0 1 0 1 0 1 0 1 0 1 0 1 0 
1 0 1 0 1 0 1 0 1 0 1 0 1 0 1 0 
1 0 1 0 1 0 1 0 1 0 1 0 1 0 1 0 
1 0 1 0 1 0 1 0 1 0 1 0 1 0 1 0 
1 0 1 0 1 0 1 0 1 0 1 0 1 0 1 0 
1 0 1 0 1 0 1 0 1 0 1 0 1 0 1 0 
1 0 1 0 1 0 1 0 1 0 1 0 1 0 1 0 
1 0 1 0 1 0 1 0 1 0 1 0 1 0 1 0 
1 0 1 0 1 0 1 0 1 0 1 0 1 0 1 0 
1 0 1 0 1 0 1 0 1 0 1 0 1 0 1 0 
1 0 1 0 1 0 1 0 1 0 1 0 1 0 1 0 
1 0 1 0 1 0 1 0 1 0 1 0 1 0 1 0 
1 0 1 0 1 0 1 0 1 0 1 0 1 0 1 0 
1 0 1 0 1 0 1 0 1 0 1 0 1 0 1 0 
1 0 1 0 1 0 1 0 1 0 1 0 1 0 1 0 
1 0 1 0 1 0 1 0 1 0 1 0 1 0 1 0 
1 0 1 0 1 0 1 0 1 0 1 0 1 0 1 0 
1 0 1 0 1 0 1 0 1 0 1 0 1 0 1 0 
1 0 1 0 1 0 1 0 1 0 1 0 1 0 1 0 
1 0 1 0 1 0 1 0 1 0 1 0 1 0 1 0 
1 0 1 0 1 0 1 0 1 0 1 0 1 0 1 0 
1 0 1 0 1 0 4145 388 300 MP stroke
1 0 1 0 1 0 1 0 1 0 1 0 1 0 1 0 
1 0 1 0 1 0 1 0 1 0 1 0 1 0 1 0 
1 0 1 0 1 0 1 0 1 0 1 0 1 0 1 0 
1 0 1 0 1 0 1 0 1 0 1 0 1 0 1 0 
1 0 1 0 1 0 1 0 1 0 1 0 1 0 1 0 
1 0 1 0 1 0 1 0 1 0 1 0 1 0 1 0 
1 0 1 0 1 0 1 0 1 0 1 0 1 0 1 0 
1 0 1 0 1 0 1 0 1 0 1 0 1 0 1 0 
1 0 1 0 1 0 1 0 1 0 1 0 1 0 1 0 
1 0 1 0 1 0 1 0 1 0 1 0 1 0 1 0 
1 0 1 0 1 0 1 0 1 0 1 0 1 0 1 0 
1 0 1 0 1 0 1 0 1 0 1 0 1 0 1 0 
1 0 1 0 1 0 1 0 1 0 1 0 1 0 1 0 
1 0 1 0 1 0 1 0 1 0 1 0 1 0 1 0 
1 0 1 0 1 0 1 0 1 0 1 0 1 0 1 0 
1 0 1 0 1 0 1 0 1 0 1 0 1 0 1 0 
1 0 1 0 1 0 1 0 1 0 1 0 1 0 1 0 
1 0 1 0 1 0 1 0 1 0 1 0 1 0 1 0 
1 0 1 0 1 0 1 0 1 0 1 0 1 0 1 0 
1 0 1 0 1 0 1 0 1 0 1 0 1 0 1 0 
1 0 1 0 1 0 1 0 1 0 1 0 1 0 1 0 
1 0 1 0 1 0 1 0 1 0 1 0 1 0 1 0 
1 0 1 0 1 0 1 0 1 0 1 0 1 0 1 0 
1 0 1 0 1 0 1 0 1 0 1 0 1 0 1 0 
1 0 1 0 1 0 1 0 1 0 1 0 1 0 1 0 
1 0 1 0 1 0 1 0 1 0 1 0 1 0 1 0 
1 0 1 0 1 0 1 0 1 0 1 0 1 0 1 0 
1 0 1 0 1 0 1 0 1 0 1 0 1 0 1 0 
1 0 1 0 1 0 1 0 1 0 1 0 1 0 1 0 
1 0 1 0 1 0 1 0 1 0 1 0 1 0 1 0 
1 0 1 0 1 0 1 0 1 0 1 0 1 0 1 0 
1 0 1 0 1 0 1 0 1 0 1 0 1 0 1 0 
1 0 1 0 1 0 1 0 1 0 1 0 1 0 1 0 
1 0 1 0 1 0 1 0 1 0 1 0 1 0 1 0 
1 0 1 0 1 0 1 0 1 0 1 0 1 0 1 0 
1 0 1 0 1 0 1 0 1 0 1 0 1 0 1 0 
1 0 1 0 1 0 1 0 1 0 1 0 1 0 1 0 
1 0 1 0 1 0 3846 388 300 MP stroke
1 0 1 0 1 0 1 0 1 0 1 0 1 0 1 0 
1 0 1 0 1 0 1 0 1 0 1 0 1 0 1 0 
1 0 1 0 1 0 1 0 1 0 1 0 1 0 1 0 
1 0 1 0 1 0 1 0 1 0 1 0 1 0 1 0 
1 0 1 0 1 0 1 0 1 0 1 0 1 0 1 0 
1 0 1 0 1 0 1 0 1 0 1 0 1 0 1 0 
1 0 1 0 1 0 1 0 1 0 1 0 1 0 1 0 
1 0 1 0 1 0 1 0 1 0 1 0 1 0 1 0 
1 0 1 0 1 0 1 0 1 0 1 0 1 0 1 0 
1 0 1 0 1 0 1 0 1 0 1 0 1 0 1 0 
1 0 1 0 1 0 1 0 1 0 1 0 1 0 1 0 
1 0 1 0 1 0 1 0 1 0 1 0 1 0 1 0 
1 0 1 0 1 0 1 0 1 0 1 0 1 0 1 0 
1 0 1 0 1 0 1 0 1 0 1 0 1 0 1 0 
1 0 1 0 1 0 1 0 1 0 1 0 1 0 1 0 
1 0 1 0 1 0 1 0 1 0 1 0 1 0 1 0 
1 0 1 0 1 0 1 0 1 0 1 0 1 0 1 0 
1 0 1 0 1 0 1 0 1 0 1 0 1 0 1 0 
1 0 1 0 1 0 1 0 1 0 1 0 1 0 1 0 
1 0 1 0 1 0 1 0 1 0 1 0 1 0 1 0 
1 0 1 0 1 0 1 0 1 0 1 0 1 0 1 0 
1 0 1 0 1 0 1 0 1 0 1 0 1 0 1 0 
1 0 1 0 1 0 1 0 1 0 1 0 1 0 1 0 
1 0 1 0 1 0 1 0 1 0 1 0 1 0 1 0 
1 0 1 0 1 0 1 0 1 0 1 0 1 0 1 0 
1 0 1 0 1 0 1 0 1 0 1 0 1 0 1 0 
1 0 1 0 1 0 1 0 1 0 1 0 1 0 1 0 
1 0 1 0 1 0 1 0 1 0 1 0 1 0 1 0 
1 0 1 0 1 0 1 0 1 0 1 0 1 0 1 0 
1 0 1 0 1 0 1 0 1 0 1 0 1 0 1 0 
1 0 1 0 1 0 1 0 1 0 1 0 1 0 1 0 
1 0 1 0 1 0 1 0 1 0 1 0 1 0 1 0 
1 0 1 0 1 0 1 0 1 0 1 0 1 0 1 0 
1 0 1 0 1 0 1 0 1 0 1 0 1 0 1 0 
1 0 1 0 1 0 1 0 1 0 1 0 1 0 1 0 
1 0 1 0 1 0 1 0 1 0 1 0 1 0 1 0 
1 0 1 0 1 0 1 0 1 0 1 0 1 0 1 0 
1 0 1 0 1 0 3547 388 300 MP stroke
1 0 1 0 1 0 1 0 1 0 1 0 1 0 1 0 
1 0 1 0 1 0 1 0 1 0 1 0 1 0 1 0 
1 0 1 0 1 0 1 0 1 0 1 0 1 0 1 0 
1 0 1 0 1 0 1 0 1 0 1 0 1 0 1 0 
1 0 1 0 1 0 1 0 1 0 1 0 1 0 1 0 
1 0 1 0 1 0 1 0 1 0 1 0 1 0 1 0 
1 0 1 0 1 0 1 0 1 0 1 0 1 0 1 0 
1 0 1 0 1 0 1 0 1 0 1 0 1 0 1 0 
1 0 1 0 1 0 1 0 1 0 1 0 1 0 1 0 
1 0 1 0 1 0 1 0 1 0 1 0 1 0 1 0 
1 0 1 0 1 0 1 0 1 0 1 0 1 0 1 0 
1 0 1 0 1 0 1 0 1 0 1 0 1 0 1 0 
1 0 1 0 1 0 1 0 1 0 1 0 1 0 1 0 
1 0 1 0 1 0 1 0 1 0 1 0 1 0 1 0 
1 0 1 0 1 0 1 0 1 0 1 0 1 0 1 0 
1 0 1 0 1 0 1 0 1 0 1 0 1 0 1 0 
1 0 1 0 1 0 1 0 1 0 1 0 1 0 1 0 
1 0 1 0 1 0 1 0 1 0 1 0 1 0 1 0 
1 0 1 0 1 0 1 0 1 0 1 0 1 0 1 0 
1 0 1 0 1 0 1 0 1 0 1 0 1 0 1 0 
1 0 1 0 1 0 1 0 1 0 1 0 1 0 1 0 
1 0 1 0 1 0 1 0 1 0 1 0 1 0 1 0 
1 0 1 0 1 0 1 0 1 0 1 0 1 0 1 0 
1 0 1 0 1 0 1 0 1 0 1 0 1 0 1 0 
1 0 1 0 1 0 1 0 1 0 1 0 1 0 1 0 
1 0 1 0 1 0 1 0 1 0 1 0 1 0 1 0 
1 0 1 0 1 0 1 0 1 0 1 0 1 0 1 0 
1 0 1 0 1 0 1 0 1 0 1 0 1 0 1 0 
1 0 1 0 1 0 1 0 1 0 1 0 1 0 1 0 
1 0 1 0 1 0 1 0 1 0 1 0 1 0 1 0 
1 0 1 0 1 0 1 0 1 0 1 0 1 0 1 0 
1 0 1 0 1 0 1 0 1 0 1 0 1 0 1 0 
1 0 1 0 1 0 1 0 1 0 1 0 1 0 1 0 
1 0 1 0 1 0 1 0 1 0 1 0 1 0 1 0 
1 0 1 0 1 0 1 0 1 0 1 0 1 0 1 0 
1 0 1 0 1 0 1 0 1 0 1 0 1 0 1 0 
1 0 1 0 1 0 1 0 1 0 1 0 1 0 1 0 
1 0 1 0 1 0 3248 388 300 MP stroke
1 0 1 0 1 0 1 0 1 0 1 0 1 0 1 0 
1 0 1 0 1 0 1 0 1 0 1 0 1 0 1 0 
1 0 1 0 1 0 1 0 1 0 1 0 1 0 1 0 
1 0 1 0 1 0 1 0 1 0 1 0 1 0 1 0 
1 0 1 0 1 0 1 0 1 0 1 0 1 0 1 0 
1 0 1 0 1 0 1 0 1 0 1 0 1 0 1 0 
1 0 1 0 1 0 1 0 1 0 1 0 1 0 1 0 
1 0 1 0 1 0 1 0 1 0 1 0 1 0 1 0 
1 0 1 0 1 0 1 0 1 0 1 0 1 0 1 0 
1 0 1 0 1 0 1 0 1 0 1 0 1 0 1 0 
1 0 1 0 1 0 1 0 1 0 1 0 1 0 1 0 
1 0 1 0 1 0 1 0 1 0 1 0 1 0 1 0 
1 0 1 0 1 0 1 0 1 0 1 0 1 0 1 0 
1 0 1 0 1 0 1 0 1 0 1 0 1 0 1 0 
1 0 1 0 1 0 1 0 1 0 1 0 1 0 1 0 
1 0 1 0 1 0 1 0 1 0 1 0 1 0 1 0 
1 0 1 0 1 0 1 0 1 0 1 0 1 0 1 0 
1 0 1 0 1 0 1 0 1 0 1 0 1 0 1 0 
1 0 1 0 1 0 1 0 1 0 1 0 1 0 1 0 
1 0 1 0 1 0 1 0 1 0 1 0 1 0 1 0 
1 0 1 0 1 0 1 0 1 0 1 0 1 0 1 0 
1 0 1 0 1 0 1 0 1 0 1 0 1 0 1 0 
1 0 1 0 1 0 1 0 1 0 1 0 1 0 1 0 
1 0 1 0 1 0 1 0 1 0 1 0 1 0 1 0 
1 0 1 0 1 0 1 0 1 0 1 0 1 0 1 0 
1 0 1 0 1 0 1 0 1 0 1 0 1 0 1 0 
1 0 1 0 1 0 1 0 1 0 1 0 1 0 1 0 
1 0 1 0 1 0 1 0 1 0 1 0 1 0 1 0 
1 0 1 0 1 0 1 0 1 0 1 0 1 0 1 0 
1 0 1 0 1 0 1 0 1 0 1 0 1 0 1 0 
1 0 1 0 1 0 1 0 1 0 1 0 1 0 1 0 
1 0 1 0 1 0 1 0 1 0 1 0 1 0 1 0 
1 0 1 0 1 0 1 0 1 0 1 0 1 0 1 0 
1 0 1 0 1 0 1 0 1 0 1 0 1 0 1 0 
1 0 1 0 1 0 1 0 1 0 1 0 1 0 1 0 
1 0 1 0 1 0 1 0 1 0 1 0 1 0 1 0 
1 0 1 0 1 0 1 0 1 0 1 0 1 0 1 0 
1 0 1 0 1 0 2949 388 300 MP stroke
1 0 1 0 1 0 1 0 1 0 1 0 1 0 1 0 
1 0 1 0 1 0 1 0 1 0 1 0 1 0 1 0 
1 0 1 0 1 0 1 0 1 0 1 0 1 0 1 0 
1 0 1 0 1 0 1 0 1 0 1 0 1 0 1 0 
1 0 1 0 1 0 1 0 1 0 1 0 1 0 1 0 
1 0 1 0 1 0 1 0 1 0 1 0 1 0 1 0 
1 0 1 0 1 0 1 0 1 0 1 0 1 0 1 0 
1 0 1 0 1 0 1 0 1 0 1 0 1 0 1 0 
1 0 1 0 1 0 1 0 1 0 1 0 1 0 1 0 
1 0 1 0 1 0 1 0 1 0 1 0 1 0 1 0 
1 0 1 0 1 0 1 0 1 0 1 0 1 0 1 0 
1 0 1 0 1 0 1 0 1 0 1 0 1 0 1 0 
1 0 1 0 1 0 1 0 1 0 1 0 1 0 1 0 
1 0 1 0 1 0 1 0 1 0 1 0 1 0 1 0 
1 0 1 0 1 0 1 0 1 0 1 0 1 0 1 0 
1 0 1 0 1 0 1 0 1 0 1 0 1 0 1 0 
1 0 1 0 1 0 1 0 1 0 1 0 1 0 1 0 
1 0 1 0 1 0 1 0 1 0 1 0 1 0 1 0 
1 0 1 0 1 0 1 0 1 0 1 0 1 0 1 0 
1 0 1 0 1 0 1 0 1 0 1 0 1 0 1 0 
1 0 1 0 1 0 1 0 1 0 1 0 1 0 1 0 
1 0 1 0 1 0 1 0 1 0 1 0 1 0 1 0 
1 0 1 0 1 0 1 0 1 0 1 0 1 0 1 0 
1 0 1 0 1 0 1 0 1 0 1 0 1 0 1 0 
1 0 1 0 1 0 1 0 1 0 1 0 1 0 1 0 
1 0 1 0 1 0 1 0 1 0 1 0 1 0 1 0 
1 0 1 0 1 0 1 0 1 0 1 0 1 0 1 0 
1 0 1 0 1 0 1 0 1 0 1 0 1 0 1 0 
1 0 1 0 1 0 1 0 1 0 1 0 1 0 1 0 
1 0 1 0 1 0 1 0 1 0 1 0 1 0 1 0 
1 0 1 0 1 0 1 0 1 0 1 0 1 0 1 0 
1 0 1 0 1 0 1 0 1 0 1 0 1 0 1 0 
1 0 1 0 1 0 1 0 1 0 1 0 1 0 1 0 
1 0 1 0 1 0 1 0 1 0 1 0 1 0 1 0 
1 0 1 0 1 0 1 0 1 0 1 0 1 0 1 0 
1 0 1 0 1 0 1 0 1 0 1 0 1 0 1 0 
1 0 1 0 1 0 1 0 1 0 1 0 1 0 1 0 
1 0 1 0 1 0 2650 388 300 MP stroke
1 0 1 0 1 0 1 0 1 0 1 0 1 0 1 0 
1 0 1 0 1 0 1 0 1 0 1 0 1 0 1 0 
1 0 1 0 1 0 1 0 1 0 1 0 1 0 1 0 
1 0 1 0 1 0 1 0 1 0 1 0 1 0 1 0 
1 0 1 0 1 0 1 0 1 0 1 0 1 0 1 0 
1 0 1 0 1 0 1 0 1 0 1 0 1 0 1 0 
1 0 1 0 1 0 1 0 1 0 1 0 1 0 1 0 
1 0 1 0 1 0 1 0 1 0 1 0 1 0 1 0 
1 0 1 0 1 0 1 0 1 0 1 0 1 0 1 0 
1 0 1 0 1 0 1 0 1 0 1 0 1 0 1 0 
1 0 1 0 1 0 1 0 1 0 1 0 1 0 1 0 
1 0 1 0 1 0 1 0 1 0 1 0 1 0 1 0 
1 0 1 0 1 0 1 0 1 0 1 0 1 0 1 0 
1 0 1 0 1 0 1 0 1 0 1 0 1 0 1 0 
1 0 1 0 1 0 1 0 1 0 1 0 1 0 1 0 
1 0 1 0 1 0 1 0 1 0 1 0 1 0 1 0 
1 0 1 0 1 0 1 0 1 0 1 0 1 0 1 0 
1 0 1 0 1 0 1 0 1 0 1 0 1 0 1 0 
1 0 1 0 1 0 1 0 1 0 1 0 1 0 1 0 
1 0 1 0 1 0 1 0 1 0 1 0 1 0 1 0 
1 0 1 0 1 0 1 0 1 0 1 0 1 0 1 0 
1 0 1 0 1 0 1 0 1 0 1 0 1 0 1 0 
1 0 1 0 1 0 1 0 1 0 1 0 1 0 1 0 
1 0 1 0 1 0 1 0 1 0 1 0 1 0 1 0 
1 0 1 0 1 0 1 0 1 0 1 0 1 0 1 0 
1 0 1 0 1 0 1 0 1 0 1 0 1 0 1 0 
1 0 1 0 1 0 1 0 1 0 1 0 1 0 1 0 
1 0 1 0 1 0 1 0 1 0 1 0 1 0 1 0 
1 0 1 0 1 0 1 0 1 0 1 0 1 0 1 0 
1 0 1 0 1 0 1 0 1 0 1 0 1 0 1 0 
1 0 1 0 1 0 1 0 1 0 1 0 1 0 1 0 
1 0 1 0 1 0 1 0 1 0 1 0 1 0 1 0 
1 0 1 0 1 0 1 0 1 0 1 0 1 0 1 0 
1 0 1 0 1 0 1 0 1 0 1 0 1 0 1 0 
1 0 1 0 1 0 1 0 1 0 1 0 1 0 1 0 
1 0 1 0 1 0 1 0 1 0 1 0 1 0 1 0 
1 0 1 0 1 0 1 0 1 0 1 0 1 0 1 0 
1 0 1 0 1 0 2351 388 300 MP stroke
1 0 1 0 1 0 1 0 1 0 1 0 1 0 1 0 
1 0 1 0 1 0 1 0 1 0 1 0 1 0 1 0 
1 0 1 0 1 0 1 0 1 0 1 0 1 0 1 0 
1 0 1 0 1 0 1 0 1 0 1 0 1 0 1 0 
1 0 1 0 1 0 1 0 1 0 1 0 1 0 1 0 
1 0 1 0 1 0 1 0 1 0 1 0 1 0 1 0 
1 0 1 0 1 0 1 0 1 0 1 0 1 0 1 0 
1 0 1 0 1 0 1 0 1 0 1 0 1 0 1 0 
1 0 1 0 1 0 1 0 1 0 1 0 1 0 1 0 
1 0 1 0 1 0 1 0 1 0 1 0 1 0 1 0 
1 0 1 0 1 0 1 0 1 0 1 0 1 0 1 0 
1 0 1 0 1 0 1 0 1 0 1 0 1 0 1 0 
1 0 1 0 1 0 1 0 1 0 1 0 1 0 1 0 
1 0 1 0 1 0 1 0 1 0 1 0 1 0 1 0 
1 0 1 0 1 0 1 0 1 0 1 0 1 0 1 0 
1 0 1 0 1 0 1 0 1 0 1 0 1 0 1 0 
1 0 1 0 1 0 1 0 1 0 1 0 1 0 1 0 
1 0 1 0 1 0 1 0 1 0 1 0 1 0 1 0 
1 0 1 0 1 0 1 0 1 0 1 0 1 0 1 0 
1 0 1 0 1 0 1 0 1 0 1 0 1 0 1 0 
1 0 1 0 1 0 1 0 1 0 1 0 1 0 1 0 
1 0 1 0 1 0 1 0 1 0 1 0 1 0 1 0 
1 0 1 0 1 0 1 0 1 0 1 0 1 0 1 0 
1 0 1 0 1 0 1 0 1 0 1 0 1 0 1 0 
1 0 1 0 1 0 1 0 1 0 1 0 1 0 1 0 
1 0 1 0 1 0 1 0 1 0 1 0 1 0 1 0 
1 0 1 0 1 0 1 0 1 0 1 0 1 0 1 0 
1 0 1 0 1 0 1 0 1 0 1 0 1 0 1 0 
1 0 1 0 1 0 1 0 1 0 1 0 1 0 1 0 
1 0 1 0 1 0 1 0 1 0 1 0 1 0 1 0 
1 0 1 0 1 0 1 0 1 0 1 0 1 0 1 0 
1 0 1 0 1 0 1 0 1 0 1 0 1 0 1 0 
1 0 1 0 1 0 1 0 1 0 1 0 1 0 1 0 
1 0 1 0 1 0 1 0 1 0 1 0 1 0 1 0 
1 0 1 0 1 0 1 0 1 0 1 0 1 0 1 0 
1 0 1 0 1 0 1 0 1 0 1 0 1 0 1 0 
1 0 1 0 1 0 1 0 1 0 1 0 1 0 1 0 
1 0 1 0 1 0 2052 388 300 MP stroke
1 0 1 0 1 0 1 0 1 0 1 0 1 0 1 0 
1 0 1 0 1 0 1 0 1 0 1 0 1 0 1 0 
1 0 1 0 1 0 1 0 1 0 1 0 1 0 1 0 
1 0 1 0 1 0 1 0 1 0 1 0 1 0 1 0 
1 0 1 0 1 0 1 0 1 0 1 0 1 0 1 0 
1 0 1 0 1 0 1 0 1 0 1 0 1 0 1 0 
1 0 1 0 1 0 1 0 1 0 1 0 1 0 1 0 
1 0 1 0 1 0 1 0 1 0 1 0 1 0 1 0 
1 0 1 0 1 0 1 0 1 0 1 0 1 0 1 0 
1 0 1 0 1 0 1 0 1 0 1 0 1 0 1 0 
1 0 1 0 1 0 1 0 1 0 1 0 1 0 1 0 
1 0 1 0 1 0 1 0 1 0 1 0 1 0 1 0 
1 0 1 0 1 0 1 0 1 0 1 0 1 0 1 0 
1 0 1 0 1 0 1 0 1 0 1 0 1 0 1 0 
1 0 1 0 1 0 1 0 1 0 1 0 1 0 1 0 
1 0 1 0 1 0 1 0 1 0 1 0 1 0 1 0 
1 0 1 0 1 0 1 0 1 0 1 0 1 0 1 0 
1 0 1 0 1 0 1 0 1 0 1 0 1 0 1 0 
1 0 1 0 1 0 1 0 1 0 1 0 1 0 1 0 
1 0 1 0 1 0 1 0 1 0 1 0 1 0 1 0 
1 0 1 0 1 0 1 0 1 0 1 0 1 0 1 0 
1 0 1 0 1 0 1 0 1 0 1 0 1 0 1 0 
1 0 1 0 1 0 1 0 1 0 1 0 1 0 1 0 
1 0 1 0 1 0 1 0 1 0 1 0 1 0 1 0 
1 0 1 0 1 0 1 0 1 0 1 0 1 0 1 0 
1 0 1 0 1 0 1 0 1 0 1 0 1 0 1 0 
1 0 1 0 1 0 1 0 1 0 1 0 1 0 1 0 
1 0 1 0 1 0 1 0 1 0 1 0 1 0 1 0 
1 0 1 0 1 0 1 0 1 0 1 0 1 0 1 0 
1 0 1 0 1 0 1 0 1 0 1 0 1 0 1 0 
1 0 1 0 1 0 1 0 1 0 1 0 1 0 1 0 
1 0 1 0 1 0 1 0 1 0 1 0 1 0 1 0 
1 0 1 0 1 0 1 0 1 0 1 0 1 0 1 0 
1 0 1 0 1 0 1 0 1 0 1 0 1 0 1 0 
1 0 1 0 1 0 1 0 1 0 1 0 1 0 1 0 
1 0 1 0 1 0 1 0 1 0 1 0 1 0 1 0 
1 0 1 0 1 0 1 0 1 0 1 0 1 0 1 0 
1 0 1 0 1 0 1753 388 300 MP stroke
1 0 1 0 1 0 1 0 1 0 1 0 1 0 1 0 
1 0 1 0 1 0 1 0 1 0 1 0 1 0 1 0 
1 0 1 0 1 0 1 0 1 0 1 0 1 0 1 0 
1 0 1 0 1 0 1 0 1 0 1 0 1 0 1 0 
1 0 1 0 1 0 1 0 1 0 1 0 1 0 1 0 
1 0 1 0 1 0 1 0 1 0 1 0 1 0 1 0 
1 0 1 0 1 0 1 0 1 0 1 0 1 0 1 0 
1 0 1 0 1 0 1 0 1 0 1 0 1 0 1 0 
1 0 1 0 1 0 1 0 1 0 1 0 1 0 1 0 
1 0 1 0 1 0 1 0 1 0 1 0 1 0 1 0 
1 0 1 0 1 0 1 0 1 0 1 0 1 0 1 0 
1 0 1 0 1 0 1 0 1 0 1 0 1 0 1 0 
1 0 1 0 1 0 1 0 1 0 1 0 1 0 1 0 
1 0 1 0 1 0 1 0 1 0 1 0 1 0 1 0 
1 0 1 0 1 0 1 0 1 0 1 0 1 0 1 0 
1 0 1 0 1 0 1 0 1 0 1 0 1 0 1 0 
1 0 1 0 1 0 1 0 1 0 1 0 1 0 1 0 
1 0 1 0 1 0 1 0 1 0 1 0 1 0 1 0 
1 0 1 0 1 0 1 0 1 0 1 0 1 0 1 0 
1 0 1 0 1 0 1 0 1 0 1 0 1 0 1 0 
1 0 1 0 1 0 1 0 1 0 1 0 1 0 1 0 
1 0 1 0 1 0 1 0 1 0 1 0 1 0 1 0 
1 0 1 0 1 0 1 0 1 0 1 0 1 0 1 0 
1 0 1 0 1 0 1 0 1 0 1 0 1 0 1 0 
1 0 1 0 1 0 1 0 1 0 1 0 1 0 1 0 
1 0 1 0 1 0 1 0 1 0 1 0 1 0 1 0 
1 0 1 0 1 0 1 0 1 0 1 0 1 0 1 0 
1 0 1 0 1 0 1 0 1 0 1 0 1 0 1 0 
1 0 1 0 1 0 1 0 1 0 1 0 1 0 1 0 
1 0 1 0 1 0 1 0 1 0 1 0 1 0 1 0 
1 0 1 0 1 0 1 0 1 0 1 0 1 0 1 0 
1 0 1 0 1 0 1 0 1 0 1 0 1 0 1 0 
1 0 1 0 1 0 1 0 1 0 1 0 1 0 1 0 
1 0 1 0 1 0 1 0 1 0 1 0 1 0 1 0 
1 0 1 0 1 0 1 0 1 0 1 0 1 0 1 0 
1 0 1 0 1 0 1 0 1 0 1 0 1 0 1 0 
1 0 1 0 1 0 1 0 1 0 1 0 1 0 1 0 
1 0 1 0 1 0 1454 388 300 MP stroke
1 0 1 0 1 0 1 0 1 0 1 0 1 0 1 0 
1 0 1 0 1 0 1 0 1 0 1 0 1 0 1 0 
1 0 1 0 1 0 1 0 1 0 1 0 1 0 1 0 
1 0 1 0 1 0 1 0 1 0 1 0 1 0 1 0 
1 0 1 0 1 0 1 0 1 0 1 0 1 0 1 0 
1 0 1 0 1 0 1 0 1 0 1 0 1 0 1 0 
1 0 1 0 1 0 1 0 1 0 1 0 1 0 1 0 
1 0 1 0 1 0 1 0 1 0 1 0 1 0 1 0 
1 0 1 0 1 0 1 0 1 0 1 0 1 0 1 0 
1 0 1 0 1 0 1 0 1 0 1 0 1 0 1 0 
1 0 1 0 1 0 1 0 1 0 1 0 1 0 1 0 
1 0 1 0 1 0 1 0 1 0 1 0 1 0 1 0 
1 0 1 0 1 0 1 0 1 0 1 0 1 0 1 0 
1 0 1 0 1 0 1 0 1 0 1 0 1 0 1 0 
1 0 1 0 1 0 1 0 1 0 1 0 1 0 1 0 
1 0 1 0 1 0 1 0 1 0 1 0 1 0 1 0 
1 0 1 0 1 0 1 0 1 0 1 0 1 0 1 0 
1 0 1 0 1 0 1 0 1 0 1 0 1 0 1 0 
1 0 1 0 1 0 1 0 1 0 1 0 1 0 1 0 
1 0 1 0 1 0 1 0 1 0 1 0 1 0 1 0 
1 0 1 0 1 0 1 0 1 0 1 0 1 0 1 0 
1 0 1 0 1 0 1 0 1 0 1 0 1 0 1 0 
1 0 1 0 1 0 1 0 1 0 1 0 1 0 1 0 
1 0 1 0 1 0 1 0 1 0 1 0 1 0 1 0 
1 0 1 0 1 0 1 0 1 0 1 0 1 0 1 0 
1 0 1 0 1 0 1 0 1 0 1 0 1 0 1 0 
1 0 1 0 1 0 1 0 1 0 1 0 1 0 1 0 
1 0 1 0 1 0 1 0 1 0 1 0 1 0 1 0 
1 0 1 0 1 0 1 0 1 0 1 0 1 0 1 0 
1 0 1 0 1 0 1 0 1 0 1 0 1 0 1 0 
1 0 1 0 1 0 1 0 1 0 1 0 1 0 1 0 
1 0 1 0 1 0 1 0 1 0 1 0 1 0 1 0 
1 0 1 0 1 0 1 0 1 0 1 0 1 0 1 0 
1 0 1 0 1 0 1 0 1 0 1 0 1 0 1 0 
1 0 1 0 1 0 1 0 1 0 1 0 1 0 1 0 
1 0 1 0 1 0 1 0 1 0 1 0 1 0 1 0 
1 0 1 0 1 0 1 0 1 0 1 0 1 0 1 0 
1 0 1 0 1 0 1155 388 300 MP stroke
1 0 1 0 1 0 1 0 1 0 1 0 1 0 1 0 
1 0 1 0 1 0 1 0 1 0 1 0 1 0 1 0 
1 0 1 0 1 0 1 0 1 0 1 0 1 0 1 0 
1 0 1 0 1 0 1 0 1 0 1 0 1 0 1 0 
1 0 1 0 1 0 1 0 1 0 1 0 1 0 1 0 
1 0 1 0 1 0 1 0 1 0 1 0 1 0 1 0 
1 0 1 0 1 0 1 0 1 0 1 0 1 0 1 0 
1 0 1 0 1 0 1 0 1 0 1 0 1 0 1 0 
1 0 1 0 1 0 1 0 1 0 1 0 1 0 1 0 
1 0 1 0 1 0 1 0 1 0 1 0 1 0 1 0 
1 0 1 0 1 0 1 0 1 0 1 0 1 0 1 0 
1 0 1 0 1 0 1 0 1 0 1 0 1 0 1 0 
1 0 1 0 1 0 1 0 1 0 1 0 1 0 1 0 
1 0 1 0 1 0 1 0 1 0 1 0 1 0 1 0 
1 0 1 0 1 0 1 0 1 0 1 0 1 0 1 0 
1 0 1 0 1 0 1 0 1 0 1 0 1 0 1 0 
1 0 1 0 1 0 1 0 1 0 1 0 1 0 1 0 
1 0 1 0 1 0 1 0 1 0 1 0 1 0 1 0 
1 0 1 0 1 0 1 0 1 0 1 0 1 0 1 0 
1 0 1 0 1 0 1 0 1 0 1 0 1 0 1 0 
1 0 1 0 1 0 1 0 1 0 1 0 1 0 1 0 
1 0 1 0 1 0 1 0 1 0 1 0 1 0 1 0 
1 0 1 0 1 0 1 0 1 0 1 0 1 0 1 0 
1 0 1 0 1 0 1 0 1 0 1 0 1 0 1 0 
1 0 1 0 1 0 1 0 1 0 1 0 1 0 1 0 
1 0 1 0 1 0 1 0 1 0 1 0 1 0 1 0 
1 0 1 0 1 0 1 0 1 0 1 0 1 0 1 0 
1 0 1 0 1 0 1 0 1 0 1 0 1 0 1 0 
1 0 1 0 1 0 1 0 1 0 1 0 1 0 1 0 
1 0 1 0 1 0 1 0 1 0 1 0 1 0 1 0 
1 0 1 0 1 0 1 0 1 0 1 0 1 0 1 0 
1 0 1 0 1 0 1 0 1 0 1 0 1 0 1 0 
1 0 1 0 1 0 1 0 1 0 1 0 1 0 1 0 
1 0 1 0 1 0 1 0 1 0 1 0 1 0 1 0 
1 0 1 0 1 0 1 0 1 0 1 0 1 0 1 0 
1 0 1 0 1 0 1 0 1 0 1 0 1 0 1 0 
1 0 1 0 1 0 1 0 1 0 1 0 1 0 1 0 
1 0 1 0 1 0 856 388 300 MP stroke
1 0 1 0 1 0 1 0 1 0 1 0 1 0 1 0 
1 0 1 0 1 0 1 0 1 0 1 0 1 0 1 0 
1 0 1 0 1 0 1 0 1 0 1 0 1 0 1 0 
1 0 1 0 1 0 1 0 1 0 1 0 1 0 1 0 
1 0 1 0 1 0 1 0 1 0 1 0 1 0 1 0 
1 0 1 0 1 0 1 0 1 0 1 0 1 0 1 0 
1 0 1 0 1 0 1 0 1 0 1 0 1 0 1 0 
1 0 1 0 1 0 1 0 1 0 1 0 1 0 1 0 
1 0 1 0 1 0 1 0 1 0 1 0 1 0 1 0 
1 0 1 0 1 0 1 0 1 0 1 0 1 0 1 0 
1 0 1 0 1 0 1 0 1 0 1 0 1 0 1 0 
1 0 1 0 1 0 1 0 1 0 1 0 1 0 1 0 
1 0 1 0 1 0 1 0 1 0 1 0 1 0 1 0 
1 0 1 0 1 0 1 0 1 0 1 0 1 0 1 0 
1 0 1 0 1 0 1 0 1 0 1 0 1 0 1 0 
1 0 1 0 1 0 1 0 1 0 1 0 1 0 1 0 
1 0 1 0 1 0 1 0 1 0 1 0 1 0 1 0 
1 0 1 0 1 0 1 0 1 0 1 0 1 0 1 0 
1 0 1 0 1 0 1 0 1 0 1 0 1 0 1 0 
1 0 1 0 1 0 1 0 1 0 699 388 158 MP stroke
SO
24 w
/c10 { 0.000000 0.570000 0.000000 sr} bdef
c10
1 0 1 0 1 0 1 0 1 0 1 0 1 0 1 0 
1 0 1 0 1 0 1 0 1 0 1 0 1 0 1 0 
1 0 1 0 1 0 1 0 1 0 1 0 1 0 1 0 
1 0 1 0 1 0 1 0 1 0 1 0 1 0 1 0 
1 0 1 0 1 0 1 0 1 0 1 0 1 0 1 0 
1 0 1 0 1 0 1 0 1 0 1 0 1 0 1 0 
1 0 1 0 1 0 1 0 1 0 1 0 1 0 1 0 
1 0 1 0 1 0 1 0 1 0 1 0 1 0 1 0 
1 0 1 0 1 0 1 0 1 0 1 0 1 0 1 0 
1 0 1 0 1 0 1 0 1 0 1 0 1 0 1 0 
1 0 1 0 1 0 1 0 1 0 1 0 1 0 1 0 
1 0 1 0 1 0 1 0 1 0 1 0 1 0 1 0 
1 0 1 0 1 0 1 0 1 0 1 0 1 0 1 0 
1 0 1 0 1 0 1 0 1 0 1 0 1 0 1 0 
1 0 1 0 1 0 1 0 1 0 1 0 1 0 1 0 
1 0 1 0 1 0 1 0 1 0 1 0 1 0 1 0 
1 0 1 0 1 0 1 0 1 0 1 0 1 0 1 0 
1 0 1 0 1 0 1 0 1 0 1 0 1 0 1 0 
1 0 1 0 1 0 1 0 1 0 1 0 1 0 1 0 
1 0 1 0 1 0 1 0 1 0 1 0 1 0 1 0 
1 0 1 0 1 0 1 0 1 0 1 0 1 0 1 0 
1 0 1 0 1 0 1 0 1 0 1 0 1 0 1 0 
1 0 1 0 1 0 1 0 1 0 1 0 1 0 1 0 
1 0 1 0 1 0 1 0 1 0 1 0 1 0 1 0 
1 0 1 0 1 0 1 0 1 0 1 0 1 0 1 0 
1 0 1 0 1 0 1 0 1 0 1 0 1 0 1 0 
1 0 1 0 1 0 1 0 1 0 1 0 1 0 1 0 
1 0 1 0 1 0 1 0 1 0 1 0 1 0 1 0 
1 0 1 0 1 0 1 0 1 0 1 0 1 0 1 0 
1 0 1 0 1 0 1 0 1 0 1 0 1 0 1 0 
1 0 1 0 1 0 1 0 1 0 1 0 1 0 1 0 
1 0 1 0 1 0 1 0 1 0 1 0 1 0 1 0 
1 0 1 0 1 0 1 0 1 0 1 0 1 0 1 0 
1 0 1 0 1 0 1 0 1 0 1 0 1 0 1 0 
1 0 1 0 1 0 1 0 1 0 1 0 1 0 1 0 
1 0 1 0 1 0 1 0 1 0 1 0 1 0 1 0 
1 0 1 0 1 0 1 0 1 0 1 0 1 0 1 1 
1 1 1 0 1 0 5341 2894 300 MP stroke
1 0 1 0 1 0 1 0 1 0 1 0 1 0 1 0 
1 0 1 0 1 0 1 0 1 0 1 0 1 0 1 0 
1 0 1 0 1 0 1 0 1 0 1 0 1 0 1 0 
1 0 1 0 1 0 1 0 1 0 1 0 1 0 1 0 
1 0 1 0 1 0 1 0 1 0 1 0 1 0 1 0 
1 0 1 0 1 0 1 0 1 0 1 0 1 0 1 0 
1 0 1 0 1 0 1 0 1 0 1 0 1 0 1 0 
1 0 1 0 1 0 1 0 1 0 1 0 1 0 1 0 
1 0 1 0 1 0 1 0 1 0 1 0 1 0 1 0 
1 0 1 0 1 0 1 0 1 0 1 0 1 0 1 0 
1 0 1 0 1 0 1 0 1 0 1 0 1 0 1 0 
1 0 1 0 1 0 1 0 1 0 1 0 1 0 1 0 
1 0 1 0 1 0 1 0 1 0 1 0 1 0 1 0 
1 0 1 0 1 0 1 0 1 0 1 0 1 0 1 0 
1 0 1 0 1 0 1 0 1 0 1 0 1 0 1 0 
1 0 1 0 1 0 1 0 1 0 1 0 1 0 1 0 
1 0 1 0 1 0 1 0 1 0 1 0 1 0 1 0 
1 0 1 0 1 0 1 0 1 0 1 0 1 0 1 0 
1 0 1 0 1 0 1 0 1 0 1 -1 1 0 1 0 
1 0 1 0 1 0 1 0 1 -1 1 0 1 0 1 0 
1 0 1 0 1 0 1 0 1 0 1 0 1 0 1 0 
1 0 1 0 1 0 1 0 1 0 1 0 1 0 1 0 
1 0 1 0 1 0 1 0 1 0 1 0 1 0 1 0 
1 0 1 0 1 0 1 0 1 0 1 0 1 0 1 0 
1 0 1 0 1 0 1 0 1 0 1 0 1 0 1 0 
1 0 1 0 1 0 1 0 1 0 1 0 1 1 1 0 
1 0 1 0 1 0 1 1 1 0 1 0 1 0 1 0 
1 1 1 0 1 0 1 0 1 0 1 1 1 0 1 0 
1 0 1 0 1 0 1 0 1 0 1 0 1 0 1 0 
1 0 1 -1 1 0 1 0 1 0 1 0 1 -1 1 0 
1 0 1 0 1 0 1 -1 1 0 1 0 1 0 1 0 
1 0 1 -1 1 0 1 0 1 0 1 0 1 1 1 0 
1 0 1 0 1 0 1 0 1 0 1 0 1 0 1 0 
1 0 1 0 1 0 1 0 1 0 1 0 1 0 1 0 
1 0 1 0 1 0 1 0 1 0 1 0 1 0 1 0 
1 0 1 0 1 0 1 0 1 0 1 0 1 0 1 0 
1 0 1 0 1 0 1 0 1 0 1 0 1 0 1 0 
1 0 1 0 1 0 5042 2895 300 MP stroke
1 0 1 0 1 0 1 0 1 0 1 0 1 0 1 0 
1 0 1 0 1 0 1 0 1 0 1 0 1 0 1 0 
1 0 1 0 1 0 1 0 1 0 1 0 1 0 1 0 
1 0 1 0 1 0 1 0 1 0 1 0 1 0 1 0 
1 0 1 0 1 0 1 0 1 0 1 0 1 0 1 0 
1 0 1 0 1 0 1 0 1 0 1 0 1 0 1 0 
1 0 1 0 1 0 1 0 1 0 1 0 1 0 1 0 
1 0 1 0 1 0 1 0 1 0 1 0 1 0 1 0 
1 0 1 0 1 0 1 0 1 0 1 0 1 0 1 0 
1 0 1 0 1 0 1 0 1 1 1 0 1 0 1 0 
1 0 1 0 1 1 1 0 1 0 1 -1 1 0 1 0 
1 0 1 -1 1 0 1 0 1 0 1 -1 1 0 1 0 
1 0 1 0 1 0 1 0 1 0 1 1 1 0 1 0 
1 1 1 0 1 0 1 0 1 0 1 0 1 0 1 -1 
1 0 1 0 1 -1 1 0 1 1 1 0 1 0 1 0 
1 0 1 0 1 0 1 0 1 0 1 0 1 0 1 0 
1 0 1 -1 1 0 1 0 1 0 1 0 1 0 1 0 
1 0 -1 0 2 0 1 1 1 0 1 0 1 0 1 0 
1 0 1 0 1 0 1 0 1 0 1 -1 1 0 1 0 
1 0 1 0 1 0 1 1 1 0 1 0 1 0 1 0 
1 0 1 0 1 0 1 0 1 -1 1 1 1 0 1 0 
1 0 1 0 1 0 1 0 1 0 1 0 1 0 1 0 
1 0 1 0 1 0 1 0 1 0 1 0 1 0 1 0 
1 0 1 0 1 0 1 -1 1 0 1 0 1 0 1 1 
1 0 1 0 1 1 1 0 1 0 1 -1 1 0 1 0 
1 0 1 0 1 0 1 0 1 0 1 0 1 0 1 -1 
1 0 -1 0 2 0 1 0 1 1 1 0 1 0 1 0 
1 0 1 1 1 0 1 0 1 0 1 0 1 -1 1 0 
1 0 1 0 1 0 1 0 1 0 1 0 1 0 1 0 
1 0 1 0 1 0 1 0 1 0 1 0 1 1 1 0 
1 0 1 0 1 0 1 0 1 0 1 0 1 0 1 -1 
1 0 1 0 1 0 1 0 1 0 1 0 1 0 1 0 
1 0 0 0 2 0 1 1 1 0 1 0 1 0 1 0 
1 0 1 0 1 0 1 0 1 0 1 0 -1 0 2 0 
1 0 1 0 1 0 1 0 1 0 1 0 1 1 1 0 
1 0 1 0 1 0 1 0 1 0 1 0 1 1 0 -1 
0 1 1 -1 1 0 1 0 1 0 1 0 1 0 1 0 
1 0 1 -1 1 0 4748 2894 300 MP stroke
1 0 1 0 1 0 1 0 1 0 1 0 -1 0 2 0 
1 0 1 0 1 0 1 0 1 0 1 0 1 0 1 0 
1 0 1 0 1 0 1 0 1 0 1 0 1 0 1 0 
1 0 1 1 1 0 1 0 1 1 1 0 1 1 1 0 
1 0 1 0 1 0 1 0 1 0 1 -1 1 0 1 -1 
1 0 1 -1 1 0 1 0 -1 0 2 0 1 0 1 0 
1 0 1 1 1 0 1 0 1 0 1 0 1 0 1 0 
1 -1 1 0 1 0 1 0 1 0 1 0 1 0 1 -1 
1 0 1 0 1 0 1 0 1 0 1 -1 1 0 1 0 
1 0 1 0 1 -1 1 0 1 0 1 0 1 0 1 0 
1 0 1 0 1 0 1 0 1 0 1 0 1 0 1 0 
1 0 1 0 1 0 1 0 1 0 1 0 1 0 1 0 
1 0 1 0 1 0 1 0 1 0 1 0 1 0 1 0 
1 0 1 0 1 0 1 0 1 0 1 0 1 0 1 0 
1 0 1 0 1 0 1 0 1 0 1 0 1 0 1 0 
1 0 1 0 1 0 1 0 1 0 1 0 1 0 1 0 
1 0 1 0 1 0 1 0 1 0 1 0 1 0 1 0 
1 0 1 0 1 0 1 0 1 0 1 0 1 0 1 0 
1 0 1 0 1 0 1 0 1 0 1 0 1 0 1 0 
1 0 1 0 1 0 1 0 1 0 1 0 1 0 1 0 
1 0 1 0 1 1 1 0 1 0 1 0 1 0 1 0 
1 1 1 0 1 0 1 0 1 0 1 1 1 0 1 0 
1 0 1 0 1 1 1 0 1 0 1 0 1 0 1 1 
1 0 1 0 1 0 1 0 1 0 1 1 1 0 1 0 
1 0 1 0 1 0 1 1 1 0 1 0 1 0 1 0 
1 0 1 0 1 0 1 0 1 0 1 -1 1 0 1 0 
1 0 1 0 1 0 1 -1 1 0 1 0 1 0 1 -1 
1 0 1 -1 1 0 1 -1 1 0 1 -1 1 0 1 -1 
1 0 1 0 1 0 1 0 1 0 1 0 1 0 1 0 
1 0 1 0 1 0 1 0 1 0 1 0 1 0 1 0 
1 0 1 0 1 0 0 3 1 1 0 6 1 1 0 6 
1 1 0 6 1 1 0 7 1 1 0 6 1 1 0 7 
1 1 0 7 1 1 0 6 1 1 0 7 1 1 0 7 
1 1 0 7 1 1 0 6 1 1 0 6 1 1 0 6 
1 1 0 6 1 1 0 6 1 1 0 6 1 1 0 5 
1 1 0 5 1 1 0 5 1 1 0 4 1 1 0 4 
1 1 0 4 1 1 0 4 1 1 0 3 1 1 0 3 
1 1 0 2 1 1 4479 2719 300 MP stroke
0 2 1 1 0 2 1 1 0 2 2 2 0 2 2 2 
1 1 1 1 1 1 1 0 1 1 1 0 1 0 1 0 
1 0 1 1 1 0 1 0 1 0 1 0 1 0 1 1 
1 0 1 1 1 0 1 1 1 1 1 1 1 1 0 1 
2 2 1 1 0 2 2 2 0 2 2 2 0 3 2 2 
0 2 1 1 0 1 1 1 0 3 2 2 0 3 2 2 
0 2 1 1 0 2 1 1 0 2 2 2 0 2 1 1 
0 2 2 2 0 1 2 2 1 1 1 1 1 0 1 1 
1 0 1 -1 1 -1 1 -1 1 -1 0 -2 2 -2 0 -2 
1 -1 0 -2 1 -1 0 -3 1 -1 0 -3 1 -1 0 -3 
1 -1 0 -3 1 -1 0 -4 1 -1 0 -5 1 -1 0 -4 
1 -1 0 -5 1 -1 0 -5 1 -1 0 -5 1 -1 0 -6 
1 -1 0 -6 1 -1 0 -6 1 -1 0 -6 1 -1 0 -6 
1 -1 0 -6 1 -1 0 -6 1 -1 0 -6 1 -1 0 -5 
1 -1 0 -6 1 -1 0 -5 1 -1 0 -5 1 -1 0 -5 
1 -1 0 -3 1 -1 0 -4 1 -1 0 -2 1 -1 0 -2 
1 -1 1 -1 1 -1 1 0 1 -1 1 0 1 0 1 -1 
1 -1 1 0 1 -1 1 -1 1 -1 1 -1 1 -1 1 -1 
1 -1 1 -1 0 -1 2 -2 1 -1 0 -1 2 -2 1 -1 
1 -1 1 -1 1 0 1 0 1 0 1 1 0 1 2 2 
0 1 2 2 0 1 2 2 0 1 2 2 1 1 1 1 
1 0 1 1 1 0 1 1 1 0 1 0 1 0 1 -1 
1 0 1 -1 1 0 1 -1 1 0 1 -1 1 -1 1 -1 
1 0 1 -1 1 -1 1 0 1 -1 1 0 1 -1 1 0 
1 0 1 0 1 0 1 0 1 0 1 0 1 0 1 1 
1 1 1 0 0 1 2 2 1 1 1 1 0 2 2 2 
0 2 2 2 0 2 1 1 0 1 1 1 0 2 1 1 
0 2 1 1 0 2 1 1 0 2 1 1 0 3 1 1 
0 2 1 1 0 2 1 1 0 2 1 1 0 3 1 1 
0 2 1 1 0 2 1 1 0 2 1 1 0 2 1 1 
0 2 1 1 0 3 2 2 0 2 1 1 0 1 1 1 
0 2 2 2 0 1 2 2 0 1 2 2 1 1 1 1 
1 1 1 0 1 1 1 1 1 1 1 0 1 1 1 1 
1 0 1 1 1 1 1 1 1 1 1 1 1 1 1 1 
1 1 1 1 0 1 2 2 1 1 0 2 2 2 1 1 
0 2 2 2 0 2 2 2 0 2 2 2 0 3 2 2 
0 2 1 1 0 1 1 1 0 2 1 1 0 1 1 1 
0 2 1 1 0 2 4240 2679 300 MP stroke
1 1 0 1 1 1 0 2 1 1 0 2 1 1 0 3 
2 2 0 2 1 1 0 2 1 1 0 3 2 2 0 3 
2 2 0 2 1 1 0 2 2 2 0 2 2 2 0 2 
2 2 1 1 1 1 1 1 1 1 1 1 1 0 1 0 
1 0 1 0 1 0 1 -1 1 -1 0 -1 2 -2 0 -1 
2 -2 0 -2 2 -2 0 -2 1 -1 0 -1 1 -1 0 -2 
1 -1 0 -1 1 -1 0 -2 1 -1 0 -2 1 -1 0 -2 
1 -1 0 -2 1 -1 0 -2 1 -1 0 -1 1 -1 0 -2 
1 -1 0 -2 1 -1 0 -2 1 -1 0 -2 1 -1 0 -2 
2 -2 0 -2 2 -2 0 -2 2 -2 1 -1 1 -1 1 -1 
1 -1 1 -1 1 0 1 0 1 0 1 1 1 0 -1 0 
2 2 0 1 2 2 0 2 2 2 0 2 1 1 0 2 
1 1 0 3 1 1 0 3 1 1 0 3 1 1 0 3 
1 1 0 4 1 1 0 4 1 1 0 5 1 1 0 4 
1 1 0 5 1 1 0 5 1 1 0 5 1 1 0 6 
1 1 0 5 1 1 0 5 1 1 0 5 1 1 0 5 
1 1 0 5 1 1 0 4 1 1 0 4 1 1 0 4 
1 1 0 3 1 1 0 3 1 1 0 2 1 1 0 2 
2 2 1 1 1 0 1 -1 0 -1 2 -2 0 -2 1 -1 
0 -3 1 -1 0 -4 1 -1 0 -4 1 -1 0 -5 1 -1 
0 -6 1 -1 0 -7 1 -1 0 -8 1 -1 0 -8 1 -1 
0 -9 1 -1 0 -10 1 -1 0 -10 1 -1 0 -11 1 -1 
0 -12 1 -1 0 -12 1 -1 0 -13 1 -1 0 -12 1 -1 
0 -14 1 -1 0 -13 1 -1 0 -13 1 -1 0 -15 1 -1 
0 -13 1 -1 0 -15 1 -1 0 -13 1 -1 0 -14 1 -1 
0 -13 1 -1 0 -12 1 -1 0 -13 1 -1 0 -10 1 -1 
0 -3 1 -1 1 0 1 0 1 0 1 0 1 0 1 0 
1 -1 1 0 1 0 1 0 1 0 1 -1 1 0 1 0 
1 0 1 -1 1 0 1 0 1 -1 1 0 1 -1 1 0 
1 0 1 -1 1 0 1 0 1 -1 1 0 1 0 1 -1 
1 0 1 0 1 0 1 0 1 0 1 0 1 0 1 0 
1 0 1 0 1 0 1 0 1 0 1 0 1 0 1 0 
1 0 1 0 1 0 1 0 1 0 1 0 1 0 1 0 
1 0 1 0 1 0 1 0 1 0 1 0 1 0 1 0 
1 0 1 0 1 0 1 0 1 0 1 0 1 0 1 0 
1 0 1 0 1 0 1 0 1 0 1 0 1 0 1 0 
1 0 1 0 1 0 1 0 1 0 1 0 1 0 1 0 
1 0 1 0 1 0 4017 2897 300 MP stroke
1 0 1 0 1 0 1 0 1 0 1 0 1 0 1 0 
1 0 1 0 1 0 1 0 1 0 1 0 1 0 1 0 
1 0 1 0 1 0 1 0 1 0 1 0 1 0 1 0 
1 0 1 0 1 0 1 0 1 0 1 0 1 0 1 0 
1 0 1 0 1 0 1 0 1 0 1 0 1 0 1 0 
1 0 1 0 1 0 1 0 1 0 1 0 1 0 1 0 
1 0 1 0 1 0 1 0 1 0 1 0 1 0 1 0 
1 0 1 0 1 0 1 0 1 0 1 0 1 0 1 0 
1 0 1 0 1 0 1 0 1 0 1 0 1 0 1 0 
1 0 1 0 1 0 1 0 1 0 1 0 1 0 1 0 
1 0 1 0 1 0 1 0 1 0 1 0 1 0 1 0 
1 0 1 0 1 0 1 0 1 0 1 0 1 0 1 0 
1 0 1 0 1 0 1 0 1 0 1 0 1 0 1 0 
1 0 1 0 1 0 1 0 1 0 1 0 1 0 1 0 
1 0 1 0 1 0 1 0 1 0 1 0 1 0 0 4 
1 1 0 10 1 1 0 14 1 1 0 18 1 2 0 22 
1 1 0 22 1 2 0 25 1 2 0 25 1 2 0 27 
1 2 0 30 1 3 0 30 1 2 0 33 1 2 0 32 
1 2 0 35 1 2 0 33 1 3 0 33 1 2 0 36 
1 2 0 34 1 2 0 36 1 2 0 34 1 2 0 35 
1 3 0 32 1 3 0 34 1 2 0 32 1 2 0 32 
1 2 0 33 1 2 0 30 1 2 0 31 1 2 0 29 
1 2 0 28 1 2 0 29 1 1 0 27 1 1 0 28 
1 1 0 25 1 2 0 25 1 1 0 23 1 2 0 23 
1 2 0 21 1 1 0 21 1 1 0 21 1 2 0 18 
1 2 0 19 1 1 0 18 1 1 0 18 1 1 0 16 
1 1 0 17 1 1 0 15 1 1 0 14 1 1 0 15 
1 1 0 13 1 1 0 13 1 1 0 12 1 1 0 12 
1 1 0 10 1 1 0 10 1 1 0 10 1 1 0 9 
1 1 0 8 1 1 0 7 1 1 0 7 1 1 0 5 
1 1 0 5 1 1 0 4 1 1 0 3 1 1 0 3 
1 1 0 1 1 1 1 1 1 1 1 0 1 -1 1 -1 
0 -2 1 -1 0 -2 1 -1 0 -3 1 -1 0 -3 1 -1 
0 -4 1 -1 0 -4 1 -1 0 -5 1 -1 0 -6 1 -1 
0 -6 1 -1 0 -6 1 -1 0 -6 1 -1 0 -6 1 -1 
0 -7 1 -1 0 -6 1 -1 0 -7 1 -1 0 -6 1 -1 
0 -6 1 -1 0 -6 1 -1 0 -5 1 -1 0 -6 1 -1 
0 -5 1 -1 0 -4 3806 1554 300 MP stroke
1 -1 0 -4 1 -1 0 -4 1 -1 0 -3 1 -1 0 -3 
1 -1 0 -3 1 -1 0 -2 1 -1 0 -1 1 -1 0 -2 
1 -1 0 -2 2 -2 0 -2 2 -2 0 -3 2 -2 0 -2 
1 -1 0 -3 1 -1 0 -3 1 -1 0 -4 1 -1 0 -5 
1 -1 0 -6 1 -1 0 -7 1 -1 0 -8 1 -1 0 -11 
1 -1 0 -11 1 -1 0 -14 1 -1 0 -14 1 -1 0 -18 
1 -1 0 -18 1 -1 0 -20 1 -1 0 -23 1 -1 0 -23 
1 -2 0 -26 1 -2 0 -27 1 -1 0 -28 1 -2 0 -32 
1 -2 0 -30 1 -3 0 -34 1 -2 0 -33 1 -2 0 -37 
1 -2 0 -35 1 -2 0 -36 1 -2 0 -38 1 -3 0 -36 
1 -3 0 -38 1 -3 0 -36 1 -3 0 -38 1 -3 0 -36 
1 -2 0 -38 1 -2 0 -35 1 -2 0 -34 1 -2 0 -35 
1 -2 0 -32 1 -2 0 -33 1 -2 0 -29 1 -2 0 -29 
1 -2 0 -26 1 -2 0 -24 1 -2 0 -24 1 -2 0 -21 
1 -2 0 -21 1 -1 0 -18 1 -1 0 -17 1 -1 0 -16 
1 -1 0 -13 1 -1 0 -12 1 -1 0 -9 1 -1 0 -8 
1 -1 0 -6 1 -1 1 -1 1 0 1 0 1 0 1 0 
1 0 1 0 1 0 1 0 0 3 1 1 0 5 1 1 
0 5 1 1 0 6 1 1 0 6 1 1 0 6 1 1 
0 6 1 1 0 7 1 1 0 6 1 1 0 6 1 1 
0 6 1 1 0 5 1 1 0 5 1 1 0 4 1 1 
0 3 1 1 0 3 1 1 0 2 2 2 1 0 1 -1 
0 -2 1 -1 0 -3 1 -1 0 -5 1 -1 0 -7 1 -1 
0 -8 1 -1 0 -10 1 -1 0 -13 1 -1 0 -14 1 -1 
0 -17 1 -1 0 -12 1 -1 1 0 1 0 1 0 0 5 
1 1 0 6 1 1 0 7 1 1 0 12 1 2 0 31 
1 3 0 34 1 2 0 37 1 2 0 41 1 3 0 39 
1 3 0 44 1 3 0 42 1 3 0 45 1 3 0 44 
1 3 0 43 1 4 0 47 1 3 0 43 1 4 0 46 
1 3 0 43 1 3 0 43 1 3 0 44 1 3 0 40 
1 3 0 41 1 3 0 38 1 2 0 38 1 3 0 34 
1 2 0 34 1 2 0 30 1 2 0 27 1 2 0 27 
1 2 0 23 1 2 0 22 1 1 0 19 1 1 0 17 
1 1 0 14 1 1 0 12 1 1 0 10 1 1 0 7 
1 1 0 5 1 1 0 3 1 1 0 2 1 1 1 0 
1 -1 0 -2 1 -1 0 -3 1 -1 0 -5 1 -1 0 -6 
1 -1 0 -8 1 -1 0 -9 1 -1 0 -10 1 -1 0 -11 
1 -1 0 -13 1 -1 3644 1749 300 MP stroke
0 -14 1 -1 0 -14 1 -1 0 -16 1 -1 0 -16 1 -1 
0 -17 1 -1 0 -19 1 -1 0 -18 1 -2 0 -20 1 -1 
0 -19 1 -2 0 -21 1 -1 0 -21 1 -1 0 -22 1 -2 
0 -21 1 -1 0 -21 1 -2 0 -23 1 -1 0 -22 1 -1 
0 -23 1 -2 0 -21 1 -1 0 -23 1 -2 0 -21 1 -1 
0 -22 1 -2 0 -20 1 -2 0 -20 1 -1 0 -21 1 -1 
0 -19 1 -1 0 -20 1 -1 0 -17 1 -1 0 -18 1 -1 
0 -16 1 -1 0 -15 1 -1 0 -16 1 -1 0 -13 1 -1 
0 -13 1 -1 0 -11 1 -1 0 -10 1 -1 0 -10 1 -1 
0 -8 1 -1 0 -7 1 -1 0 -7 1 -1 0 -6 1 -1 
0 -5 1 -1 0 -4 1 -1 0 -4 1 -1 0 -3 1 -1 
0 -3 1 -1 0 -2 1 -1 0 -2 1 -1 0 -1 1 -1 
1 -1 1 -1 1 0 1 0 1 1 1 1 0 1 2 2 
0 2 2 2 0 2 1 1 0 1 1 1 0 3 2 2 
0 2 1 1 0 2 1 1 0 2 2 2 0 2 2 2 
1 1 1 1 1 1 1 1 1 0 1 -1 1 -1 1 -1 
0 -1 2 -2 1 -1 0 -3 2 -2 0 -2 1 -1 0 -2 
1 -1 0 -2 1 -1 0 -2 1 -1 0 -2 1 -1 0 -3 
1 -1 0 -2 1 -1 0 -3 1 -1 0 -3 1 -1 0 -3 
1 -1 0 -2 1 -1 0 -3 1 -1 0 -3 1 -1 0 -3 
1 -1 0 -2 1 -1 0 -3 1 -1 0 -2 1 -1 0 -3 
1 -1 0 -2 1 -1 0 -3 1 -1 0 -2 1 -1 0 -2 
1 -1 0 -2 1 -1 0 -2 1 -1 0 -1 1 -1 0 -3 
2 -2 0 -2 2 -2 0 -1 2 -2 1 -1 1 -1 1 -1 
1 0 1 0 1 0 1 0 1 1 1 1 1 1 0 1 
2 2 0 1 2 2 0 2 2 2 0 2 2 2 0 2 
2 2 0 2 2 2 0 2 2 2 0 1 2 2 1 1 
1 0 1 1 1 -1 1 0 1 -1 1 -1 0 -2 2 -2 
0 -2 1 -1 0 -3 1 -1 0 -2 1 -1 0 -4 1 -1 
0 -4 1 -1 0 -4 1 -1 0 -5 1 -1 0 -5 1 -1 
0 -7 1 -1 0 -6 1 -1 0 -7 1 -1 0 -7 1 -1 
0 -7 1 -1 0 -8 1 -1 0 -8 1 -1 0 -9 1 -1 
0 -9 1 -1 0 -9 1 -1 0 -9 1 -1 0 -9 1 -1 
0 -9 1 -1 0 -9 1 -1 0 -10 1 -1 0 -9 1 -1 
0 -9 1 -1 0 -9 1 -1 0 -8 1 -1 0 -9 1 -1 
0 -8 1 -1 0 -8 1 -1 0 -8 1 -1 0 -7 1 -1 
0 -7 1 -1 0 -7 1 -1 0 -6 1 -1 0 -5 1 -1 
0 -5 1 -1 0 -5 3460 2858 300 MP stroke
1 -1 0 -5 1 -1 0 -3 1 -1 0 -4 1 -1 0 -3 
1 -1 0 -3 1 -1 0 -2 1 -1 0 -2 1 -1 0 -2 
1 -1 0 -3 2 -2 1 -1 1 0 1 0 1 0 1 0 
1 0 1 0 1 0 1 0 1 0 1 0 1 0 1 0 
1 0 1 0 1 0 1 0 1 0 1 0 1 0 1 0 
1 0 1 0 1 0 1 0 1 0 1 0 1 0 1 0 
1 0 1 0 1 0 1 0 1 0 1 0 1 0 1 0 
1 0 1 0 1 0 1 0 1 0 1 0 1 0 1 0 
1 0 1 0 1 0 1 0 1 0 1 0 1 0 1 0 
1 0 1 0 1 0 1 0 1 0 1 0 1 0 1 0 
1 0 1 0 1 0 1 0 1 0 1 0 1 0 1 0 
1 0 1 0 1 0 1 0 1 0 1 0 1 0 1 0 
1 0 1 0 1 0 1 0 1 0 1 0 1 0 1 0 
1 0 1 0 1 0 1 0 1 0 1 0 1 0 1 0 
1 0 1 0 1 0 1 0 1 0 1 0 1 0 1 0 
1 0 1 0 1 0 1 0 1 0 1 0 1 0 1 0 
1 0 1 0 1 0 1 0 1 0 1 0 1 0 1 0 
1 0 1 0 1 0 1 0 1 0 1 0 1 0 1 1 
1 0 1 0 1 0 1 1 1 0 1 0 1 0 1 1 
1 0 1 0 1 0 1 0 1 0 1 1 1 0 1 0 
1 0 1 0 1 0 1 0 1 0 1 0 1 0 1 0 
1 1 1 0 1 0 1 0 1 0 1 0 1 0 1 0 
1 0 1 0 1 0 1 -1 1 0 1 0 1 0 1 -1 
1 0 1 0 1 -1 1 0 1 -1 1 0 1 -1 1 0 
1 0 1 0 1 0 1 0 1 0 1 0 1 0 1 0 
1 0 1 0 1 0 1 0 1 0 1 0 1 0 1 0 
1 0 1 0 1 0 1 0 1 0 1 0 1 0 1 0 
1 0 1 0 1 0 1 0 1 0 1 0 1 0 1 0 
1 0 1 0 1 0 1 0 1 0 1 0 1 0 1 0 
1 0 1 0 1 0 1 0 1 0 1 0 1 0 1 0 
1 0 1 0 1 0 1 0 1 0 1 0 1 0 0 5 
1 1 0 6 1 1 0 6 1 1 0 6 1 1 0 6 
1 1 0 7 1 1 0 7 1 1 0 7 1 1 0 6 
1 1 0 8 1 1 0 6 1 1 0 7 1 1 0 7 
1 1 0 6 1 1 0 7 1 1 0 6 1 1 0 6 
1 1 0 7 1 1 0 5 1 1 0 6 1 1 0 5 
1 1 0 6 1 1 0 4 1 1 0 5 1 1 0 4 
1 1 0 4 1 1 3195 2716 300 MP stroke
0 4 1 1 0 3 1 1 0 4 1 1 0 2 1 1 
0 3 1 1 0 2 1 1 0 2 1 1 0 2 1 1 
0 2 2 2 0 2 2 2 1 1 1 1 1 1 1 1 
1 1 1 0 1 1 1 0 1 0 1 0 1 1 1 0 
1 0 1 0 1 0 1 0 1 1 1 0 1 0 1 1 
1 0 1 1 1 1 1 0 1 1 1 1 1 1 1 1 
1 0 1 1 1 1 0 1 2 2 1 1 1 1 1 1 
1 1 1 1 1 1 1 1 1 0 1 1 1 1 1 1 
1 0 1 1 1 0 1 1 1 0 1 1 1 0 1 0 
1 0 1 1 1 0 1 0 1 0 1 1 1 0 1 0 
1 0 1 1 1 0 1 1 1 0 1 1 1 0 1 1 
1 1 1 1 1 1 1 1 0 1 2 2 1 1 0 1 
2 2 0 1 2 2 0 1 2 2 0 1 2 2 0 1 
2 2 1 1 0 1 2 2 1 1 1 1 1 1 1 0 
1 1 1 0 1 0 1 0 1 0 1 0 1 -1 0 -1 
2 -2 0 -1 2 -2 0 -2 1 -1 0 -1 1 -1 0 -2 
1 -1 0 -3 1 -1 0 -3 1 -1 0 -3 1 -1 0 -3 
1 -1 0 -4 1 -1 0 -4 1 -1 0 -5 1 -1 0 -5 
1 -1 0 -5 1 -1 0 -6 1 -1 0 -5 1 -1 0 -7 
1 -1 0 -6 1 -1 0 -6 1 -1 0 -8 1 -1 0 -6 
1 -1 0 -8 1 -1 0 -7 1 -1 0 -8 1 -1 0 -7 
1 -1 0 -8 1 -1 0 -8 1 -1 0 -7 1 -1 0 -8 
1 -1 0 -7 1 -1 0 -8 1 -1 0 -7 1 -1 0 -8 
1 -1 0 -7 1 -1 0 -7 1 -1 0 -7 1 -1 0 -6 
1 -1 0 -7 1 -1 0 -5 1 -1 0 -6 1 -1 0 -5 
1 -1 0 -5 1 -1 0 -5 1 -1 0 -4 1 -1 1 -1 
1 0 1 0 1 0 1 0 1 0 1 0 1 0 1 0 
1 0 1 0 1 0 1 0 1 0 1 0 1 0 1 0 
1 0 1 0 1 0 1 0 1 0 1 0 1 0 1 0 
1 0 1 0 1 0 1 0 1 0 1 0 1 0 1 0 
1 0 1 0 1 0 1 0 1 0 1 0 1 0 1 0 
1 0 1 0 1 0 1 0 1 0 1 0 1 0 1 0 
1 0 1 0 1 0 1 0 1 0 1 0 1 0 1 0 
1 0 1 0 1 0 1 0 1 0 1 0 1 0 1 0 
1 0 0 0 2 2 0 3 1 1 0 3 1 1 0 2 
1 1 0 3 1 1 0 3 1 1 0 3 1 1 0 3 
1 1 0 2 1 1 0 3 1 1 0 3 1 1 0 3 
1 1 0 3 1 1 2958 2849 300 MP stroke
0 3 1 1 0 3 1 1 0 3 1 1 0 4 1 1 
0 3 1 1 0 4 1 1 0 4 1 1 0 4 1 1 
0 4 1 1 0 4 1 1 0 5 1 1 0 5 1 1 
0 4 1 1 0 5 1 1 0 5 1 1 0 6 1 1 
0 5 1 1 0 6 1 1 0 5 1 1 0 5 1 1 
0 6 1 1 0 6 1 1 0 6 1 1 0 5 1 1 
0 6 1 1 0 5 1 1 0 6 1 1 0 5 1 1 
0 4 1 1 0 5 1 1 0 5 1 1 0 4 1 1 
0 4 1 1 0 4 1 1 0 3 1 1 0 3 1 1 
0 3 1 1 0 2 1 1 0 2 1 1 0 2 2 2 
1 1 1 1 1 1 1 0 1 0 1 -1 1 -1 1 -1 
0 -1 2 -2 0 -2 1 -1 0 -1 1 -1 0 -2 1 -1 
0 -2 1 -1 0 -2 1 -1 0 -2 1 -1 0 -2 1 -1 
0 -2 1 -1 0 -2 1 -1 0 -3 1 -1 0 -2 1 -1 
0 -2 1 -1 0 -2 1 -1 0 -2 1 -1 0 -1 1 -1 
0 -2 1 -1 0 -2 2 -2 0 -1 2 -2 1 0 1 -1 
1 0 1 0 1 0 0 1 2 2 0 1 2 2 0 2 
1 1 0 2 1 1 0 2 1 1 0 3 1 1 0 3 
1 1 0 4 1 1 0 4 1 1 0 4 1 1 0 5 
1 1 0 5 1 1 0 6 1 1 0 5 1 1 0 6 
1 1 0 7 1 1 0 6 1 1 0 6 1 1 0 7 
1 1 0 6 1 1 0 7 1 1 0 6 1 1 0 6 
1 1 0 6 1 1 0 5 1 1 0 6 1 1 0 5 
1 1 0 4 1 1 0 4 1 1 0 4 1 1 0 3 
1 1 0 2 1 1 0 2 2 2 1 1 1 0 1 -1 
1 -1 0 -2 1 -1 0 -2 1 -1 0 -3 1 -1 0 -4 
1 -1 0 -4 1 -1 0 -5 1 -1 0 -6 1 -1 0 -7 
1 -1 0 -7 1 -1 0 -8 1 -1 0 -9 1 -1 0 -9 
1 -1 0 -10 1 -1 0 -10 1 -1 0 -10 1 -1 0 -11 
1 -1 0 -11 1 -1 0 -12 1 -1 0 -12 1 -1 0 -12 
1 -1 0 -12 1 -1 0 -12 1 -1 0 -13 1 -1 0 -13 
1 -1 0 -13 1 -1 0 -12 1 -1 0 -13 1 -1 0 -12 
1 -1 0 -13 1 -1 0 -11 1 -1 0 -11 1 -1 0 -11 
1 -1 0 -10 1 -1 0 -9 1 -1 0 -7 1 -1 0 -4 
2 -2 0 -1 2 -2 1 -1 1 -1 1 -1 1 -1 1 -1 
1 -1 1 -1 1 -1 1 -1 1 -1 1 0 1 -1 1 0 
1 -1 1 0 1 -1 1 0 1 -1 1 0 1 0 1 0 
1 0 1 0 1 0 2779 2897 300 MP stroke
1 0 1 0 1 0 1 0 1 0 1 0 1 0 1 0 
1 0 1 0 1 0 1 0 1 0 1 0 1 0 1 0 
1 0 1 0 1 0 1 0 1 0 1 0 1 0 1 0 
1 0 1 0 1 0 1 0 1 0 1 0 1 0 1 0 
1 0 1 0 1 0 1 0 1 0 1 0 1 0 1 0 
1 0 1 0 1 0 1 0 1 0 1 0 1 0 1 0 
1 0 1 0 1 0 1 0 1 0 1 0 1 0 1 0 
1 0 1 0 1 0 1 0 1 0 1 0 1 0 1 0 
1 0 1 0 1 0 1 0 1 0 1 0 1 0 1 0 
1 0 1 0 1 0 1 0 1 0 1 0 1 0 1 0 
1 0 1 0 1 0 1 0 1 0 1 0 1 0 1 0 
1 0 1 0 1 0 1 0 1 0 1 0 1 0 1 0 
1 0 1 0 1 0 1 0 1 0 1 0 1 0 1 0 
1 0 1 0 1 0 1 0 1 0 1 0 1 0 1 0 
1 0 1 0 1 0 1 0 1 0 1 0 1 0 1 0 
1 0 1 0 1 0 1 0 1 0 1 0 1 0 1 0 
1 0 1 0 1 0 1 0 1 0 1 0 1 0 1 0 
1 0 1 0 1 0 1 0 1 0 1 0 1 0 1 0 
1 0 1 0 1 0 1 0 1 0 1 0 1 0 1 0 
1 0 1 0 1 0 1 0 1 0 1 0 1 0 1 0 
1 0 0 3 1 1 0 11 1 1 0 11 1 1 0 12 
1 1 0 13 1 1 0 14 1 1 0 15 1 1 0 15 
1 1 0 17 1 1 0 16 1 1 0 18 1 1 0 18 
1 2 0 19 1 2 0 22 1 2 0 21 1 2 0 24 
1 2 0 23 1 2 0 24 1 2 0 26 1 1 0 25 
1 1 0 27 1 1 0 25 1 1 0 26 1 2 0 24 
1 1 0 26 1 1 0 23 1 2 0 22 1 1 0 23 
1 2 0 21 1 1 0 21 1 2 0 19 1 1 0 18 
1 1 0 19 1 1 0 16 1 1 0 16 1 1 0 14 
1 1 0 13 1 1 0 12 1 1 0 11 1 1 0 9 
1 1 0 9 1 1 0 8 1 1 0 6 1 1 0 6 
1 1 0 5 1 1 0 5 1 1 0 3 1 1 0 3 
1 1 0 2 1 1 0 3 2 2 0 2 2 2 1 1 
1 1 1 1 1 0 1 1 1 0 1 1 1 0 1 1 
1 0 1 1 1 0 1 1 1 1 1 1 1 1 1 1 
0 1 2 2 1 1 0 2 2 2 1 1 0 2 2 2 
0 2 2 2 0 2 2 2 1 1 0 2 2 2 1 1 
1 1 1 1 1 1 2529 2007 300 MP stroke
1 1 1 0 1 0 1 0 1 -1 1 -1 0 -1 2 -2 
0 -2 2 -2 0 -3 1 -1 0 -2 1 -1 0 -3 1 -1 
0 -3 1 -1 0 -4 1 -1 0 -5 1 -1 0 -5 1 -1 
0 -6 1 -1 0 -6 1 -1 0 -7 1 -1 0 -7 1 -1 
0 -8 1 -1 0 -9 1 -1 0 -8 1 -1 0 -10 1 -1 
0 -9 1 -1 0 -11 1 -1 0 -10 1 -1 0 -12 1 -1 
0 -11 1 -1 0 -11 1 -1 0 -12 1 -1 0 -11 1 -1 
0 -12 1 -1 0 -12 1 -1 0 -12 1 -1 0 -11 1 -1 
0 -11 1 -1 0 -11 1 -1 0 -10 1 -1 0 -11 1 -1 
0 -9 1 -1 0 -10 1 -1 0 -8 1 -1 0 -8 1 -1 
0 -7 1 -1 0 -6 1 -1 0 -6 1 -1 0 -5 1 -1 
0 -5 1 -1 0 -3 1 -1 0 -3 1 -1 0 -2 1 -1 
0 -2 1 -1 1 -1 1 -1 1 0 1 0 1 1 1 1 
0 2 2 2 0 2 1 1 0 2 1 1 0 1 1 1 
0 2 1 1 0 2 1 1 0 2 1 1 0 2 1 1 
0 2 2 2 1 1 1 1 1 0 1 0 0 -2 2 -2 
0 -2 1 -1 0 -3 1 -1 0 -4 1 -1 0 -4 1 -1 
0 -6 1 -1 0 -7 1 -1 0 -8 1 -1 0 -9 1 -1 
0 -10 1 -1 0 -11 1 -1 0 -11 1 -1 0 -13 1 -1 
0 -14 1 -1 0 -13 1 -1 0 -16 1 -1 0 -16 1 -1 
0 -15 1 -2 0 -15 1 -2 0 -17 1 -1 0 -17 1 -1 
0 -18 1 -1 0 -17 1 -1 0 -17 1 -2 0 -18 1 -1 
0 -17 1 -1 0 -19 1 -1 0 -17 1 -1 0 -18 1 -1 
0 -17 1 -1 0 -18 1 -1 0 -16 1 -1 0 -16 1 -1 
0 -16 1 -1 0 -15 1 -1 0 -13 1 -1 0 -11 1 -1 
0 -11 1 -1 0 -1 1 -1 1 0 1 0 1 0 1 0 
1 0 1 0 1 0 1 0 1 0 1 0 1 0 1 0 
1 0 1 0 1 0 1 0 1 0 1 0 1 0 1 0 
1 0 1 0 1 0 1 0 1 0 1 0 1 0 1 0 
1 0 1 0 1 0 1 0 1 0 1 0 1 0 1 0 
1 0 1 0 1 0 1 0 1 0 1 0 1 0 1 0 
1 0 1 0 1 0 1 0 1 0 1 0 1 0 1 0 
1 0 1 0 1 0 1 0 1 0 1 0 1 0 1 0 
1 0 1 0 1 0 1 0 1 0 1 0 1 0 1 0 
1 0 1 0 1 0 1 0 1 0 1 0 1 0 1 0 
1 0 1 0 1 0 1 0 1 0 1 0 1 0 1 0 
1 0 1 0 1 0 1 0 1 0 1 0 1 0 1 0 
1 0 1 0 1 0 2319 2897 300 MP stroke
1 0 1 0 1 0 1 0 1 0 1 0 1 0 1 0 
1 0 1 0 1 0 1 0 1 0 1 0 1 0 1 0 
1 0 1 0 1 0 1 0 1 0 1 0 1 0 1 0 
1 0 1 0 1 0 1 0 1 0 1 0 1 0 1 0 
1 0 1 0 1 0 1 0 1 0 1 0 1 0 1 0 
1 0 1 0 1 0 1 0 1 0 1 0 1 0 1 0 
1 0 1 0 1 0 1 0 1 0 1 0 1 0 1 0 
1 0 1 0 1 0 1 0 1 0 1 0 1 0 1 0 
1 0 1 0 1 0 1 0 1 0 1 0 1 0 1 0 
1 0 1 0 1 0 1 0 1 0 1 0 1 0 1 0 
1 0 1 0 1 0 1 0 1 0 1 0 1 0 1 0 
1 0 1 0 1 0 1 0 1 0 1 0 1 0 1 0 
1 0 1 0 1 0 1 0 1 0 1 0 1 0 1 0 
1 0 1 0 1 0 1 0 1 0 1 0 1 0 1 0 
1 0 1 0 1 0 1 0 1 0 1 0 1 0 1 0 
1 0 1 0 1 0 1 0 1 0 1 0 1 0 1 0 
1 0 1 0 1 0 1 0 1 0 1 0 1 0 1 0 
1 0 1 0 1 0 1 0 1 0 1 0 1 0 1 0 
1 0 1 0 1 0 1 0 1 0 1 0 1 0 1 0 
1 0 1 0 1 0 1 0 1 0 1 0 1 0 1 0 
1 0 1 0 1 0 1 0 1 0 1 0 1 0 1 0 
1 0 1 0 1 0 1 0 1 0 1 0 1 0 1 0 
1 0 1 0 1 0 1 0 1 0 1 0 1 0 1 0 
1 0 1 0 1 0 1 0 1 0 1 0 1 0 1 0 
1 0 1 0 1 0 1 0 1 0 1 0 1 0 1 0 
1 0 1 0 1 0 1 0 1 0 1 0 1 0 1 0 
1 0 1 0 1 0 1 0 1 0 1 0 1 0 1 0 
1 0 1 0 1 0 1 0 1 0 1 0 1 0 1 0 
1 0 1 0 1 0 1 0 1 0 1 0 1 0 1 0 
1 0 1 0 1 0 1 0 1 0 1 0 1 0 1 0 
1 0 1 0 1 0 1 0 1 0 1 0 0 1 2 2 
0 2 1 1 0 2 2 2 0 2 2 2 1 1 0 2 
2 2 1 1 0 2 2 2 0 1 2 2 1 1 0 2 
2 2 1 1 0 2 2 2 0 -24 2 -2 0 -1 2 -2 
0 -2 2 -2 0 -1 2 -2 0 1 2 2 0 2 2 2 
1 1 0 2 2 2 0 2 2 2 1 1 1 1 1 1 
1 1 1 1 1 1 1 1 1 0 1 1 1 0 1 1 
1 0 1 0 1 1 2021 2870 300 MP stroke
1 0 1 1 1 0 1 1 1 1 1 0 1 1 1 1 
1 1 1 1 1 1 1 1 1 1 1 1 1 1 1 1 
1 1 1 1 1 1 1 0 1 1 1 0 1 0 1 0 
1 0 1 -1 1 0 1 -1 1 -1 0 -1 2 -2 0 -1 
2 -2 0 -2 2 -2 0 -2 1 -1 0 -2 2 -2 0 -2 
1 -1 0 -2 1 -1 0 -1 1 -1 0 -2 1 -1 0 -2 
1 -1 0 -3 2 -2 0 -3 2 0 0 2 1 1 1 1 
1 0 1 0 1 0 1 0 1 0 1 0 1 0 1 -1 
1 0 1 -1 1 0 1 0 1 0 1 0 1 0 1 0 
1 0 1 0 1 0 1 0 1 0 1 0 1 0 1 -1 
1 0 1 -1 1 0 1 0 1 0 1 0 1 0 1 0 
1 0 1 0 1 0 1 0 1 0 1 0 1 0 1 0 
1 1 1 1 1 0 1 1 1 1 1 0 1 1 1 0 
1 0 1 0 1 1 1 0 1 0 1 0 1 -1 1 0 
1 0 1 -1 1 0 1 0 1 -1 1 0 1 0 1 0 
1 0 1 -1 1 0 1 1 1 0 1 0 1 0 1 0 
1 0 1 0 1 0 1 0 1 0 1 0 1 0 1 0 
1 0 1 1 1 0 1 0 1 0 1 0 1 0 1 0 
1 0 1 0 1 0 1 0 1 0 1 0 1 0 1 0 
1 0 1 -1 1 0 1 0 1 0 1 -1 1 0 1 0 
1 0 1 0 1 0 1 0 1 0 1 0 1 0 1 0 
1 0 1 0 1 0 1 0 1 0 1 0 1 0 1 0 
1 0 1 0 1 0 1 0 1 0 1 0 1 0 1 0 
1 0 1 0 1 0 1 0 1 0 1 0 1 0 1 0 
1 0 1 0 1 0 1 0 1 0 1 0 1 0 1 0 
1 0 1 0 1 0 1 0 1 0 1 0 1 0 1 1 
1 0 1 0 1 0 1 0 1 0 1 0 1 0 1 0 
1 0 1 0 1 0 1 0 1 0 1 0 1 0 1 0 
1 0 1 0 1 1 1 0 1 0 1 0 1 0 1 0 
1 0 1 0 1 0 1 0 1 -1 1 -1 1 -1 1 0 
1 0 1 0 1 0 1 0 1 1 1 1 1 1 1 1 
1 1 0 1 2 2 1 1 1 1 1 0 1 1 1 1 
1 1 1 0 1 1 1 1 1 0 1 1 1 1 1 1 
1 0 1 1 1 1 1 1 1 0 1 1 1 1 1 0 
1 1 1 0 1 1 1 0 1 0 1 1 1 0 1 0 
1 1 1 0 1 1 1 0 1 0 -1 0 2 -2 1 -1 
0 -2 2 -2 0 -2 2 -2 0 -2 2 -2 0 -3 2 -2 
0 -2 1 -1 0 -2 1732 2891 300 MP stroke
2 -2 0 -2 1 -1 0 1 2 2 0 2 2 2 0 1 
2 2 0 2 2 2 1 1 0 1 2 2 1 1 1 1 
1 1 1 0 1 1 1 0 1 0 1 0 1 0 1 0 
1 0 1 -1 1 0 1 0 1 -1 1 0 1 -1 1 0 
1 0 1 -1 1 0 1 -1 1 -1 1 0 1 0 1 0 
1 0 1 0 1 0 1 1 1 1 1 1 0 1 2 2 
1 1 1 1 1 1 1 1 1 1 1 0 1 0 1 0 
1 0 1 0 1 -1 1 -1 1 0 1 -1 1 -1 0 -1 
2 -2 1 -1 0 -1 2 -2 0 -1 2 -2 0 -1 2 -2 
0 -1 2 -2 0 -2 2 -2 1 -1 1 -1 1 1 0 1 
2 2 1 0 1 0 1 1 1 0 1 0 1 0 1 0 
1 0 1 -1 1 0 1 0 1 0 1 0 1 0 1 0 
1 0 1 1 1 0 1 0 1 0 1 0 1 0 1 0 
1 0 1 0 1 0 1 0 1 -1 1 0 1 0 1 0 
1 0 1 0 1 0 1 0 1 -1 1 0 1 0 1 0 
1 1 1 0 1 0 1 1 1 1 1 0 1 1 1 1 
1 1 1 1 1 0 1 1 1 0 1 1 1 0 1 0 
1 1 1 0 1 1 1 0 1 0 1 1 1 0 1 0 
1 0 1 1 1 0 1 0 1 0 1 0 1 1 1 0 
1 0 1 0 1 0 1 1 1 0 1 0 1 0 1 0 
1 1 1 0 1 0 1 1 1 0 1 1 1 0 1 1 
1 1 1 0 1 1 1 1 1 1 1 1 1 1 1 0 
1 1 1 1 0 1 2 2 1 1 1 1 1 1 0 1 
2 2 1 1 1 1 0 1 2 2 1 1 0 1 2 2 
0 1 2 2 0 1 2 2 0 2 2 2 0 1 2 2 
0 2 1 1 0 1 1 1 0 2 2 2 0 2 1 1 
0 2 2 2 0 3 2 2 0 3 2 2 0 3 2 2 
0 2 1 1 0 2 1 1 0 2 1 1 0 2 1 1 
0 2 1 1 0 3 1 1 0 2 1 1 0 3 1 1 
0 3 1 1 0 3 1 1 0 3 1 1 0 4 1 1 
0 3 1 1 0 4 1 1 0 3 1 1 0 4 1 1 
0 4 1 1 0 5 1 1 0 4 1 1 0 4 1 1 
0 4 1 1 0 5 1 1 0 4 1 1 0 5 1 1 
0 5 1 1 0 4 1 1 0 5 1 1 0 6 1 1 
0 5 1 1 0 6 1 1 0 6 1 1 0 7 1 1 
0 6 1 1 0 8 1 1 0 7 1 1 0 7 1 1 
0 9 1 1 0 9 1 1 0 9 1 1 0 10 1 1 
0 10 1 1 0 11 1478 2552 300 MP stroke
1 1 0 10 1 1 0 11 1 1 0 10 1 1 0 6 
1 1 0 5 1 1 0 4 1 1 0 4 1 1 0 2 
1 1 0 2 1 1 0 2 1 1 1 1 1 1 1 0 
0 -1 2 -2 0 -2 1 -1 0 -3 1 -1 0 -3 1 -1 
0 -4 1 -1 0 -5 1 -1 0 -6 1 -1 0 -8 1 -1 
0 -9 1 -1 0 -10 1 -1 0 -13 1 -1 0 -14 1 -1 
0 -16 1 -1 0 -16 1 -2 0 -17 1 -1 0 -20 1 -1 
0 -20 1 -1 0 -23 1 -2 0 -22 1 -1 0 -22 1 -1 
0 -23 1 -1 0 -21 1 -1 0 -20 1 -1 0 -17 1 -1 
0 -14 1 -1 0 -8 1 -1 0 -1 1 -1 0 3 1 1 
0 9 1 1 0 12 1 1 0 14 1 1 0 16 1 1 
0 17 1 1 0 20 1 1 0 20 1 2 0 21 1 1 
0 24 1 2 0 22 1 2 0 24 1 1 0 21 1 1 
0 19 1 1 0 13 1 1 0 9 1 1 0 4 1 1 
1 0 0 -4 1 -1 0 -6 1 -1 0 -11 1 -1 0 -13 
1 -1 0 -18 1 -1 0 -21 1 -1 0 -20 1 -2 0 -17 
1 -1 0 -15 1 -1 0 -14 1 -1 0 -9 1 -1 0 -7 
1 -1 0 -5 1 -1 0 -4 2 -2 1 0 0 2 1 1 
0 4 1 1 0 5 1 1 0 6 1 1 0 7 1 1 
0 8 1 1 0 9 1 1 0 10 1 1 0 10 1 1 
0 11 1 1 0 11 1 1 0 11 1 1 0 11 1 1 
0 10 1 1 0 11 1 1 0 10 1 1 0 10 1 1 
0 10 1 1 0 9 1 1 0 10 1 1 0 9 1 1 
0 10 1 1 0 10 1 1 0 12 1 1 0 11 1 1 
0 10 1 1 0 11 1 1 0 9 1 1 0 9 1 1 
0 7 1 1 0 5 1 1 0 5 1 1 0 2 1 1 
1 0 0 -1 2 -2 0 -5 1 -1 0 -7 1 -1 0 -8 
1 -1 0 -11 1 -1 0 -12 1 -1 0 -13 1 -1 0 -17 
1 -1 0 -15 1 -2 0 -18 1 -1 0 -17 1 -2 0 -20 
1 -1 0 -20 1 -1 0 -20 1 -1 0 -22 1 -1 0 -19 
1 -2 0 -20 1 -1 0 -19 1 -2 0 -21 1 -1 0 -20 
1 -1 0 -20 1 -1 0 -17 1 -1 0 -16 1 -1 0 -15 
1 -1 0 -11 1 -1 0 -5 1 -1 1 -1 0 4 1 1 
0 8 1 1 0 9 1 1 0 9 1 1 0 8 1 1 
0 9 1 1 0 5 1 -1 0 -1 1 -1 0 -1 1 -1 
0 -2 1 -1 0 -2 1 -1 0 -2 1 -1 0 -3 2 -2 
0 -3 2 -2 1 -1 1 -1 1 0 1 0 1 0 0 1 
2 2 1 1 0 2 1316 2808 300 MP stroke
1 1 1 1 0 2 1 1 0 2 2 2 0 3 2 2 
0 2 1 1 0 2 1 1 0 2 1 1 0 2 1 1 
0 2 1 1 0 3 1 1 0 2 1 1 0 4 1 1 
0 3 1 1 0 3 1 1 0 3 1 1 0 4 1 1 
0 4 1 1 0 3 1 1 0 4 1 1 0 4 1 1 
0 4 1 1 0 5 1 1 0 4 1 1 0 5 1 1 
0 4 1 1 0 5 1 1 0 5 1 1 0 6 1 1 
0 5 1 1 0 6 1 1 0 6 1 1 0 7 1 1 
0 6 1 1 0 6 1 1 0 7 1 1 0 7 1 1 
0 7 1 1 0 8 1 1 0 8 1 1 0 8 1 1 
0 9 1 1 0 9 1 1 0 9 1 1 0 10 1 1 
0 9 1 1 0 11 1 1 0 10 1 1 0 5 1 1 
0 4 1 1 0 4 1 1 0 5 1 1 0 4 1 1 
0 5 1 1 0 4 1 1 0 5 1 1 0 4 1 1 
0 5 1 1 0 5 1 1 0 3 1 1 0 3 1 1 
0 3 1 1 0 2 1 1 0 3 1 1 0 3 2 2 
1 1 1 1 1 1 1 -1 1 -1 1 -1 0 -2 1 -1 
0 -2 1 -1 0 -3 1 -1 0 -4 1 -1 0 -4 1 -1 
0 -6 1 -1 0 -7 1 -1 0 -8 1 -1 0 -9 1 -1 
0 -10 1 -1 0 -11 1 -1 0 -14 1 -1 0 -13 1 -1 
0 -14 1 -1 0 -16 1 -1 0 -16 1 -1 0 -18 1 -1 
0 -17 1 -1 0 -19 1 -2 0 -18 1 -1 0 -19 1 -2 
0 -21 1 -1 0 -19 1 -2 0 -20 1 -1 0 -18 1 -1 
0 -18 1 -1 0 -13 1 -1 0 -7 1 -1 0 -2 1 1 
0 5 1 1 0 13 1 1 0 16 1 1 0 20 1 1 
0 20 1 1 0 22 1 1 0 21 1 1 0 21 1 1 
0 22 1 2 0 20 1 1 0 21 1 1 0 19 1 1 
0 18 1 1 0 19 1 1 0 16 1 1 0 16 1 1 
0 15 1 1 0 14 1 1 0 13 1 1 0 13 1 1 
0 11 1 1 0 10 1 1 0 12 1 1 0 9 1 1 
0 9 1 1 0 8 1 1 0 9 1 1 0 7 1 1 
0 7 1 1 0 5 1 1 0 4 1 1 0 5 1 1 
0 4 1 1 0 3 2 2 0 2 1 1 1 1 1 0 
1 -1 1 0 0 -2 2 -2 0 -2 1 -1 0 -3 1 -1 
0 -3 1 -1 0 -3 1 -1 0 -4 1 -1 0 -5 1 -1 
0 -6 1 -1 0 -7 1 -1 0 -7 1 -1 0 -8 1 -1 
0 -9 1 -1 0 -10 1 -1 0 -10 1 -1 0 -11 1 -1 
0 -11 1 -1 0 -12 1156 2455 300 MP stroke
1 -1 0 -12 1 -1 0 -13 1 -1 0 -12 1 -1 0 -13 
1 -1 0 -12 1 -1 0 -13 1 -1 0 -12 1 -1 0 -14 
1 -1 0 -13 1 -1 0 -14 1 -1 0 -15 1 -1 0 -13 
1 -1 0 -16 1 -1 0 -14 1 -2 0 -16 1 -1 0 -12 
1 -1 0 -14 1 -1 0 -16 1 -1 0 -14 1 -1 0 -14 
1 -1 0 -14 1 -1 0 -13 1 -1 0 -13 1 -1 0 -12 
1 -1 0 -12 1 -1 0 -10 1 -1 0 -9 1 -1 0 -7 
1 -1 0 -4 1 -1 1 -1 1 -1 0 -3 1 -1 0 -3 
1 -1 0 -3 1 -1 0 -3 1 -1 0 -2 1 -1 0 -3 
2 -2 1 -1 1 -1 1 -1 1 0 1 0 1 0 1 -1 
1 0 1 0 1 0 1 -1 1 -1 1 0 0 -1 2 -2 
1 -1 1 -1 1 0 1 -1 1 -1 1 -1 1 0 1 0 
1 0 1 -1 1 0 1 0 1 -1 1 -1 1 0 1 -1 
1 0 1 0 1 0 1 0 1 0 1 0 1 0 1 0 
1 0 1 0 1 0 1 0 1 0 1 0 1 0 1 0 
1 0 1 0 1 0 1 0 1 0 1 0 1 0 1 0 
1 0 1 0 1 0 1 0 1 0 1 0 1 0 1 0 
1 0 1 0 1 0 1 0 1 0 1 0 1 0 1 0 
1 0 1 0 1 0 1 0 1 0 1 0 1 0 1 0 
1 0 1 0 1 0 1 0 1 0 1 0 1 0 1 0 
1 0 1 0 1 0 1 0 1 0 1 0 1 0 1 0 
1 0 1 0 1 0 1 0 1 0 1 0 1 0 1 0 
1 0 1 0 1 0 1 0 1 0 1 0 1 0 1 0 
1 0 1 0 1 0 1 0 1 0 1 0 1 0 1 0 
1 0 1 0 1 0 1 0 1 0 1 0 1 0 1 0 
1 0 1 0 1 0 1 0 1 0 1 0 1 0 1 0 
1 0 1 0 1 0 1 0 1 0 1 0 1 0 1 0 
1 0 1 0 1 0 1 0 1 0 1 0 1 0 1 0 
1 0 1 0 1 0 1 0 1 0 1 0 1 0 1 0 
1 0 1 0 1 0 1 0 1 0 1 0 1 0 1 0 
1 0 1 0 1 0 1 0 1 0 1 0 1 0 1 0 
1 0 1 0 1 0 1 0 1 0 1 0 1 0 1 0 
1 0 1 0 1 0 1 0 1 0 1 0 1 0 1 0 
1 0 1 0 1 0 1 0 1 0 1 0 1 0 1 0 
1 0 1 0 1 0 1 0 1 0 1 0 1 0 1 0 
1 0 1 0 1 0 1 0 1 0 1 0 1 0 1 0 
1 0 1 0 1 0 1 0 1 0 1 0 1 0 1 0 
1 0 1 0 1 0 891 2896 300 MP stroke
1 0 1 0 1 0 1 0 1 0 1 0 1 0 1 0 
1 0 1 0 1 0 1 0 1 0 1 0 1 0 1 0 
1 0 1 0 1 0 1 0 1 0 1 0 1 0 1 0 
1 0 1 0 1 0 1 0 1 0 1 0 1 0 1 0 
1 0 1 0 1 0 1 0 1 0 1 0 1 0 1 0 
1 0 1 0 1 0 1 0 1 0 1 0 1 1 1 0 
1 0 1 -1 1 0 1 0 1 0 1 0 1 1 1 0 
1 0 1 0 1 0 1 -1 1 0 1 0 1 0 1 1 
1 0 1 0 1 0 1 0 1 0 1 0 1 0 1 0 
1 0 1 -1 1 0 1 0 1 0 1 1 1 0 1 0 
1 0 1 0 1 0 1 0 1 0 1 1 1 0 1 0 
1 0 1 0 1 0 1 0 1 -1 1 0 1 0 1 0 
1 0 1 0 1 0 1 1 1 0 1 0 1 0 1 0 
1 0 1 -1 -1 0 2 0 1 0 1 0 1 0 1 0 
1 0 1 0 1 0 1 0 1 0 1 0 1 1 1 0 
1 1 1 0 1 0 1 0 1 1 1 0 1 -1 1 0 
1 0 1 0 1 -1 1 0 1 0 1 0 1 0 1 0 
1 0 1 0 1 0 1 0 1 0 1 1 0 1 2 2 
1 0 1 1 1 0 1 0 1 -1 1 -1 1 -1 1 -1 
1 -1 1 0 1 0 1 0 1 0 1 0 1 0 1 0 
1 1 0 2 1 1 0 1 1 1 0 3 1 1 1 1 
1 1 0 -1 2 -2 0 -1 2 -2 1 -1 1 -1 0 2 
1 1 0 2 1 1 0 3 2 2 1 0 -1 0 2 0 
0 -2 1 -1 0 -2 1 -1 0 -3 1 -1 0 -2 1 1 
0 3 1 1 0 5 1 1 0 8 1 1 0 5 1 1 
1 1 1 1 -1 0 2 0 0 3 1 1 0 1 0 -1 
1 1 0 4 0 -5 1 -1 0 -14 1 -1 0 -18 699 2893 216 MP stroke
gr

24 w
c10
0 sg
2960 3285 mt 
(Time \(s\)) s
 269 1979 mt  -90 rotate
(Force \(N\)) s
90 rotate
%%IncludeResource: font Helvetica
/Helvetica /ISOLatin1Encoding 120 FMSR

 682 2940 mt 
( ) s
5867  347 mt 
( ) s
18 w
6 w
%%IncludeResource: font Helvetica
/Helvetica /ISOLatin1Encoding 180 FMSR

4777  563 mt 
(External force) s
gs 4208 365 1616 688 rc
30 w
c8
437 0 4295 499 2 MP stroke
gr

30 w
c8
0 sg
4777  773 mt 
(Force limit) s
gs 4208 365 1616 688 rc
DA
c9
437 0 4295 708 2 MP stroke
4514 708 PD
gr

c9
DA
0 sg
4777  983 mt 
(Virtual Force) s
gs 4208 365 1616 688 rc
SO
24 w
c10
437 0 4295 917 2 MP stroke
6 w
gr

6 w
c10
SO

end %%Color Dict

eplot
%%EndObject

epage
end

showpage

%%Trailer
%%EOF
