%!PS-Adobe-3.0 EPSF-3.0
%%Creator: MATLAB, The MathWorks, Inc. Version 8.1.0.604 (R2013a). Operating System: Linux 4.8.11-1-ARCH #1 SMP PREEMPT Sun Nov 27 09:26:14 CET 2016 x86_64.
%%Title: ./plotVelocity.eps
%%CreationDate: 12/07/2016  22:20:32
%%DocumentNeededFonts: Helvetica
%%DocumentProcessColors: Cyan Magenta Yellow Black
%%LanguageLevel: 2
%%Pages: 1
%%BoundingBox:    39   256   541   522
%%EndComments

%%BeginProlog
% MathWorks dictionary
/MathWorks 160 dict begin
% definition operators
/bdef {bind def} bind def
/ldef {load def} bind def
/xdef {exch def} bdef
/xstore {exch store} bdef
% operator abbreviations
/c  /clip ldef
/cc /concat ldef
/cp /closepath ldef
/gr /grestore ldef
/gs /gsave ldef
/mt /moveto ldef
/np /newpath ldef
/cm /currentmatrix ldef
/sm /setmatrix ldef
/rm /rmoveto ldef
/rl /rlineto ldef
/s {show newpath} bdef
/sc {setcmykcolor} bdef
/sr /setrgbcolor ldef
/sg /setgray ldef
/w /setlinewidth ldef
/j /setlinejoin ldef
/cap /setlinecap ldef
/rc {rectclip} bdef
/rf {rectfill} bdef
% page state control
/pgsv () def
/bpage {/pgsv save def} bdef
/epage {pgsv restore} bdef
/bplot /gsave ldef
/eplot {stroke grestore} bdef
% orientation switch
/portraitMode 0 def /landscapeMode 1 def /rotateMode 2 def
% coordinate system mappings
/dpi2point 0 def
% font control
/FontSize 0 def
/FMS {/FontSize xstore findfont [FontSize 0 0 FontSize neg 0 0]
  makefont setfont} bdef
/reencode {exch dup where {pop load} {pop StandardEncoding} ifelse
  exch dup 3 1 roll findfont dup length dict begin
  { 1 index /FID ne {def}{pop pop} ifelse } forall
  /Encoding exch def currentdict end definefont pop} bdef
/isroman {findfont /CharStrings get /Agrave known} bdef
/FMSR {3 1 roll 1 index dup isroman {reencode} {pop pop} ifelse
  exch FMS} bdef
/csm {1 dpi2point div -1 dpi2point div scale neg translate
 dup landscapeMode eq {pop -90 rotate}
  {rotateMode eq {90 rotate} if} ifelse} bdef
% line types: solid, dotted, dashed, dotdash
/SO { [] 0 setdash } bdef
/DO { [3 dpi2point mul 3 dpi2point mul] 0 setdash } bdef
/DA { [6 dpi2point mul] 0 setdash } bdef
/DD { [2 dpi2point mul 2 dpi2point mul 6 dpi2point mul 2 dpi2point mul] 0 setdash } bdef
% macros for lines and objects
/L {lineto stroke} bdef
/MP {3 1 roll moveto 1 sub {rlineto} repeat} bdef
/AP {{rlineto} repeat} bdef
/PDlw -1 def
/W {/PDlw currentlinewidth def setlinewidth} def
/PP {closepath eofill} bdef
/DP {closepath stroke} bdef
/MR {4 -2 roll moveto dup  0 exch rlineto exch 0 rlineto
  neg 0 exch rlineto closepath} bdef
/FR {MR stroke} bdef
/PR {MR fill} bdef
/L1i {{currentfile picstr readhexstring pop} image} bdef
/tMatrix matrix def
/MakeOval {newpath tMatrix currentmatrix pop translate scale
0 0 1 0 360 arc tMatrix setmatrix} bdef
/FO {MakeOval stroke} bdef
/PO {MakeOval fill} bdef
/PD {currentlinewidth 2 div 0 360 arc fill
   PDlw -1 eq not {PDlw w /PDlw -1 def} if} def
/FA {newpath tMatrix currentmatrix pop translate scale
  0 0 1 5 -2 roll arc tMatrix setmatrix stroke} bdef
/PA {newpath tMatrix currentmatrix pop	translate 0 0 moveto scale
  0 0 1 5 -2 roll arc closepath tMatrix setmatrix fill} bdef
/FAn {newpath tMatrix currentmatrix pop translate scale
  0 0 1 5 -2 roll arcn tMatrix setmatrix stroke} bdef
/PAn {newpath tMatrix currentmatrix pop translate 0 0 moveto scale
  0 0 1 5 -2 roll arcn closepath tMatrix setmatrix fill} bdef
/vradius 0 def /hradius 0 def /lry 0 def
/lrx 0 def /uly 0 def /ulx 0 def /rad 0 def
/MRR {/vradius xdef /hradius xdef /lry xdef /lrx xdef /uly xdef
  /ulx xdef newpath tMatrix currentmatrix pop ulx hradius add uly
  vradius add translate hradius vradius scale 0 0 1 180 270 arc 
  tMatrix setmatrix lrx hradius sub uly vradius add translate
  hradius vradius scale 0 0 1 270 360 arc tMatrix setmatrix
  lrx hradius sub lry vradius sub translate hradius vradius scale
  0 0 1 0 90 arc tMatrix setmatrix ulx hradius add lry vradius sub
  translate hradius vradius scale 0 0 1 90 180 arc tMatrix setmatrix
  closepath} bdef
/FRR {MRR stroke } bdef
/PRR {MRR fill } bdef
/MlrRR {/lry xdef /lrx xdef /uly xdef /ulx xdef /rad lry uly sub 2 div def
  newpath tMatrix currentmatrix pop ulx rad add uly rad add translate
  rad rad scale 0 0 1 90 270 arc tMatrix setmatrix lrx rad sub lry rad
  sub translate rad rad scale 0 0 1 270 90 arc tMatrix setmatrix
  closepath} bdef
/FlrRR {MlrRR stroke } bdef
/PlrRR {MlrRR fill } bdef
/MtbRR {/lry xdef /lrx xdef /uly xdef /ulx xdef /rad lrx ulx sub 2 div def
  newpath tMatrix currentmatrix pop ulx rad add uly rad add translate
  rad rad scale 0 0 1 180 360 arc tMatrix setmatrix lrx rad sub lry rad
  sub translate rad rad scale 0 0 1 0 180 arc tMatrix setmatrix
  closepath} bdef
/FtbRR {MtbRR stroke } bdef
/PtbRR {MtbRR fill } bdef
/stri 6 array def /dtri 6 array def
/smat 6 array def /dmat 6 array def
/tmat1 6 array def /tmat2 6 array def /dif 3 array def
/asub {/ind2 exch def /ind1 exch def dup dup
  ind1 get exch ind2 get sub exch } bdef
/tri_to_matrix {
  2 0 asub 3 1 asub 4 0 asub 5 1 asub
  dup 0 get exch 1 get 7 -1 roll astore } bdef
/compute_transform {
  dmat dtri tri_to_matrix tmat1 invertmatrix 
  smat stri tri_to_matrix tmat2 concatmatrix } bdef
/ds {stri astore pop} bdef
/dt {dtri astore pop} bdef
/db {2 copy /cols xdef /rows xdef mul dup 3 mul string
  currentfile 
  3 index 0 eq {/ASCIIHexDecode filter}
  {/ASCII85Decode filter 3 index 2 eq {/RunLengthDecode filter} if }
  ifelse exch readstring pop
  dup 0 3 index getinterval /rbmap xdef
  dup 2 index dup getinterval /gbmap xdef
  1 index dup 2 mul exch getinterval /bbmap xdef pop pop}bdef
/it {gs np dtri aload pop moveto lineto lineto cp c
  cols rows 8 compute_transform 
  rbmap gbmap bbmap true 3 colorimage gr}bdef
/il {newpath moveto lineto stroke}bdef
currentdict end def
%%EndProlog

%%BeginSetup
MathWorks begin

0 cap

end
%%EndSetup

%%Page: 1 1
%%BeginPageSetup
%%PageBoundingBox:    39   256   541   522
MathWorks begin
bpage
%%EndPageSetup

%%BeginObject: obj1
bplot

/dpi2point 12 def
portraitMode 0468 6420 csm

    0   153  6034  3188 rc
87 dict begin %Colortable dictionary
/c0 { 0.000000 0.000000 0.000000 sr} bdef
/c1 { 1.000000 1.000000 1.000000 sr} bdef
/c2 { 0.900000 0.000000 0.000000 sr} bdef
/c3 { 0.000000 0.820000 0.000000 sr} bdef
/c4 { 0.000000 0.000000 0.800000 sr} bdef
/c5 { 0.910000 0.820000 0.320000 sr} bdef
/c6 { 1.000000 0.260000 0.820000 sr} bdef
/c7 { 0.000000 0.820000 0.820000 sr} bdef
c0
1 j
1 sg
   0    0 6395 3342 rf
18 w
0 2592 5176 0 0 -2592 707 2897 4 MP
PP
-5176 0 0 2592 5176 0 0 -2592 707 2897 5 MP stroke
12 w
DO
SO
18 w
0 sg
 707 2897 mt 5883 2897 L
 707  305 mt 5883  305 L
 707 2897 mt  707  305 L
5883 2897 mt 5883  305 L
 707 2897 mt 5883 2897 L
 707 2897 mt  707  305 L
 707 2897 mt  707 2793 L
 707  305 mt  707  408 L
%%IncludeResource: font Helvetica
/Helvetica /ISOLatin1Encoding 180 FMSR

 657 3098 mt 
(0) s
 836 2897 mt  836 2845 L
 836  305 mt  836  356 L
 965 2897 mt  965 2845 L
 965  305 mt  965  356 L
1095 2897 mt 1095 2845 L
1095  305 mt 1095  356 L
1224 2897 mt 1224 2845 L
1224  305 mt 1224  356 L
1354 2897 mt 1354 2845 L
1354  305 mt 1354  356 L
1354 2897 mt 1354 2845 L
1354  305 mt 1354  356 L
1354 2897 mt 1354 2845 L
1354  305 mt 1354  356 L
1354 2897 mt 1354 2845 L
1354  305 mt 1354  356 L
1354 2897 mt 1354 2845 L
1354  305 mt 1354  356 L
1354 2897 mt 1354 2793 L
1354  305 mt 1354  408 L
1254 3098 mt 
(10) s
1483 2897 mt 1483 2845 L
1483  305 mt 1483  356 L
1612 2897 mt 1612 2845 L
1612  305 mt 1612  356 L
1742 2897 mt 1742 2845 L
1742  305 mt 1742  356 L
1871 2897 mt 1871 2845 L
1871  305 mt 1871  356 L
2001 2897 mt 2001 2845 L
2001  305 mt 2001  356 L
2001 2897 mt 2001 2845 L
2001  305 mt 2001  356 L
2001 2897 mt 2001 2845 L
2001  305 mt 2001  356 L
2001 2897 mt 2001 2845 L
2001  305 mt 2001  356 L
2001 2897 mt 2001 2845 L
2001  305 mt 2001  356 L
2001 2897 mt 2001 2793 L
2001  305 mt 2001  408 L
1901 3098 mt 
(20) s
2130 2897 mt 2130 2845 L
2130  305 mt 2130  356 L
2259 2897 mt 2259 2845 L
2259  305 mt 2259  356 L
2389 2897 mt 2389 2845 L
2389  305 mt 2389  356 L
2518 2897 mt 2518 2845 L
2518  305 mt 2518  356 L
2648 2897 mt 2648 2845 L
2648  305 mt 2648  356 L
2648 2897 mt 2648 2845 L
2648  305 mt 2648  356 L
2648 2897 mt 2648 2845 L
2648  305 mt 2648  356 L
2648 2897 mt 2648 2845 L
2648  305 mt 2648  356 L
2648 2897 mt 2648 2845 L
2648  305 mt 2648  356 L
2648 2897 mt 2648 2793 L
2648  305 mt 2648  408 L
2548 3098 mt 
(30) s
2777 2897 mt 2777 2845 L
2777  305 mt 2777  356 L
2906 2897 mt 2906 2845 L
2906  305 mt 2906  356 L
3036 2897 mt 3036 2845 L
3036  305 mt 3036  356 L
3165 2897 mt 3165 2845 L
3165  305 mt 3165  356 L
3295 2897 mt 3295 2845 L
3295  305 mt 3295  356 L
3295 2897 mt 3295 2845 L
3295  305 mt 3295  356 L
3295 2897 mt 3295 2845 L
3295  305 mt 3295  356 L
3295 2897 mt 3295 2845 L
3295  305 mt 3295  356 L
3295 2897 mt 3295 2845 L
3295  305 mt 3295  356 L
3295 2897 mt 3295 2793 L
3295  305 mt 3295  408 L
3195 3098 mt 
(40) s
3424 2897 mt 3424 2845 L
3424  305 mt 3424  356 L
3553 2897 mt 3553 2845 L
3553  305 mt 3553  356 L
3683 2897 mt 3683 2845 L
3683  305 mt 3683  356 L
3812 2897 mt 3812 2845 L
3812  305 mt 3812  356 L
3942 2897 mt 3942 2845 L
3942  305 mt 3942  356 L
3942 2897 mt 3942 2845 L
3942  305 mt 3942  356 L
3942 2897 mt 3942 2845 L
3942  305 mt 3942  356 L
3942 2897 mt 3942 2845 L
3942  305 mt 3942  356 L
3942 2897 mt 3942 2845 L
3942  305 mt 3942  356 L
3942 2897 mt 3942 2793 L
3942  305 mt 3942  408 L
3842 3098 mt 
(50) s
4071 2897 mt 4071 2845 L
4071  305 mt 4071  356 L
4200 2897 mt 4200 2845 L
4200  305 mt 4200  356 L
4330 2897 mt 4330 2845 L
4330  305 mt 4330  356 L
4459 2897 mt 4459 2845 L
4459  305 mt 4459  356 L
4589 2897 mt 4589 2845 L
4589  305 mt 4589  356 L
4589 2897 mt 4589 2845 L
4589  305 mt 4589  356 L
4589 2897 mt 4589 2845 L
4589  305 mt 4589  356 L
4589 2897 mt 4589 2845 L
4589  305 mt 4589  356 L
4589 2897 mt 4589 2845 L
4589  305 mt 4589  356 L
4589 2897 mt 4589 2793 L
4589  305 mt 4589  408 L
4489 3098 mt 
(60) s
4718 2897 mt 4718 2845 L
4718  305 mt 4718  356 L
4847 2897 mt 4847 2845 L
4847  305 mt 4847  356 L
4977 2897 mt 4977 2845 L
4977  305 mt 4977  356 L
5106 2897 mt 5106 2845 L
5106  305 mt 5106  356 L
5236 2897 mt 5236 2845 L
5236  305 mt 5236  356 L
5236 2897 mt 5236 2845 L
5236  305 mt 5236  356 L
5236 2897 mt 5236 2845 L
5236  305 mt 5236  356 L
5236 2897 mt 5236 2845 L
5236  305 mt 5236  356 L
5236 2897 mt 5236 2845 L
5236  305 mt 5236  356 L
5236 2897 mt 5236 2793 L
5236  305 mt 5236  408 L
5136 3098 mt 
(70) s
5365 2897 mt 5365 2845 L
5365  305 mt 5365  356 L
5494 2897 mt 5494 2845 L
5494  305 mt 5494  356 L
5624 2897 mt 5624 2845 L
5624  305 mt 5624  356 L
5753 2897 mt 5753 2845 L
5753  305 mt 5753  356 L
5883 2897 mt 5883 2845 L
5883  305 mt 5883  356 L
5883 2897 mt 5883 2845 L
5883  305 mt 5883  356 L
5883 2897 mt 5883 2845 L
5883  305 mt 5883  356 L
5883 2897 mt 5883 2845 L
5883  305 mt 5883  356 L
5883 2897 mt 5883 2845 L
5883  305 mt 5883  356 L
5883 2897 mt 5883 2793 L
5883  305 mt 5883  408 L
5783 3098 mt 
(80) s
 707 2897 mt  810 2897 L
5883 2897 mt 5779 2897 L
 572 2963 mt 
(0) s
 707 2681 mt  758 2681 L
5883 2681 mt 5831 2681 L
 707 2465 mt  758 2465 L
5883 2465 mt 5831 2465 L
 707 2465 mt  758 2465 L
5883 2465 mt 5831 2465 L
 707 2465 mt  758 2465 L
5883 2465 mt 5831 2465 L
 707 2465 mt  758 2465 L
5883 2465 mt 5831 2465 L
 707 2465 mt  758 2465 L
5883 2465 mt 5831 2465 L
 707 2465 mt  758 2465 L
5883 2465 mt 5831 2465 L
 707 2465 mt  758 2465 L
5883 2465 mt 5831 2465 L
 707 2465 mt  758 2465 L
5883 2465 mt 5831 2465 L
 707 2465 mt  810 2465 L
5883 2465 mt 5779 2465 L
 322 2531 mt 
(0.05) s
 707 2249 mt  758 2249 L
5883 2249 mt 5831 2249 L
 707 2032 mt  758 2032 L
5883 2032 mt 5831 2032 L
 707 2032 mt  758 2032 L
5883 2032 mt 5831 2032 L
 707 2032 mt  758 2032 L
5883 2032 mt 5831 2032 L
 707 2032 mt  758 2032 L
5883 2032 mt 5831 2032 L
 707 2032 mt  758 2032 L
5883 2032 mt 5831 2032 L
 707 2032 mt  758 2032 L
5883 2032 mt 5831 2032 L
 707 2032 mt  758 2032 L
5883 2032 mt 5831 2032 L
 707 2032 mt  758 2032 L
5883 2032 mt 5831 2032 L
 707 2032 mt  810 2032 L
5883 2032 mt 5779 2032 L
 422 2098 mt 
(0.1) s
 707 1816 mt  758 1816 L
5883 1816 mt 5831 1816 L
 707 1600 mt  758 1600 L
5883 1600 mt 5831 1600 L
 707 1600 mt  758 1600 L
5883 1600 mt 5831 1600 L
 707 1600 mt  758 1600 L
5883 1600 mt 5831 1600 L
 707 1600 mt  758 1600 L
5883 1600 mt 5831 1600 L
 707 1600 mt  758 1600 L
5883 1600 mt 5831 1600 L
 707 1600 mt  758 1600 L
5883 1600 mt 5831 1600 L
 707 1600 mt  758 1600 L
5883 1600 mt 5831 1600 L
 707 1600 mt  758 1600 L
5883 1600 mt 5831 1600 L
 707 1600 mt  810 1600 L
5883 1600 mt 5779 1600 L
 322 1666 mt 
(0.15) s
 707 1384 mt  758 1384 L
5883 1384 mt 5831 1384 L
 707 1168 mt  758 1168 L
5883 1168 mt 5831 1168 L
 707 1168 mt  758 1168 L
5883 1168 mt 5831 1168 L
 707 1168 mt  758 1168 L
5883 1168 mt 5831 1168 L
 707 1168 mt  758 1168 L
5883 1168 mt 5831 1168 L
 707 1168 mt  758 1168 L
5883 1168 mt 5831 1168 L
 707 1168 mt  758 1168 L
5883 1168 mt 5831 1168 L
 707 1168 mt  758 1168 L
5883 1168 mt 5831 1168 L
 707 1168 mt  758 1168 L
5883 1168 mt 5831 1168 L
 707 1168 mt  810 1168 L
5883 1168 mt 5779 1168 L
 422 1234 mt 
(0.2) s
 707  952 mt  758  952 L
5883  952 mt 5831  952 L
 707  736 mt  758  736 L
5883  736 mt 5831  736 L
 707  736 mt  758  736 L
5883  736 mt 5831  736 L
 707  736 mt  758  736 L
5883  736 mt 5831  736 L
 707  736 mt  758  736 L
5883  736 mt 5831  736 L
 707  736 mt  758  736 L
5883  736 mt 5831  736 L
 707  736 mt  758  736 L
5883  736 mt 5831  736 L
 707  736 mt  758  736 L
5883  736 mt 5831  736 L
 707  736 mt  758  736 L
5883  736 mt 5831  736 L
 707  736 mt  810  736 L
5883  736 mt 5779  736 L
 322  802 mt 
(0.25) s
 707  520 mt  758  520 L
5883  520 mt 5831  520 L
 707 2897 mt 5883 2897 L
 707  305 mt 5883  305 L
 707 2897 mt  707  305 L
5883 2897 mt 5883  305 L
gs 707 305 5177 2593 rc
30 w
/c8 { 0.160000 0.440000 1.000000 sr} bdef
c8
1 0 1 0 1 0 1 0 1 0 1 0 1 0 1 0 
1 0 1 0 1 0 1 0 1 0 1 0 1 0 1 0 
1 0 1 0 1 0 1 0 1 0 1 0 1 0 1 0 
1 0 1 0 1 0 1 0 1 0 1 0 1 0 1 0 
1 0 1 0 1 0 1 0 1 0 1 0 1 0 1 0 
1 0 1 0 1 0 1 0 1 0 1 0 1 0 1 0 
1 0 1 0 1 0 1 0 1 0 1 0 1 0 1 0 
1 0 1 0 1 0 1 0 1 0 1 0 1 0 1 0 
1 0 1 0 1 0 1 0 1 0 1 0 1 0 1 0 
1 0 1 0 1 0 1 0 1 0 1 0 1 0 1 0 
1 0 1 0 1 0 1 0 1 0 1 0 1 0 1 0 
1 0 1 0 1 0 1 0 1 0 1 0 1 0 1 0 
1 0 1 0 1 0 1 0 1 0 1 0 1 0 1 0 
1 0 1 0 1 0 1 0 1 0 1 0 1 0 1 0 
1 0 1 0 1 0 1 0 1 0 1 0 1 0 1 0 
1 0 1 0 1 0 1 0 1 0 1 0 1 0 1 0 
1 0 1 0 1 0 1 0 1 0 1 0 1 0 1 0 
1 0 1 0 1 0 1 0 1 0 1 0 1 0 1 0 
1 0 1 0 1 0 1 0 1 0 1 0 1 0 1 0 
1 0 1 0 1 0 1 0 1 0 1 0 1 0 1 0 
1 0 1 0 1 0 1 0 1 0 1 0 1 0 1 0 
1 0 1 0 1 0 1 0 1 0 1 0 1 0 1 0 
1 0 1 0 1 0 1 0 1 0 1 0 1 0 1 0 
1 0 1 0 1 0 1 0 1 0 1 0 1 0 1 0 
1 0 1 0 1 0 1 0 1 0 1 0 1 0 1 0 
1 0 1 0 1 0 1 0 1 0 1 0 1 0 1 0 
1 0 1 0 1 0 1 0 1 0 1 0 1 0 1 0 
1 0 1 0 1 0 1 0 1 0 1 0 1 0 1 0 
1 0 1 0 1 0 1 0 1 0 1 0 1 0 1 0 
1 0 1 0 1 0 1 0 1 0 1 0 1 0 1 0 
1 0 1 0 1 0 1 0 1 0 1 0 1 0 1 0 
1 0 1 0 1 0 1 0 1 0 1 0 1 0 1 0 
1 0 1 0 1 0 1 0 1 0 1 0 1 0 1 1 
1 0 1 0 1 0 1 0 1 0 1 1 1 0 1 0 
1 0 1 0 1 0 1 1 1 0 1 0 1 0 1 0 
1 0 1 0 1 1 1 0 1 0 1 0 1 0 1 0 
1 0 1 0 1 0 1 0 1 0 1 0 1 0 1 0 
1 0 1 0 1 0 5341 2892 300 MP stroke
1 0 1 0 1 0 1 0 1 0 1 -1 1 0 1 0 
1 0 1 0 1 0 1 0 1 0 1 -1 1 0 1 0 
1 0 1 0 1 0 1 0 1 -1 1 0 1 0 1 0 
1 0 1 0 1 0 1 0 1 0 1 0 1 0 1 0 
1 0 1 0 1 0 1 0 1 0 1 0 1 0 1 0 
1 0 1 0 1 0 1 0 1 -1 1 0 1 0 1 0 
1 0 1 0 1 0 1 0 1 0 1 0 1 0 1 0 
1 0 1 0 1 0 1 0 1 0 1 0 1 0 1 0 
1 0 1 0 1 0 1 0 1 0 1 0 1 0 1 0 
1 0 1 0 1 0 1 0 1 0 1 0 1 0 1 0 
1 0 1 0 1 0 1 0 1 0 1 0 1 0 1 0 
1 0 1 0 1 0 1 0 1 0 1 0 1 0 1 0 
1 1 1 0 1 0 1 0 1 0 1 0 1 0 1 0 
1 0 1 0 1 0 1 0 1 0 1 0 1 0 1 0 
1 0 1 0 1 0 1 0 1 0 1 0 1 0 1 0 
1 0 1 0 1 0 1 0 1 0 1 0 1 0 1 0 
1 0 1 0 1 0 1 1 1 0 1 0 1 0 1 0 
1 0 1 0 1 0 1 0 1 0 1 1 1 0 1 0 
1 0 1 0 1 0 1 0 1 0 1 0 1 0 1 0 
1 0 1 0 1 0 1 0 1 0 1 0 1 0 1 0 
1 0 1 0 1 0 1 0 1 0 1 0 1 0 1 0 
1 0 1 -1 1 0 1 0 1 0 1 0 1 0 1 0 
1 0 1 -1 1 0 1 0 1 0 1 0 1 0 1 0 
1 0 1 -1 1 0 1 0 1 0 1 0 1 0 1 0 
1 0 1 0 1 0 1 0 1 0 1 0 1 0 1 0 
1 0 1 1 1 0 1 0 1 0 1 0 1 0 1 0 
1 0 1 0 1 0 1 0 1 0 1 0 1 0 1 0 
1 0 1 0 1 0 1 0 1 1 1 0 1 0 1 0 
1 0 1 0 1 0 1 0 1 0 1 0 1 0 1 0 
1 0 1 0 1 0 1 0 1 0 1 0 1 0 1 0 
1 0 1 0 1 0 1 0 1 0 1 0 1 0 1 0 
1 0 1 0 1 0 1 0 1 0 1 0 1 0 1 0 
1 0 1 0 1 0 1 0 1 0 1 0 1 0 1 0 
1 0 1 0 1 0 1 0 1 0 1 0 1 0 1 -1 
1 0 1 0 1 0 1 0 1 0 1 0 1 0 1 0 
1 0 1 -1 1 0 1 0 1 0 1 0 1 0 1 0 
1 1 1 0 1 0 1 0 1 1 1 0 1 0 1 1 
1 0 1 0 1 0 5042 2893 300 MP stroke
1 1 1 0 1 0 1 0 1 0 1 0 1 0 1 0 
1 0 1 0 1 0 1 0 1 0 1 0 1 -1 1 0 
1 0 1 -1 1 0 1 0 1 0 1 -1 1 1 1 0 
1 1 1 0 1 1 1 1 1 0 1 1 1 1 1 1 
1 1 1 1 1 0 1 1 1 1 1 0 1 1 1 0 
1 1 1 0 1 0 1 0 1 0 1 0 1 0 1 -1 
1 0 1 -1 1 -1 1 -1 1 -1 1 -1 1 -1 1 -1 
1 0 0 1 2 2 0 2 1 1 0 1 1 1 0 3 
1 1 0 2 1 1 0 3 1 1 0 4 1 1 0 3 
1 1 0 4 1 1 0 4 1 1 0 4 1 1 0 5 
1 1 0 5 1 1 0 4 1 1 0 5 1 1 0 6 
1 1 0 5 1 1 0 6 1 1 0 5 1 1 0 6 
1 1 0 6 1 1 0 6 1 1 0 6 1 1 0 6 
1 1 0 6 1 1 0 6 1 1 0 6 1 1 0 6 
1 1 0 7 1 1 0 6 1 1 0 6 1 1 0 6 
1 1 0 6 1 1 0 5 1 1 0 6 1 1 0 5 
1 1 0 6 1 1 0 5 1 1 0 5 1 1 0 4 
1 1 0 5 1 1 0 4 1 1 0 4 1 1 0 4 
1 1 0 4 1 1 0 4 1 1 0 3 1 1 0 3 
1 1 0 3 1 1 0 2 1 1 0 2 1 1 0 2 
1 1 0 2 1 1 0 2 1 1 0 2 2 2 0 2 
1 1 0 1 2 2 0 1 2 2 1 1 1 1 1 1 
1 1 1 1 1 0 1 1 1 0 1 1 1 1 1 0 
1 1 1 1 1 0 1 1 1 1 1 1 1 1 1 1 
0 1 2 2 1 1 0 2 2 2 0 2 2 2 0 2 
1 1 0 1 1 1 0 2 1 1 0 2 1 1 0 2 
1 1 0 2 1 1 0 3 1 1 0 2 1 1 0 3 
1 1 0 3 1 1 0 3 1 1 0 3 1 1 0 3 
1 1 0 4 1 1 0 3 1 1 0 4 1 1 0 4 
1 1 0 4 1 1 0 4 1 1 0 5 1 1 0 4 
1 1 0 4 1 1 0 5 1 1 0 5 1 1 0 5 
1 1 0 4 1 1 0 5 1 1 0 5 1 1 0 5 
1 1 0 5 1 1 0 4 1 1 0 5 1 1 0 5 
1 1 0 5 1 1 0 5 1 1 0 4 1 1 0 5 
1 1 0 5 1 1 0 4 1 1 0 5 1 1 0 4 
1 1 0 4 1 1 0 4 1 1 0 3 1 1 0 4 
1 1 0 3 1 1 0 4 1 1 0 3 1 1 0 3 
1 1 0 2 1 1 4847 2321 300 MP stroke
0 3 1 1 0 2 1 1 0 1 1 1 0 2 1 1 
0 2 2 2 0 2 2 2 1 1 1 1 1 0 1 1 
1 0 1 -1 1 0 1 -1 0 -1 2 -2 0 -1 2 -2 
0 -3 2 -2 0 -2 1 -1 0 -2 1 -1 0 -2 1 -1 
0 -2 1 -1 0 -3 1 -1 0 -3 1 -1 0 -3 1 -1 
0 -3 1 -1 0 -3 1 -1 0 -4 1 -1 0 -3 1 -1 
0 -4 1 -1 0 -4 1 -1 0 -4 1 -1 0 -4 1 -1 
0 -4 1 -1 0 -4 1 -1 0 -4 1 -1 0 -4 1 -1 
0 -5 1 -1 0 -4 1 -1 0 -4 1 -1 0 -4 1 -1 
0 -4 1 -1 0 -4 1 -1 0 -4 1 -1 0 -5 1 -1 
0 -4 1 -1 0 -4 1 -1 0 -3 1 -1 0 -4 1 -1 
0 -4 1 -1 0 -3 1 -1 0 -3 1 -1 0 -3 1 -1 
0 -3 1 -1 0 -3 1 -1 0 -3 1 -1 0 -3 1 -1 
0 -3 1 -1 0 -3 1 -1 0 -2 1 -1 0 -3 1 -1 
0 -2 1 -1 0 -3 1 -1 0 -2 1 -1 0 -2 1 -1 
0 -2 1 -1 0 -2 1 -1 0 -2 1 -1 0 -1 1 -1 
0 -3 2 -2 0 -2 2 -2 0 -3 2 -2 0 -1 1 -1 
0 -1 2 -2 0 -2 2 -2 1 -1 0 -2 2 -2 0 -1 
2 -2 0 -2 2 -2 1 -1 0 -2 2 -2 0 -2 1 -1 
0 -2 2 -2 0 -2 1 -1 0 -1 1 -1 0 -2 1 -1 
0 -2 1 -1 0 -2 1 -1 0 -2 1 -1 0 -3 1 -1 
0 -2 1 -1 0 -3 1 -1 0 -3 1 -1 0 -4 1 -1 
0 -3 1 -1 0 -4 1 -1 0 -4 1 -1 0 -4 1 -1 
0 -4 1 -1 0 -5 1 -1 0 -5 1 -1 0 -4 1 -1 
0 -6 1 -1 0 -5 1 -1 0 -5 1 -1 0 -6 1 -1 
0 -5 1 -1 0 -7 1 -1 0 -5 1 -1 0 -7 1 -1 
0 -6 1 -1 0 -6 1 -1 0 -6 1 -1 0 -7 1 -1 
0 -6 1 -1 0 -7 1 -1 0 -6 1 -1 0 -6 1 -1 
0 -7 1 -1 0 -6 1 -1 0 -7 1 -1 0 -6 1 -1 
0 -6 1 -1 0 -6 1 -1 0 -6 1 -1 0 -5 1 -1 
0 -5 1 -1 0 -6 1 -1 0 -5 1 -1 0 -5 1 -1 
0 -4 1 -1 0 -5 1 -1 0 -4 1 -1 0 -4 1 -1 
0 -4 1 -1 0 -3 1 -1 0 -4 1 -1 0 -3 1 -1 
0 -2 1 -1 0 -2 1 -1 0 -2 1 -1 0 -1 2 0 
0 2 2 2 0 2 2 2 1 1 1 1 1 1 1 1 
1 1 1 0 1 0 1 0 1 0 1 0 1 0 1 0 
1 -1 1 -1 1 0 1 -1 1 -1 1 -1 1 -1 1 -1 
1 -1 1 -1 1 -1 4663 2890 300 MP stroke
1 -1 1 0 1 -1 1 -1 1 -1 1 -1 1 0 1 0 
1 0 1 1 1 0 1 1 1 0 1 0 1 1 1 0 
1 0 1 1 1 0 1 0 1 0 1 0 1 0 1 0 
1 0 1 0 1 -1 1 0 1 0 1 0 1 0 1 -1 
1 0 1 0 1 -1 1 0 1 0 1 0 1 -1 1 0 
1 0 1 0 1 -1 1 0 1 0 1 0 1 0 1 0 
1 1 1 0 1 0 1 0 1 0 1 0 1 0 1 1 
1 0 1 0 1 0 1 0 1 0 1 0 1 0 1 0 
1 0 1 0 1 0 1 0 1 0 1 0 1 0 1 0 
1 1 1 0 1 0 1 0 1 0 1 1 1 0 1 0 
1 1 1 0 1 0 1 0 1 0 1 1 1 0 1 0 
1 0 1 0 1 0 1 0 1 0 1 0 1 -1 1 0 
1 0 1 -1 1 0 1 -1 1 0 1 -1 1 0 1 -1 
1 0 1 0 1 1 1 1 1 1 1 1 1 1 1 1 
1 1 1 1 0 1 2 2 1 1 1 1 1 1 1 1 
1 0 1 1 1 1 1 0 1 1 1 0 1 0 1 0 
1 0 1 -1 1 0 1 -1 0 -1 2 -2 1 -1 0 -2 
2 -2 0 -2 1 -1 0 -2 2 -2 1 1 0 2 1 1 
0 3 1 1 0 3 1 1 0 3 1 1 0 4 1 1 
0 4 1 1 0 5 1 1 0 4 1 1 0 5 1 1 
0 5 1 1 0 6 1 1 0 6 1 1 0 5 1 1 
0 7 1 1 0 6 1 1 0 7 1 1 0 6 1 1 
0 7 1 1 0 7 1 1 0 7 1 1 0 7 1 1 
0 7 1 1 0 8 1 1 0 7 1 1 0 8 1 1 
0 7 1 1 0 8 1 1 0 7 1 1 0 8 1 1 
0 7 1 1 0 8 1 1 0 7 1 1 0 7 1 1 
0 8 1 1 0 6 1 1 0 8 1 1 0 6 1 1 
0 7 1 1 0 6 1 1 0 7 1 1 0 6 1 1 
0 6 1 1 0 6 1 1 0 6 1 1 0 5 1 1 
0 6 1 1 0 5 1 1 0 5 1 1 0 5 1 1 
0 5 1 1 0 5 1 1 0 4 1 1 0 5 1 1 
0 4 1 1 0 4 1 1 0 5 1 1 0 4 1 1 
0 4 1 1 0 3 1 1 0 4 1 1 0 4 1 1 
0 4 1 1 0 3 1 1 0 4 1 1 0 3 1 1 
0 3 1 1 0 3 1 1 0 3 1 1 0 3 1 1 
0 3 1 1 0 3 1 1 0 3 1 1 0 2 1 1 
0 3 1 1 0 2 1 1 0 2 1 1 0 2 1 1 
0 2 1 1 0 3 4444 2417 300 MP stroke
2 2 0 2 2 2 0 2 2 2 1 1 1 1 1 0 
1 0 1 0 1 0 1 -1 0 -1 2 -2 0 -2 2 -2 
0 -2 1 -1 0 -3 1 -1 0 -2 1 -1 0 -4 1 -1 
0 -3 1 -1 0 -5 1 -1 0 -4 1 -1 0 -5 1 -1 
0 -6 1 -1 0 -5 1 -1 0 -7 1 -1 0 -6 1 -1 
0 -8 1 -1 0 -7 1 -1 0 -8 1 -1 0 -9 1 -1 
0 -9 1 -1 0 -8 1 -1 0 -9 1 -1 0 -10 1 -1 
0 -10 1 -1 0 -10 1 -1 0 -10 1 -1 0 -11 1 -1 
0 -10 1 -1 0 -12 1 -1 0 -10 1 -1 0 -11 1 -1 
0 -11 1 -1 0 -11 1 -1 0 -11 1 -1 0 -11 1 -1 
0 -11 1 -1 0 -11 1 -1 0 -11 1 -1 0 -10 1 -1 
0 -11 1 -1 0 -10 1 -1 0 -10 1 -1 0 -10 1 -1 
0 -9 1 -1 0 -9 1 -1 0 -9 1 -1 0 -9 1 -1 
0 -8 1 -1 0 -8 1 -1 0 -7 1 -1 0 -7 1 -1 
0 -5 1 -1 0 -6 1 -1 0 -4 2 -2 0 -1 0 1 
2 2 0 3 1 1 0 3 1 1 0 3 1 1 0 4 
1 1 0 3 1 1 0 3 1 1 0 3 1 1 0 2 
1 1 0 2 1 1 0 2 1 1 0 2 1 1 0 2 
1 1 0 2 2 2 0 2 2 2 0 1 2 2 1 1 
1 1 1 1 1 1 1 1 1 1 1 0 1 1 1 1 
1 0 1 1 1 1 1 0 1 1 1 1 1 1 1 1 
1 1 1 1 1 1 0 2 2 2 0 1 2 2 0 2 
2 2 0 2 1 1 0 1 1 1 0 2 1 1 0 2 
1 1 0 2 1 1 0 2 1 1 0 2 1 1 0 2 
1 1 0 3 1 1 0 3 1 1 0 3 1 1 0 3 
1 1 0 3 1 1 0 3 1 1 0 3 1 1 0 4 
1 1 0 3 1 1 0 4 1 1 0 3 1 1 0 4 
1 1 0 4 1 1 0 3 1 1 0 3 1 1 0 4 
1 1 0 4 1 1 0 4 1 1 0 3 1 1 0 4 
1 1 0 4 1 1 0 3 1 1 0 4 1 1 0 3 
1 1 0 4 1 1 0 3 1 1 0 3 1 1 0 4 
1 1 0 3 1 1 0 3 1 1 0 3 1 1 0 3 
1 1 0 2 1 1 0 3 1 1 0 3 1 1 0 2 
1 1 0 3 1 1 0 2 1 1 0 2 1 1 0 3 
1 1 0 2 1 1 0 2 1 1 0 2 1 1 0 3 
1 1 0 2 1 1 0 2 1 1 0 2 1 1 0 2 
1 1 0 2 1 1 0 3 1 1 0 2 1 1 0 3 
1 1 0 2 1 1 4268 2560 300 MP stroke
0 3 1 1 0 2 1 1 0 3 1 1 0 3 1 1 
0 3 1 1 0 3 1 1 0 3 1 1 0 4 1 1 
0 3 1 1 0 4 1 1 0 3 1 1 0 4 1 1 
0 4 1 1 0 4 1 1 0 4 1 1 0 4 1 1 
0 5 1 1 0 4 1 1 0 4 1 1 0 5 1 1 
0 4 1 1 0 5 1 1 0 4 1 1 0 5 1 1 
0 4 1 1 0 4 1 1 0 5 1 1 0 4 1 1 
0 4 1 1 0 4 1 1 0 4 1 1 0 3 1 1 
0 3 1 1 0 4 1 1 0 2 1 1 0 3 1 1 
0 2 1 1 0 2 1 1 0 3 2 2 0 2 2 2 
1 1 1 1 1 0 1 0 1 0 1 -1 0 -1 2 -2 
0 -2 2 -2 0 -2 1 -1 0 -2 1 -1 0 -2 1 -1 
0 -3 1 -1 0 -3 1 -1 0 -3 1 -1 0 -4 1 -1 
0 -4 1 -1 0 -3 1 -1 0 -4 1 -1 0 -4 1 -1 
0 -4 1 -1 0 -5 1 -1 0 -4 1 -1 0 -4 1 -1 
0 -4 1 -1 0 -4 1 -1 0 -3 1 -1 0 -4 1 -1 
0 -3 1 -1 0 -3 1 -1 0 -3 1 -1 0 -2 1 -1 
0 -2 1 -1 0 -2 1 -1 0 -2 2 -2 1 -1 1 -1 
1 0 1 0 1 1 0 2 2 2 0 1 1 1 0 2 
1 1 0 3 1 1 0 3 1 1 0 4 1 1 0 4 
1 1 0 5 1 1 0 4 1 1 0 6 1 1 0 6 
1 1 0 6 1 1 0 7 1 1 0 6 1 1 0 7 
1 1 0 7 1 1 0 8 1 1 0 7 1 1 0 8 
1 1 0 7 1 1 0 7 1 1 0 7 1 1 0 6 
1 1 0 7 1 1 0 6 1 1 0 6 1 1 0 6 
1 1 0 5 1 1 0 4 1 1 0 4 1 1 0 3 
1 1 0 4 2 2 0 2 1 1 1 1 1 0 1 0 
0 -1 2 -2 0 -2 1 -1 0 -3 1 -1 0 -3 1 -1 
0 -5 1 -1 0 -5 1 -1 0 -6 1 -1 0 -7 1 -1 
0 -8 1 -1 0 -9 1 -1 0 -9 1 -1 0 -11 1 -1 
0 -10 1 -1 0 -12 1 -1 0 -12 1 -1 0 -13 1 -1 
0 -13 1 -1 0 -14 1 -1 0 -14 1 -1 0 -14 1 -1 
0 -15 1 -1 0 -15 1 -1 0 -16 1 -1 0 -15 1 -1 
0 -16 1 -1 0 -15 1 -1 0 -14 1 -2 0 -15 1 -1 
0 -15 1 -1 0 -16 1 -1 0 -14 1 -1 0 -15 1 -1 
0 -14 1 -1 0 -14 1 -1 0 -13 1 -1 0 -13 1 -1 
0 -12 1 -1 0 -12 1 -1 0 -11 1 -1 0 -11 1 -1 
0 -10 1 -1 0 -9 4104 2800 300 MP stroke
1 -1 0 -9 1 -1 0 -9 1 -1 0 -7 1 -1 0 -7 
1 -1 0 -6 1 -1 0 -5 1 -1 0 -5 1 -1 0 -4 
1 -1 0 -4 1 -1 0 -3 1 -1 0 -1 1 -1 0 -3 
2 -2 1 -1 1 -1 1 0 1 -1 1 0 1 0 1 -1 
1 0 1 0 1 0 1 -1 1 0 1 0 1 0 1 0 
1 0 1 0 1 1 1 0 1 0 1 1 1 0 1 1 
1 0 1 1 1 0 1 1 1 0 1 0 1 0 1 0 
1 0 1 0 1 -1 1 0 1 -1 1 0 1 -1 1 -1 
1 0 1 -1 1 -1 1 -1 1 -1 1 -1 1 -1 1 -1 
1 -1 1 -1 1 -1 1 -1 1 0 1 -1 1 0 1 0 
1 1 1 0 1 0 1 1 1 0 1 1 1 0 1 0 
1 0 1 1 1 0 1 0 1 0 1 0 1 0 1 -1 
1 0 1 0 1 0 1 0 1 0 1 0 1 0 1 0 
1 0 1 0 1 1 1 0 1 0 1 1 1 0 1 1 
1 0 1 1 1 0 1 0 1 0 1 1 1 0 1 0 
1 -1 1 0 1 0 1 -1 1 0 1 -1 1 -1 1 -1 
1 -1 1 0 1 -1 1 0 1 0 0 1 2 2 0 1 
2 2 0 2 2 2 0 2 2 2 0 2 2 2 0 2 
2 2 0 2 2 2 0 1 2 2 1 1 1 1 1 1 
1 1 1 0 1 0 1 0 1 0 1 -1 1 -1 0 -2 
2 -2 0 -2 2 -2 0 -2 1 -1 0 -2 1 -1 0 -3 
1 -1 0 -2 1 -1 0 -2 1 -1 0 -2 1 -1 1 0 
-1 0 2 2 0 3 1 1 0 5 1 1 0 4 1 1 
0 5 1 1 0 5 1 1 0 5 1 1 0 5 1 1 
0 5 1 1 0 5 1 1 0 5 1 1 0 4 1 1 
0 5 1 1 0 3 1 1 0 4 1 1 0 3 1 1 
0 2 1 1 0 2 1 1 0 1 2 2 1 0 0 -1 
2 -2 0 -1 1 -1 0 -3 1 -1 0 -4 1 -1 0 -6 
1 -1 0 -6 1 -1 0 -8 1 -1 0 -9 1 -1 0 -11 
1 -1 0 -10 1 -1 0 -9 1 -1 0 -2 1 1 0 12 
1 1 0 16 1 1 0 18 1 2 0 21 1 2 0 22 
1 1 0 25 1 2 0 25 1 2 0 28 1 2 0 27 
1 2 0 29 1 2 0 32 1 2 0 31 1 2 0 35 
1 2 0 33 1 3 0 36 1 2 0 35 1 3 0 38 
1 2 0 37 1 2 0 39 1 3 0 37 1 3 0 40 
1 3 0 37 1 3 0 38 1 2 0 41 1 3 0 37 
1 3 0 40 1 3 0 37 1 2 0 39 1 3 0 36 
1 3 0 37 1 3 3881 1850 300 MP stroke
0 34 1 3 0 36 1 2 0 33 1 2 0 32 1 2 
0 33 1 2 0 29 1 2 0 30 1 2 0 27 1 2 
0 27 1 1 0 24 1 2 0 23 1 2 0 21 1 1 
0 20 1 2 0 17 1 1 0 16 1 1 0 15 1 1 
0 13 1 1 0 11 1 1 0 9 1 1 0 8 1 1 
0 6 1 1 0 4 1 1 0 4 2 2 1 1 1 0 
-1 0 2 -2 0 -2 1 -1 0 -2 1 -1 0 -4 1 -1 
0 -5 1 -1 0 -5 1 -1 0 -6 1 -1 0 -6 1 -1 
0 -7 1 -1 0 -7 1 -1 0 -7 1 -1 0 -7 1 -1 
0 -7 1 -1 0 -8 1 -1 0 -6 1 -1 0 -7 1 -1 
0 -6 1 -1 0 -6 1 -1 0 -4 1 -1 0 -5 1 -1 
0 -3 1 -1 0 -3 1 -1 0 -3 2 -2 1 -1 1 0 
1 0 -1 0 2 2 0 2 1 1 0 2 1 1 0 4 
1 1 0 5 1 1 0 5 1 1 0 7 1 1 0 7 
1 1 0 8 1 1 0 9 1 1 0 10 1 1 0 10 
1 1 0 12 1 1 0 12 1 1 0 13 1 1 0 12 
1 1 0 13 1 1 0 14 1 1 0 14 1 1 0 14 
1 1 0 14 1 1 0 14 1 1 0 14 1 1 0 14 
1 1 0 13 1 1 0 14 1 1 0 12 1 1 0 12 
1 1 0 11 1 1 0 10 1 1 0 9 1 1 0 8 
1 1 0 7 1 1 0 6 1 1 0 4 1 1 0 3 
1 1 0 1 1 1 1 1 -1 0 2 -2 0 -1 1 -1 
0 -4 1 -1 0 -6 1 -1 0 -7 1 -1 0 -10 1 -1 
0 -10 1 -1 0 -14 1 -1 0 -15 1 -1 0 -18 1 -1 
0 -18 1 -2 0 -21 1 -2 0 -21 1 -2 0 -25 1 -2 
0 -25 1 -2 0 -28 1 -2 0 -28 1 -2 0 -30 1 -2 
0 -33 1 -2 0 -33 1 -2 0 -36 1 -2 0 -34 1 -3 
0 -38 1 -2 0 -37 1 -2 0 -40 1 -3 0 -37 1 -3 
0 -38 1 -3 0 -41 1 -3 0 -39 1 -3 0 -42 1 -2 
0 -39 1 -3 0 -42 1 -3 0 -39 1 -3 0 -41 1 -3 
0 -38 1 -3 0 -40 1 -3 0 -37 1 -2 0 -37 1 -2 
0 -39 1 -2 0 -35 1 -2 0 -37 1 -2 0 -33 1 -2 
0 -34 1 -2 0 -31 1 -2 0 -32 1 -2 0 -28 1 -2 
0 -29 1 -2 0 -26 1 -1 0 -26 1 -2 0 -23 1 -2 
0 -21 1 -2 0 -22 1 -1 0 -19 1 -1 0 -19 1 -1 
0 -16 1 -1 0 -15 1 -1 0 -13 1 -1 0 -12 1 -1 
0 -9 1 -1 0 -8 1 -1 0 -6 1 -1 0 -5 1 -1 
0 -3 1 -1 0 -3 3727 2807 300 MP stroke
2 -2 1 -1 0 -1 2 -2 1 -1 0 -2 2 -2 0 -2 
1 -1 0 -3 1 -1 0 -4 1 -1 0 -5 1 -1 0 -7 
1 -1 0 -7 1 -1 0 -8 1 -1 0 -9 1 -1 0 -7 
1 -1 0 -1 0 1 1 1 0 10 1 1 0 15 1 1 
0 16 1 2 0 19 1 2 0 20 1 1 0 23 1 2 
0 23 1 1 0 26 1 2 0 26 1 2 0 28 1 2 
0 29 1 2 0 31 1 2 0 31 1 2 0 31 1 3 
0 35 1 2 0 33 1 3 0 36 1 3 0 34 1 3 
0 38 1 2 0 36 1 3 0 39 1 2 0 37 1 2 
0 40 1 2 0 37 1 3 0 37 1 2 0 40 1 2 
0 37 1 2 0 39 1 3 0 36 1 2 0 38 1 2 
0 35 1 3 0 36 1 2 0 34 1 2 0 32 1 3 
0 33 1 3 0 30 1 2 0 32 1 2 0 28 1 2 
0 29 1 2 0 26 1 2 0 26 1 2 0 24 1 1 
0 24 1 1 0 21 1 2 0 21 1 1 0 18 1 1 
0 18 1 1 0 16 1 1 0 14 1 1 0 13 1 1 
0 11 1 1 0 10 1 1 0 8 1 1 0 7 1 1 
0 6 1 1 0 4 1 1 0 4 2 2 1 1 1 0 
1 -1 0 -2 1 -1 0 -3 1 -1 0 -3 1 -1 0 -5 
1 -1 0 -6 1 -1 0 -7 1 -1 0 -7 1 -1 0 -9 
1 -1 0 -9 1 -1 0 -11 1 -1 0 -10 1 -1 0 -12 
1 -1 0 -12 1 -1 0 -12 1 -1 0 -14 1 -1 0 -13 
1 -1 0 -15 1 -1 0 -14 1 -1 0 -15 1 -1 0 -15 
1 -1 0 -15 1 -1 0 -16 1 -1 0 -14 1 -2 0 -16 
1 -1 0 -15 1 -1 0 -16 1 -1 0 -14 1 -1 0 -16 
1 -1 0 -15 1 -1 0 -15 1 -1 0 -14 1 -1 0 -14 
1 -1 0 -14 1 -1 0 -13 1 -1 0 -13 1 -1 0 -13 
1 -1 0 -12 1 -1 0 -11 1 -1 0 -12 1 -1 0 -10 
1 -1 0 -10 1 -1 0 -10 1 -1 0 -9 1 -1 0 -8 
1 -1 0 -8 1 -1 0 -8 1 -1 0 -7 1 -1 0 -7 
1 -1 0 -7 1 -1 0 -6 1 -1 0 -6 1 -1 0 -5 
1 -1 0 -5 1 -1 0 -6 1 -1 0 -4 1 -1 0 -4 
1 -1 0 -5 1 -1 0 -4 1 -1 0 -4 1 -1 0 -4 
1 -1 0 -5 1 -1 0 -3 1 -1 0 -5 1 -1 0 -4 
1 -1 0 -4 1 -1 0 -4 1 -1 0 -4 1 -1 0 -4 
1 -1 0 -5 1 -1 0 -4 1 -1 0 -5 1 -1 0 -4 
1 -1 0 -5 1 -1 0 -5 1 -1 0 -5 1 -1 0 -5 
1 -1 0 -5 1 -1 3571 2045 300 MP stroke
0 -5 1 -1 0 -6 1 -1 0 -5 1 -1 0 -6 1 -1 
0 -5 1 -1 0 -6 1 -1 0 -5 1 -1 0 -6 1 -1 
0 -5 1 -1 0 -6 1 -1 0 -5 1 -1 0 -5 1 -1 
0 -5 1 -1 0 -5 1 -1 0 -5 1 -1 0 -5 1 -1 
0 -4 1 -1 0 -5 1 -1 0 -4 1 -1 0 -4 1 -1 
0 -3 1 -1 0 -4 1 -1 0 -3 1 -1 0 -2 1 -1 
0 -3 1 -1 0 -2 1 -1 0 -2 1 -1 0 -2 1 -1 
0 -2 2 -2 0 -1 2 -2 1 -1 1 0 1 -1 1 0 
1 0 1 0 1 1 1 0 1 1 1 1 1 1 1 1 
1 1 1 1 0 1 2 2 1 0 1 1 1 1 1 1 
1 0 1 0 1 0 1 -1 1 -1 0 -1 2 -2 0 -2 
2 -2 0 -2 1 -1 0 -3 1 -1 0 -3 1 -1 0 -4 
1 -1 0 -4 1 -1 0 -4 1 -1 0 -5 1 -1 0 -6 
1 -1 0 -6 1 -1 0 -7 1 -1 0 -8 1 -1 0 -7 
1 -1 0 -9 1 -1 0 -9 1 -1 0 -9 1 -1 0 -10 
1 -1 0 -11 1 -1 0 -10 1 -1 0 -11 1 -1 0 -12 
1 -1 0 -12 1 -1 0 -13 1 -1 0 -12 1 -1 0 -13 
1 -1 0 -13 1 -1 0 -14 1 -1 0 -13 1 -1 0 -14 
1 -1 0 -14 1 -1 0 -13 1 -1 0 -14 1 -1 0 -15 
1 -1 0 -13 1 -1 0 -13 1 -1 0 -15 1 -1 0 -13 
1 -1 0 -13 1 -1 0 -13 1 -1 0 -13 1 -1 0 -12 
1 -1 0 -13 1 -1 0 -12 1 -1 0 -11 1 -1 0 -11 
1 -1 0 -11 1 -1 0 -11 1 -1 0 -9 1 -1 0 -10 
1 -1 0 -9 1 -1 0 -9 1 -1 0 -8 1 -1 0 -8 
1 -1 0 -7 1 -1 0 -7 1 -1 0 -7 1 -1 0 -5 
1 -1 0 -6 1 -1 0 -5 1 -1 0 -5 1 -1 0 -4 
1 -1 0 -4 1 -1 0 -3 1 -1 0 -3 1 -1 0 -3 
1 -1 0 -2 1 -1 0 -2 1 -1 0 -3 2 -2 0 -2 
2 -2 0 -1 2 -2 1 -1 1 -1 1 0 1 -1 1 -1 
1 0 1 0 1 -1 1 0 1 0 1 0 1 0 1 0 
1 0 1 0 1 0 1 0 1 0 1 0 1 0 1 0 
1 0 1 -1 1 0 1 0 1 0 1 -1 1 0 1 0 
1 -1 1 0 1 -1 1 -1 1 0 1 -1 1 0 1 -1 
1 -1 1 -1 1 0 1 -1 1 -1 1 -1 1 -1 1 0 
1 -1 1 -1 1 -1 1 0 1 -1 1 -1 1 0 1 -1 
1 -1 1 0 1 -1 1 0 1 0 1 0 1 0 1 0 
1 0 1 0 1 0 1 1 1 0 1 0 1 0 1 0 
1 0 1 0 1 0 3366 2894 300 MP stroke
1 0 1 0 1 0 1 0 1 0 1 0 1 0 1 0 
1 0 1 0 1 -1 1 0 1 0 1 0 1 0 1 0 
1 0 1 0 1 0 1 0 1 0 1 0 1 0 1 1 
1 0 1 0 1 0 1 0 1 1 1 0 1 0 1 0 
1 0 1 0 1 1 1 0 1 0 1 0 1 0 1 0 
1 0 1 0 1 1 1 0 1 0 1 0 1 0 1 0 
1 -1 1 0 1 0 1 0 1 0 1 0 1 0 1 0 
1 0 1 0 1 0 1 0 1 0 1 0 1 0 1 0 
1 0 1 0 1 1 1 0 1 0 1 1 1 0 1 0 
1 1 1 0 1 0 1 0 1 1 1 0 1 0 1 0 
1 0 1 0 1 0 1 0 1 0 1 0 1 -1 1 0 
1 0 1 -1 1 0 1 -1 1 0 1 0 1 0 1 0 
1 0 1 0 1 1 1 1 1 1 1 1 1 1 1 1 
1 1 1 1 1 1 1 1 1 1 1 1 1 1 1 1 
1 1 1 0 1 0 1 1 1 0 1 -1 1 0 1 -1 
1 -1 1 -1 1 -1 0 -2 2 -2 0 -2 2 -2 0 -2 
1 -1 1 -1 -1 0 2 2 0 2 1 1 0 3 1 1 
0 3 1 1 0 5 1 1 0 4 1 1 0 5 1 1 
0 5 1 1 0 6 1 1 0 6 1 1 0 6 1 1 
0 7 1 1 0 7 1 1 0 7 1 1 0 8 1 1 
0 8 1 1 0 8 1 1 0 8 1 1 0 9 1 1 
0 9 1 1 0 9 1 1 0 10 1 1 0 9 1 1 
0 9 1 1 0 10 1 1 0 10 1 1 0 10 1 1 
0 9 1 1 0 11 1 1 0 9 1 1 0 10 1 1 
0 10 1 1 0 10 1 1 0 9 1 1 0 9 1 1 
0 9 1 1 0 9 1 1 0 9 1 1 0 9 1 1 
0 8 1 1 0 8 1 1 0 8 1 1 0 8 1 1 
0 7 1 1 0 7 1 1 0 6 1 1 0 7 1 1 
0 6 1 1 0 6 1 1 0 5 1 1 0 5 1 1 
0 5 1 1 0 4 1 1 0 4 1 1 0 4 1 1 
0 3 1 1 0 3 1 1 0 3 1 1 0 2 1 1 
0 3 1 1 0 1 1 1 0 2 1 1 0 2 2 2 
0 2 2 2 1 1 1 1 1 1 1 1 1 0 1 1 
1 0 1 0 1 1 1 0 1 0 1 -1 1 0 1 0 
1 0 1 0 1 0 1 -1 1 0 1 0 1 0 1 0 
1 0 1 0 1 1 1 0 1 0 1 1 1 1 1 1 
1 1 1 1 1 1 0 1 2 2 0 1 2 2 0 2 
2 2 0 3 2 2 3130 2384 300 MP stroke
0 3 2 2 0 2 1 1 0 2 1 1 0 2 1 1 
0 2 1 1 0 3 1 1 0 2 1 1 0 2 1 1 
0 3 1 1 0 2 1 1 0 3 1 1 0 2 1 1 
0 3 1 1 0 3 1 1 0 2 1 1 0 3 1 1 
0 2 1 1 0 2 1 1 0 2 1 1 0 3 1 1 
0 1 1 1 0 2 1 1 0 2 1 1 0 1 1 1 
0 2 2 2 1 1 1 1 1 1 1 1 1 0 1 -1 
1 0 1 -1 0 -2 2 -2 0 -2 1 -1 0 -2 1 -1 
0 -2 1 -1 0 -3 1 -1 0 -3 1 -1 0 -4 1 -1 
0 -5 1 -1 0 -5 1 -1 0 -5 1 -1 0 -6 1 -1 
0 -7 1 -1 0 -6 1 -1 0 -8 1 -1 0 -8 1 -1 
0 -9 1 -1 0 -8 1 -1 0 -10 1 -1 0 -10 1 -1 
0 -10 1 -1 0 -11 1 -1 0 -11 1 -1 0 -11 1 -1 
0 -12 1 -1 0 -11 1 -1 0 -12 1 -1 0 -13 1 -1 
0 -12 1 -1 0 -13 1 -1 0 -12 1 -1 0 -14 1 -1 
0 -12 1 -1 0 -13 1 -1 0 -13 1 -1 0 -12 1 -1 
0 -14 1 -1 0 -13 1 -1 0 -12 1 -1 0 -12 1 -1 
0 -12 1 -1 0 -12 1 -1 0 -12 1 -1 0 -11 1 -1 
0 -12 1 -1 0 -10 1 -1 0 -10 1 -1 0 -10 1 -1 
0 -9 1 -1 0 -10 1 -1 0 -8 1 -1 0 -8 1 -1 
0 -8 1 -1 0 -7 1 -1 0 -6 1 -1 0 -6 1 -1 
0 -5 1 -1 0 -5 1 -1 0 -3 1 -1 0 -3 2 -2 
1 -1 1 0 1 1 0 1 2 2 1 1 1 1 1 1 
1 1 1 1 1 0 1 0 1 0 1 -1 1 0 0 -1 
2 -2 0 -1 2 -2 0 -1 2 -2 0 -2 2 -2 0 -2 
1 -1 0 -2 2 -2 0 -2 2 -2 1 -1 1 1 0 2 
2 2 0 2 2 2 0 2 1 1 1 1 0 2 1 1 
0 1 2 2 0 1 2 2 1 1 1 1 1 0 1 1 
1 0 1 0 1 0 1 -1 1 -1 0 -1 2 -2 1 -1 
0 -2 2 -2 1 -1 1 -1 1 0 1 1 0 2 1 1 
0 3 1 1 0 3 1 1 0 5 1 1 0 5 1 1 
0 6 1 1 0 6 1 1 0 7 1 1 0 7 1 1 
0 8 1 1 0 8 1 1 0 9 1 1 0 9 1 1 
0 9 1 1 0 10 1 1 0 10 1 1 0 10 1 1 
0 11 1 1 0 10 1 1 0 11 1 1 0 11 1 1 
0 12 1 1 0 11 1 1 0 12 1 1 0 11 1 1 
0 13 1 1 0 11 1 1 0 12 1 1 0 11 1 1 
0 11 1 1 0 12 2945 2573 300 MP stroke
1 1 0 10 1 1 0 11 1 1 0 10 1 1 0 11 
1 1 0 10 1 1 0 9 1 1 0 9 1 1 0 9 
1 1 0 8 1 1 0 7 1 1 0 8 1 1 0 6 
1 1 0 7 1 1 0 5 1 1 0 5 1 1 0 4 
1 1 0 4 1 1 0 3 1 1 0 3 1 1 0 1 
1 1 0 2 1 1 1 1 1 1 1 1 1 0 1 -1 
1 -1 0 -1 2 -2 0 -2 1 -1 0 -1 1 -1 0 -2 
1 -1 0 -3 1 -1 0 -2 1 -1 0 -3 1 -1 0 -3 
1 -1 0 -3 1 -1 0 -3 1 -1 0 -3 1 -1 0 -3 
1 -1 0 -3 1 -1 0 -3 1 -1 0 -2 1 -1 0 -3 
1 -1 0 -2 1 -1 0 -3 2 -2 0 -2 2 -2 1 -1 
1 -1 1 0 1 1 0 1 2 2 0 1 1 1 0 2 
1 1 0 2 1 1 0 3 1 1 0 4 1 1 0 5 
1 1 0 4 1 1 0 6 1 1 0 6 1 1 0 7 
1 1 0 6 1 1 0 8 1 1 0 8 1 1 0 8 
1 1 0 9 1 1 0 8 1 1 0 10 1 1 0 9 
1 1 0 9 1 1 0 9 1 1 0 10 1 1 0 9 
1 1 0 9 1 1 0 9 1 1 0 8 1 1 0 9 
1 1 0 8 1 1 0 7 1 1 0 7 1 1 0 6 
1 1 0 6 1 1 0 5 1 1 0 4 1 1 0 3 
1 1 0 3 1 1 0 3 2 2 1 0 1 0 0 -1 
2 -2 0 -2 1 -1 0 -3 1 -1 0 -4 1 -1 0 -5 
1 -1 0 -7 1 -1 0 -7 1 -1 0 -8 1 -1 0 -9 
1 -1 0 -11 1 -1 0 -10 1 -1 0 -13 1 -1 0 -12 
1 -1 0 -14 1 -1 0 -14 1 -1 0 -14 1 -1 0 -16 
1 -1 0 -16 1 -1 0 -17 1 -1 0 -16 1 -2 0 -17 
1 -2 0 -16 1 -2 0 -18 1 -1 0 -18 1 -1 0 -19 
1 -1 0 -17 1 -2 0 -18 1 -2 0 -17 1 -1 0 -19 
1 -1 0 -17 1 -1 0 -18 1 -2 0 -16 1 -1 0 -17 
1 -1 0 -17 1 -1 0 -15 1 -1 0 -16 1 -1 0 -15 
1 -1 0 -14 1 -1 0 -13 1 -1 0 -13 1 -1 0 -12 
1 -1 0 -11 1 -1 0 -11 1 -1 0 -9 1 -1 0 -8 
1 -1 0 -6 1 -1 0 -6 1 -1 0 -4 1 -1 0 -2 
1 -1 1 -1 1 0 1 1 0 2 2 2 0 1 2 2 
0 1 2 2 1 0 1 1 1 0 1 -1 1 -1 1 -1 
1 -1 0 -1 2 -2 0 -2 2 -2 0 -3 2 -2 0 -3 
2 -2 0 -2 1 -1 0 -3 2 -2 0 -2 1 -1 0 -1 
1 -1 0 -2 2 -2 2769 2889 300 MP stroke
1 -1 1 -1 1 1 1 1 1 1 1 1 0 1 2 2 
1 1 1 1 1 1 1 0 1 1 1 0 1 1 1 0 
1 0 1 0 1 -1 1 0 1 0 1 -1 1 -1 1 0 
1 -1 1 -1 1 -1 1 -1 1 -1 1 -1 1 0 1 -1 
1 -1 1 0 1 0 1 -1 1 1 1 0 1 1 1 0 
1 1 1 1 1 0 1 1 1 1 1 0 1 1 1 0 
1 1 1 0 1 1 1 0 1 0 1 0 1 0 1 0 
1 0 1 -1 1 0 1 0 1 -1 1 -1 1 0 1 -1 
1 -1 1 -1 1 -1 1 0 1 -1 1 -1 1 0 1 0 
1 0 1 0 1 1 1 1 1 1 1 1 1 1 1 1 
1 1 1 1 1 1 1 1 1 1 1 0 1 1 1 0 
1 0 1 1 1 0 1 0 1 0 1 0 1 0 1 0 
1 0 1 1 1 1 0 1 2 2 1 1 0 3 2 2 
0 3 1 1 0 2 1 1 0 2 1 1 0 3 1 1 
0 2 1 1 0 4 1 1 0 2 1 1 0 4 1 1 
0 2 1 1 0 3 1 1 0 3 1 1 0 3 1 1 
0 2 1 1 0 3 1 1 0 3 2 2 0 2 1 1 
0 1 2 2 1 1 1 0 1 0 1 -1 0 -2 2 -2 
0 -2 1 -1 0 -3 1 -1 0 -3 1 -1 0 -4 1 -1 
0 -5 1 -1 0 -5 1 -1 0 -5 1 -1 0 -4 1 -1 
0 -3 1 -1 1 -1 0 3 1 1 0 6 1 1 0 10 
1 1 0 13 1 1 0 14 1 1 0 17 1 2 0 17 
1 2 0 20 1 1 0 20 1 2 0 23 1 1 0 23 
1 1 0 25 1 2 0 24 1 2 0 25 1 2 0 28 
1 2 0 26 1 2 0 30 1 2 0 28 1 2 0 31 
1 2 0 29 1 2 0 32 1 2 0 31 1 2 0 33 
1 2 0 31 1 2 0 31 1 2 0 34 1 2 0 31 
1 2 0 34 1 2 0 32 1 2 0 33 1 3 0 31 
1 2 0 33 1 2 0 31 1 2 0 32 1 2 0 30 
1 2 0 30 1 2 0 31 1 2 0 28 1 2 0 30 
1 2 0 27 1 2 0 28 1 2 0 26 1 2 0 27 
1 2 0 24 1 2 0 25 1 2 0 23 1 2 0 23 
1 2 0 21 1 2 0 22 1 1 0 20 1 2 0 19 
1 1 0 20 1 1 0 18 1 1 0 18 1 1 0 16 
1 1 0 17 1 1 0 15 1 1 0 15 1 1 0 13 
1 1 0 14 1 1 0 12 1 1 0 11 1 1 0 11 
1 1 0 11 1 1 0 10 1 1 0 9 1 1 0 9 
1 1 0 8 1 1 2562 1220 300 MP stroke
0 8 1 1 0 8 1 1 0 7 1 1 0 6 1 1 
0 6 1 1 0 6 1 1 0 5 1 1 0 5 1 1 
0 4 1 1 0 4 1 1 0 3 1 1 0 4 1 1 
0 2 1 1 0 3 1 1 0 2 1 1 0 1 1 1 
0 2 2 2 1 1 1 0 1 0 1 0 1 -1 0 -1 
2 -2 0 -2 1 -1 0 -2 1 -1 0 -3 1 -1 0 -3 
1 -1 0 -4 1 -1 0 -4 1 -1 0 -5 1 -1 0 -6 
1 -1 0 -6 1 -1 0 -7 1 -1 0 -7 1 -1 0 -8 
1 -1 0 -8 1 -1 0 -9 1 -1 0 -9 1 -1 0 -10 
1 -1 0 -10 1 -1 0 -11 1 -1 0 -10 1 -1 0 -12 
1 -1 0 -11 1 -1 0 -11 1 -1 0 -13 1 -1 0 -12 
1 -1 0 -12 1 -1 0 -12 1 -1 0 -13 1 -1 0 -12 
1 -1 0 -13 1 -1 0 -12 1 -1 0 -13 1 -1 0 -12 
1 -1 0 -12 1 -1 0 -12 1 -1 0 -12 1 -1 0 -10 
1 -1 0 -12 1 -1 0 -10 1 -1 0 -10 1 -1 0 -11 
1 -1 0 -9 1 -1 0 -9 1 -1 0 -9 1 -1 0 -9 
1 -1 0 -8 1 -1 0 -8 1 -1 0 -7 1 -1 0 -8 
1 -1 0 -6 1 -1 0 -7 1 -1 0 -6 1 -1 0 -6 
1 -1 0 -6 1 -1 0 -5 1 -1 0 -6 1 -1 0 -5 
1 -1 0 -5 1 -1 0 -5 1 -1 0 -5 1 -1 0 -6 
1 -1 0 -5 1 -1 0 -5 1 -1 0 -5 1 -1 0 -6 
1 -1 0 -6 1 -1 0 -6 1 -1 0 -7 1 -1 0 -7 
1 -1 0 -7 1 -1 0 -7 1 -1 0 -9 1 -1 0 -8 
1 -1 0 -9 1 -1 0 -10 1 -1 0 -11 1 -1 0 -10 
1 -1 0 -13 1 -1 0 -11 1 -1 0 -14 1 -1 0 -13 
1 -1 0 -14 1 -1 0 -16 1 -1 0 -15 1 -1 0 -17 
1 -1 0 -17 1 -1 0 -18 1 -1 0 -18 1 -1 0 -19 
1 -2 0 -18 1 -2 0 -20 1 -2 0 -19 1 -2 0 -21 
1 -2 0 -20 1 -1 0 -23 1 -1 0 -21 1 -2 0 -21 
1 -1 0 -23 1 -2 0 -21 1 -2 0 -23 1 -2 0 -21 
1 -2 0 -23 1 -1 0 -22 1 -2 0 -21 1 -2 0 -22 
1 -2 0 -21 1 -1 0 -23 1 -1 0 -20 1 -2 0 -21 
1 -2 0 -19 1 -2 0 -20 1 -2 0 -18 1 -2 0 -19 
1 -1 0 -18 1 -1 0 -18 1 -1 0 -17 1 -1 0 -15 
1 -2 0 -16 1 -1 0 -14 1 -1 0 -14 1 -1 0 -13 
1 -1 0 -13 1 -1 0 -11 1 -1 0 -11 1 -1 0 -10 
1 -1 0 -10 1 -1 0 -8 1 -1 0 -7 1 -1 0 -7 
1 -1 0 -6 1 -1 2408 2794 300 MP stroke
0 -6 1 -1 0 -5 1 -1 0 -4 1 -1 0 -4 1 -1 
0 -3 1 -1 0 -3 1 -1 0 -2 1 -1 0 -3 2 -2 
0 -2 2 -2 0 -1 2 -2 1 -1 1 0 1 -1 1 -1 
1 0 1 -1 1 0 1 0 1 -1 1 0 1 -1 1 0 
1 -1 1 0 1 -1 1 -1 1 0 1 -1 0 -1 2 -2 
1 -1 1 -1 0 -1 2 -2 1 -1 0 -2 2 -2 1 -1 
0 -2 2 -2 0 -1 2 -2 1 -1 0 -2 2 -2 0 -1 
2 -2 1 -1 1 -1 1 -1 1 -1 1 -1 1 -1 1 0 
1 0 1 -1 1 0 1 0 1 0 1 0 1 0 1 0 
1 0 1 0 1 0 1 0 1 0 1 0 1 -1 1 0 
1 0 1 -1 1 0 1 0 1 -1 1 0 1 -1 1 0 
1 -1 1 -1 1 0 1 -1 1 0 1 -1 1 0 1 -1 
1 0 1 0 1 0 1 0 1 0 1 0 1 0 1 0 
1 1 1 0 1 0 1 0 1 0 1 0 1 0 1 0 
1 0 1 0 1 0 1 0 1 0 1 0 1 0 1 0 
1 0 1 0 1 -1 1 0 1 0 1 0 1 0 1 0 
1 0 1 0 1 0 1 0 1 0 1 0 1 0 1 0 
1 0 1 0 1 0 1 0 1 1 1 0 1 0 1 0 
1 0 1 0 1 0 1 0 1 0 1 0 1 0 1 0 
1 0 1 0 1 -1 1 0 1 0 1 0 1 0 1 0 
1 0 1 0 1 0 1 0 1 0 1 0 1 0 1 -1 
1 0 1 0 1 0 1 0 1 0 1 0 1 0 1 0 
1 0 1 0 1 0 1 0 1 0 1 0 1 0 1 0 
1 0 1 0 1 0 1 0 1 0 1 0 1 0 1 0 
1 0 1 0 1 0 1 0 1 0 1 0 1 0 1 0 
1 0 1 0 1 0 1 0 1 0 1 0 1 0 1 0 
1 0 1 0 1 0 1 0 1 0 1 0 1 0 1 0 
1 0 1 0 1 0 1 0 1 0 1 0 1 0 1 0 
1 0 1 0 1 0 1 0 1 0 1 0 1 0 1 0 
1 0 1 0 1 0 1 0 1 0 1 0 1 0 1 0 
1 0 1 0 1 0 1 0 1 0 1 0 1 0 1 1 
1 0 1 0 1 0 1 0 1 0 1 0 1 0 1 0 
1 0 1 0 1 0 1 0 1 0 1 0 1 0 1 0 
1 0 1 0 1 0 1 0 1 0 1 0 1 0 1 0 
1 0 1 0 1 0 1 0 1 0 1 0 1 0 1 0 
1 0 1 0 1 0 1 0 1 0 1 0 1 0 1 0 
1 0 1 0 1 0 1 0 1 0 1 0 1 0 1 0 
1 0 1 0 1 0 2116 2895 300 MP stroke
1 0 1 0 1 0 1 0 1 0 1 0 1 0 1 0 
1 0 1 0 1 0 1 0 1 0 1 0 1 0 1 0 
1 0 1 0 1 0 1 0 1 0 1 0 1 0 1 0 
1 0 1 0 1 0 1 0 1 0 1 0 1 0 1 0 
1 1 1 0 1 0 1 0 1 0 1 1 1 0 1 0 
1 0 1 0 1 0 1 1 1 0 1 0 1 0 1 0 
1 0 1 0 1 -1 1 0 1 0 1 0 1 -1 1 0 
1 0 1 0 1 -1 1 0 1 1 1 0 1 1 1 1 
1 1 1 1 0 1 2 2 1 1 0 1 2 2 1 1 
0 2 2 2 1 1 0 2 2 2 0 2 2 2 0 1 
1 1 0 1 2 2 0 2 2 2 0 2 2 2 0 2 
2 2 1 1 0 2 2 2 0 1 2 2 0 1 2 2 
1 1 1 1 1 1 1 1 1 1 1 1 1 0 1 1 
1 0 1 1 1 0 1 0 1 0 1 0 1 -1 1 0 
1 -1 1 0 1 -1 1 -1 1 -1 1 -1 0 -1 2 -2 
1 -1 1 -1 0 -2 2 -2 0 -1 2 -2 1 -1 0 -2 
2 -2 0 -1 2 -2 0 -2 2 -2 1 -1 0 -2 2 -2 
1 -1 0 -2 2 -2 0 -1 2 -2 1 -1 0 -1 2 -2 
1 -1 1 -1 1 -1 1 -1 1 -1 1 -1 1 -1 1 -1 
1 0 1 -1 1 -1 1 0 1 -1 1 0 1 -1 1 0 
1 0 1 0 1 -1 1 0 1 0 1 0 1 0 1 0 
1 1 1 0 1 0 1 0 1 0 1 0 1 1 1 0 
1 0 1 0 1 0 1 1 1 0 1 0 1 0 1 0 
1 0 1 1 1 0 1 0 1 0 1 0 1 0 1 0 
1 0 1 0 1 0 1 0 1 0 1 0 1 0 1 0 
1 0 1 0 1 0 1 0 1 0 1 -1 1 0 1 0 
1 0 1 0 1 -1 1 0 1 0 1 0 1 0 1 -1 
1 0 1 0 1 0 1 0 1 0 1 0 1 0 1 0 
1 0 1 0 1 0 1 0 1 0 1 0 1 0 1 1 
1 0 1 0 1 0 1 0 1 1 1 0 1 0 1 0 
1 0 1 0 1 0 1 0 1 0 1 0 1 1 1 0 
1 0 1 0 1 -1 1 0 1 0 1 0 1 0 1 0 
1 0 1 0 1 0 1 0 1 0 1 -1 1 0 1 0 
1 0 1 0 1 0 1 -1 1 0 1 0 1 0 1 0 
1 -1 1 0 1 0 1 0 1 0 1 -1 1 0 1 0 
1 0 1 0 1 -1 1 0 1 0 1 0 1 0 1 0 
1 0 1 0 1 -1 1 0 1 0 1 0 1 0 1 0 
1 1 1 0 1 0 1818 2895 300 MP stroke
1 1 1 0 1 0 1 1 1 1 1 0 1 1 1 1 
1 0 1 1 1 1 1 1 1 1 1 1 1 1 1 1 
1 1 1 1 0 1 2 2 1 1 1 1 1 1 0 1 
2 2 1 1 1 1 1 1 1 1 1 1 1 1 1 1 
1 1 1 1 1 1 1 1 1 1 1 1 1 0 1 1 
1 0 1 1 1 0 1 1 1 0 1 0 1 0 1 0 
1 0 1 0 1 0 1 0 1 -1 1 0 1 -1 1 0 
1 -1 1 -1 1 0 1 -1 1 -1 1 -1 1 -1 1 -1 
1 -1 1 -1 0 -1 2 -2 1 -1 0 -1 2 -2 1 -1 
0 -1 2 -2 1 -1 0 -1 2 -2 0 -1 2 -2 0 -1 
2 -2 0 -1 2 -2 0 -1 2 -2 1 -1 1 -1 0 1 
2 2 1 1 0 1 2 2 0 1 2 2 0 1 2 2 
1 1 0 1 2 2 1 1 0 1 2 2 1 1 1 1 
0 1 2 2 1 1 1 1 1 1 1 1 1 1 1 1 
1 1 1 1 1 1 1 0 1 1 1 1 1 0 1 1 
1 0 1 1 1 0 1 0 1 1 1 0 1 0 1 0 
1 0 1 0 1 -1 1 0 1 0 1 -1 1 0 1 -1 
1 -1 1 0 1 -1 1 -1 1 -1 1 -1 1 -1 1 -1 
1 -1 1 -1 1 -1 1 -1 0 -1 2 -2 1 -1 1 -1 
0 -1 2 -2 1 -1 0 -1 2 -2 1 -1 1 -1 0 -1 
2 -2 1 -1 1 -1 1 -1 0 -1 2 -2 1 -1 1 -1 
1 0 -1 0 2 0 1 0 1 1 1 1 1 1 1 1 
1 1 1 0 1 1 1 1 1 0 1 1 1 0 1 1 
1 1 1 0 1 0 1 1 1 0 1 0 1 1 1 0 
1 0 1 0 1 0 1 0 1 1 1 0 1 0 1 0 
1 0 1 0 1 0 1 -1 1 0 1 0 1 0 1 0 
1 0 1 0 1 0 1 0 1 0 1 1 1 0 1 0 
1 0 1 0 1 1 1 0 1 1 1 0 1 1 1 1 
1 0 1 1 1 1 1 1 1 1 1 1 0 1 2 2 
0 1 2 2 0 1 2 2 1 1 0 2 2 2 0 2 
2 2 1 1 0 2 1 1 1 1 0 2 1 1 1 1 
0 2 1 1 1 1 0 2 2 2 0 2 2 2 0 2 
2 2 1 1 0 2 2 2 1 1 0 1 2 2 1 1 
1 1 1 1 1 1 1 1 1 1 1 0 1 1 1 1 
1 0 1 1 1 1 1 1 1 0 1 1 0 1 2 2 
1 1 1 1 0 2 2 2 0 3 2 2 0 2 1 1 
0 3 1 1 0 3 1 1 0 3 1 1 0 4 1 1 
0 4 1 1 0 5 1530 2765 300 MP stroke
1 1 0 6 1 1 0 6 1 1 0 6 1 1 0 7 
1 1 0 9 1 1 0 8 1 1 0 9 1 1 0 10 
1 1 0 11 1 1 0 11 1 1 0 12 1 1 0 13 
1 1 0 13 1 1 0 13 1 1 0 15 1 1 0 15 
1 1 0 16 1 1 0 15 1 1 0 17 1 1 0 16 
1 1 0 18 1 1 0 17 1 1 0 18 1 1 0 17 
1 1 0 18 1 1 0 17 1 1 0 18 1 2 0 16 
1 1 0 17 1 1 0 17 1 1 0 16 1 1 0 17 
1 1 0 14 1 1 0 16 1 1 0 13 1 1 0 13 
1 1 0 12 1 1 0 12 1 1 0 9 1 1 0 9 
1 1 0 8 1 1 0 7 1 1 0 5 1 1 0 4 
1 1 0 3 1 1 0 2 2 2 1 -1 1 -1 0 -2 
1 -1 0 -3 1 -1 0 -5 1 -1 0 -5 1 -1 0 -8 
1 -1 0 -7 1 -1 0 -10 1 -1 0 -9 1 -1 0 -12 
1 -1 0 -11 1 -1 0 -13 1 -1 0 -12 1 -1 0 -14 
1 -1 0 -14 1 -1 0 -13 1 -1 0 -15 1 -1 0 -14 
1 -1 0 -14 1 -1 0 -13 1 -1 0 -14 1 -1 0 -13 
1 -1 0 -13 1 -1 0 -11 1 -1 0 -11 1 -1 0 -9 
1 -1 0 -9 1 -1 0 -8 1 -1 0 -6 1 -1 0 -6 
1 -1 0 -5 1 -1 0 -3 1 -1 0 -3 2 -2 1 -1 
1 0 -1 0 2 2 0 1 1 1 0 1 1 1 0 3 
1 1 0 3 1 1 0 4 1 1 0 4 1 1 0 4 
1 1 0 5 1 1 0 5 1 1 0 4 1 1 0 4 
1 1 0 4 1 1 0 3 1 1 0 3 1 1 0 2 
1 1 1 1 1 1 0 -1 2 -2 0 -3 1 -1 0 -4 
1 -1 0 -7 1 -1 0 -8 1 -1 0 -11 1 -1 0 -12 
1 -1 0 -15 1 -2 0 -16 1 -1 0 -20 1 -2 0 -21 
1 -1 0 -25 1 -1 0 -26 1 -2 0 -29 1 -2 0 -29 
1 -2 0 -31 1 -2 0 -35 1 -2 0 -33 1 -2 0 -32 
1 -2 0 -18 1 -1 0 -1 0 9 1 2 0 30 1 2 
0 43 1 3 0 43 1 3 0 50 1 3 0 48 1 3 
0 53 1 3 0 50 1 4 0 50 1 4 0 54 1 3 
0 51 1 4 0 54 1 3 0 50 1 4 0 52 1 4 
0 48 1 4 0 50 1 4 0 46 1 3 0 44 1 3 
0 46 1 3 0 41 1 2 0 42 1 2 0 37 1 2 
0 36 1 3 0 31 1 2 0 30 1 2 0 26 1 2 
0 24 1 1 0 20 1 1 0 17 1 1 0 14 1 1 
0 10 1 1 0 7 1375 1546 300 MP stroke
1 1 0 3 1 1 0 1 0 -1 2 -2 0 -6 1 -1 
0 -8 1 -1 0 -12 1 -1 0 -15 1 -1 0 -17 1 -1 
0 -21 1 -2 0 -22 1 -2 0 -26 1 -2 0 -26 1 -2 
0 -31 1 -2 0 -30 1 -3 0 -34 1 -2 0 -34 1 -2 
0 -38 1 -2 0 -36 1 -3 0 -39 1 -3 0 -37 1 -3 
0 -41 1 -2 0 -39 1 -2 0 -39 1 -3 0 -41 1 -3 
0 -38 1 -2 0 -41 1 -3 0 -37 1 -3 0 -39 1 -2 
0 -36 1 -2 0 -37 1 -3 0 -33 1 -2 0 -32 1 -2 
0 -33 1 -2 0 -29 1 -2 0 -28 1 -2 0 -25 1 -2 
0 -24 1 -1 0 -21 1 -1 0 -19 1 -1 0 -15 1 -1 
0 -13 1 -1 0 -9 1 -1 0 -6 1 -1 0 -4 1 -1 
0 -2 1 -1 1 0 0 1 2 2 0 3 1 1 0 2 
1 1 0 3 1 1 0 3 1 1 0 3 1 1 0 4 
1 1 0 3 1 1 0 3 1 1 0 3 1 1 0 3 
1 1 0 3 1 1 0 4 1 1 0 3 1 1 0 4 
1 1 0 4 1 1 0 5 1 1 0 5 1 1 0 5 
1 1 0 6 1 1 0 7 1 1 0 7 1 1 0 7 
1 1 0 8 1 1 0 9 1 1 0 10 1 1 0 10 
1 1 0 10 1 1 0 11 1 1 0 12 1 1 0 12 
1 1 0 14 1 1 0 13 1 1 0 14 1 1 0 15 
1 1 0 15 1 1 0 15 1 2 0 16 1 1 0 16 
1 2 0 16 1 1 0 18 1 1 0 17 1 1 0 19 
1 1 0 18 1 1 0 19 1 2 0 18 1 1 0 19 
1 2 0 18 1 1 0 20 1 1 0 18 1 1 0 20 
1 1 0 18 1 1 0 18 1 1 0 19 1 1 0 17 
1 1 0 18 1 1 0 17 1 1 0 17 1 1 0 15 
1 1 0 15 1 1 0 14 1 1 0 14 1 1 0 12 
1 1 0 11 1 1 0 10 1 1 0 9 1 1 0 8 
1 1 0 7 1 1 0 5 1 1 0 4 1 1 0 3 
1 1 0 1 1 1 1 0 0 -1 2 -2 0 -3 1 -1 
0 -5 1 -1 0 -6 1 -1 0 -8 1 -1 0 -10 1 -1 
0 -12 1 -1 0 -13 1 -1 0 -15 1 -1 0 -17 1 -1 
0 -18 1 -1 0 -19 1 -1 0 -22 1 -2 0 -22 1 -2 
0 -25 1 -1 0 -25 1 -2 0 -29 1 -1 0 -28 1 -2 
0 -31 1 -2 0 -31 1 -2 0 -34 1 -2 0 -33 1 -2 
0 -34 1 -2 0 -37 1 -3 0 -38 1 -3 0 -36 1 -3 
0 -37 1 -2 0 -40 1 -3 0 -38 1 -2 0 -41 1 -2 
0 -37 1 -3 0 -37 1222 2731 300 MP stroke
1 -2 0 -31 1 -2 0 -22 1 -1 0 -7 1 1 0 13 
1 1 0 28 1 3 0 33 1 3 0 39 1 3 0 39 
1 3 0 43 1 2 0 41 1 2 0 43 1 3 0 40 
1 3 0 43 1 2 0 39 1 3 0 41 1 3 0 38 
1 3 0 37 1 2 0 39 1 2 0 35 1 3 0 36 
1 2 0 33 1 3 0 33 1 3 0 30 1 2 0 31 
1 2 0 27 1 2 0 27 1 1 0 27 1 1 0 24 
1 1 0 23 1 2 0 20 1 1 0 20 1 1 0 17 
1 1 0 16 1 1 0 13 1 1 0 12 1 1 0 10 
1 1 0 8 1 1 0 6 1 1 0 4 1 1 0 3 
1 1 1 1 1 0 -1 0 2 -2 0 -3 1 -1 0 -4 
1 -1 0 -7 1 -1 0 -7 1 -1 0 -10 1 -1 0 -11 
1 -1 0 -12 1 -1 0 -14 1 -1 0 -15 1 -1 0 -17 
1 -1 0 -17 1 -1 0 -20 1 -1 0 -19 1 -1 0 -22 
1 -1 0 -21 1 -2 0 -23 1 -1 0 -23 1 -1 0 -23 
1 -2 0 -25 1 -2 0 -24 1 -2 0 -26 1 -2 0 -25 
1 -2 0 -27 1 -2 0 -25 1 -2 0 -27 1 -2 0 -26 
1 -2 0 -27 1 -2 0 -26 1 -2 0 -27 1 -2 0 -26 
1 -1 0 -26 1 -1 0 -24 1 -1 0 -25 1 -2 0 -26 
1 -1 0 -24 1 -2 0 -25 1 -2 0 -22 1 -2 0 -24 
1 -1 0 -22 1 -1 0 -21 1 -2 0 -22 1 -1 0 -21 
1 -1 0 -19 1 -2 0 -18 1 -1 0 -18 1 -2 0 -16 
1 -1 0 -17 1 -1 0 -15 1 -1 0 -15 1 -1 0 -14 
1 -1 0 -12 1 -1 0 -12 1 -1 0 -11 1 -1 0 -11 
1 -1 0 -9 1 -1 0 -8 1 -1 0 -8 1 -1 0 -7 
1 -1 0 -5 1 -1 0 -5 1 -1 0 -4 1 -1 0 -3 
1 -1 0 -2 1 -1 1 0 1 0 0 1 2 2 1 1 
1 1 1 1 1 0 1 0 1 0 1 0 1 0 1 -1 
1 -1 1 0 1 -1 1 -1 1 0 1 -1 1 0 1 0 
1 0 1 1 1 0 1 1 1 0 1 1 1 0 1 1 
1 0 1 1 1 0 1 0 1 1 1 0 1 0 1 0 
1 0 1 -1 1 0 1 0 1 -1 1 -1 1 0 1 -1 
1 -1 1 0 1 -1 1 -1 1 -1 1 0 1 -1 1 -1 
1 -1 1 -1 1 0 1 -1 1 -1 1 0 1 0 1 0 
1 0 1 0 1 0 1 1 1 0 1 0 1 1 1 0 
1 0 1 0 1 0 1 0 1 0 1 0 1 0 1 0 
1 0 1 0 1 0 1 0 1 0 1 -1 1 0 1 0 
1 0 1 -1 1 0 1027 2894 300 MP stroke
1 0 1 0 1 -1 1 0 1 0 1 0 1 0 1 0 
1 0 1 0 1 0 1 0 1 0 1 0 1 0 1 0 
1 0 1 0 1 0 1 0 1 0 1 0 1 0 1 0 
1 0 1 0 1 0 1 0 1 0 1 0 1 0 1 0 
1 0 1 0 1 0 1 0 1 0 1 -1 1 0 1 0 
1 0 1 0 1 0 1 0 1 0 1 0 1 0 1 0 
1 0 1 0 1 0 1 0 1 0 1 0 1 1 1 0 
1 0 1 0 1 0 1 0 1 0 1 0 1 1 1 0 
1 0 1 0 1 0 1 0 1 0 1 0 1 0 1 0 
1 0 1 0 1 0 1 0 1 0 1 0 1 0 1 0 
1 0 1 -1 1 0 1 0 1 0 1 0 1 0 1 0 
1 0 1 1 1 0 1 0 1 1 1 0 1 0 1 1 
1 0 1 0 1 1 1 0 1 0 1 1 1 0 1 0 
1 0 1 1 1 0 1 0 1 0 1 0 1 -1 1 0 
1 0 1 0 1 -1 1 0 1 -1 1 0 1 0 1 0 
1 1 1 1 1 1 0 1 2 2 0 2 2 2 0 2 
2 2 0 3 2 2 0 2 1 1 0 2 1 1 0 2 
1 1 0 3 1 1 0 2 1 1 0 3 1 1 0 2 
1 1 0 3 1 1 0 3 1 1 0 3 1 1 0 3 
1 1 0 4 1 1 0 3 1 1 0 4 1 1 0 4 
1 1 0 3 1 1 0 4 1 1 0 4 1 1 0 4 
1 1 0 4 1 1 0 4 1 1 0 5 1 1 0 4 
1 1 0 5 1 1 0 4 1 1 0 5 1 1 0 5 
1 1 0 5 1 1 0 4 1 1 0 5 1 1 0 5 
1 1 0 5 1 1 0 5 1 1 0 5 1 1 0 5 
1 1 0 5 1 1 0 5 1 1 0 5 1 1 0 6 
1 1 0 5 1 1 0 5 1 1 0 6 1 1 0 5 
1 1 0 6 1 1 0 5 1 1 0 6 1 1 0 5 
1 1 0 6 1 1 0 5 1 1 0 6 1 1 0 6 
1 1 0 6 1 1 0 6 1 1 0 5 1 1 0 6 
1 1 0 6 1 1 0 6 1 1 0 6 1 1 0 6 
1 1 0 5 1 1 0 6 1 1 0 6 1 1 0 6 
1 1 0 6 1 1 0 6 1 1 0 5 1 1 0 6 
1 1 0 5 1 1 0 6 1 1 0 5 1 1 0 5 
1 1 0 6 1 1 0 4 1 1 0 6 1 1 0 4 
1 1 0 5 1 1 0 4 1 1 0 4 1 1 0 4 
1 1 0 4 1 1 0 4 1 1 0 3 1 1 0 3 
1 1 0 3 1 1 812 2401 300 MP stroke
0 3 1 1 0 2 1 1 0 2 1 1 0 2 1 1 
0 2 2 2 0 2 2 2 1 1 1 1 1 0 1 0 
1 0 1 0 1 -1 0 -1 2 -2 0 -1 2 -2 0 -3 
2 -2 0 -2 1 -1 0 -3 1 -1 0 -2 1 -1 0 -3 
1 -1 0 -3 1 -1 0 -3 1 -1 0 -4 1 -1 0 -3 
1 -1 0 -4 1 -1 0 -4 1 -1 0 -5 1 -1 0 -4 
1 -1 0 -5 1 -1 0 -5 1 -1 0 -5 1 -1 0 -5 
1 -1 0 -5 1 -1 0 -5 1 -1 0 -5 1 -1 0 -6 
1 -1 0 -5 1 -1 0 -6 1 -1 0 -6 1 -1 0 -5 
1 -1 0 -6 1 -1 0 -6 1 -1 0 -5 1 -1 0 -6 
1 -1 0 -6 1 -1 0 -6 1 -1 0 -6 1 -1 0 -5 
1 -1 0 -6 1 -1 0 -6 1 -1 0 -6 1 -1 0 -5 
1 -1 0 -6 1 -1 0 -6 1 -1 0 -5 1 -1 0 -6 
1 -1 0 -5 1 -1 0 -6 1 -1 0 -6 1 -1 0 -5 
1 -1 0 -6 1 -1 0 -6 1 -1 0 -5 1 -1 0 -6 
1 -1 0 -5 1 -1 0 -5 1 -1 0 -6 1 -1 0 -6 
1 -1 0 -5 1 -1 0 -5 1 -1 0 -6 1 -1 0 -5 
1 -1 0 -6 1 -1 0 -5 1 -1 0 -6 1 -1 0 -5 
1 -1 0 -5 1 -1 0 -5 1 -1 0 -6 1 -1 0 -5 
1 -1 0 -4 1 -1 0 -6 1 -1 0 -4 1 -1 0 -5 
1 -1 0 -5 1 -1 0 -5 1 -1 0 -4 1 -1 0 -4 
1 -1 0 -4 1 -1 0 -5 1 -1 0 -3 1 -1 0 -4 
1 -1 0 -3 1 -1 0 -4 1 -1 0 -3 1 -1 0 -3 
1 -1 0 -2 1 -1 0 -3 1 -1 0 -2 1 -1 0 -1 
1 -1 0 -3 707 2877 195 MP stroke
DA
/c9 { 0.930000 0.000000 0.000000 sr} bdef
c9
1 0 1 0 1 0 1 0 1 0 1 0 1 0 1 0 
1 0 1 0 1 0 1 0 1 0 1 0 1 0 1 0 
1 0 1 0 1 0 1 0 1 0 1 0 1 0 1 0 
1 0 1 0 1 0 1 0 1 0 1 0 1 0 1 0 
1 0 1 0 1 0 1 0 1 0 1 0 1 0 1 0 
1 0 1 0 1 0 1 0 1 0 1 0 1 0 1 0 
1 0 1 0 1 0 1 0 1 0 1 0 1 0 1 0 
1 0 1 0 1 0 1 0 1 0 1 0 1 0 1 0 
1 0 1 0 1 0 1 0 1 0 1 0 1 0 1 0 
1 0 1 0 1 0 1 0 1 0 1 0 1 0 1 0 
1 0 1 0 1 0 1 0 1 0 1 0 1 0 1 0 
1 0 1 0 1 0 1 0 1 0 1 0 1 0 1 0 
1 0 1 0 1 0 1 0 1 0 1 0 1 0 1 0 
1 0 1 0 1 0 1 0 1 0 1 0 1 0 1 0 
1 0 1 0 1 0 1 0 1 0 1 0 1 0 1 0 
1 0 1 0 1 0 1 0 1 0 1 0 1 0 1 0 
1 0 1 0 1 0 1 0 1 0 1 0 1 0 1 0 
1 0 1 0 1 0 1 0 1 0 1 0 1 0 1 0 
1 0 1 0 1 0 1 0 1 0 1 0 1 0 1 0 
1 0 1 0 1 0 1 0 1 0 1 0 1 0 1 0 
1 0 1 0 1 0 1 0 1 0 1 0 1 0 1 0 
1 0 1 0 1 0 1 0 1 0 1 0 1 0 1 0 
1 0 1 0 1 0 1 0 1 0 1 0 1 0 1 0 
1 0 1 0 1 0 1 0 1 0 1 0 1 0 1 0 
1 0 1 0 1 0 1 0 1 0 1 0 1 0 1 0 
1 0 1 0 1 0 1 0 1 0 1 0 1 0 1 0 
1 0 1 0 1 0 1 0 1 0 1 0 1 0 1 0 
1 0 1 0 1 0 1 0 1 0 1 0 1 0 1 0 
1 0 1 0 1 0 1 0 1 0 1 0 1 0 1 0 
1 0 1 0 1 0 1 0 1 0 1 0 1 0 1 0 
1 0 1 0 1 0 1 0 1 0 1 0 1 0 1 0 
1 0 1 0 1 0 1 0 1 0 1 0 1 0 1 0 
1 0 1 0 1 0 1 0 1 0 1 0 1 0 1 0 
1 0 1 0 1 0 1 0 1 0 1 0 1 0 1 0 
1 0 1 0 1 0 1 0 1 0 1 0 1 0 1 0 
1 0 1 0 1 0 1 0 1 0 1 0 1 0 1 0 
1 0 1 0 1 0 1 0 1 0 1 0 1 0 1 0 
1 0 1 0 1 0 5341 1169 300 MP stroke
1 0 1 0 1 0 1 0 1 0 1 0 1 0 1 0 
1 0 1 0 1 0 1 0 1 0 1 0 1 0 1 0 
1 0 1 0 1 0 1 0 1 0 1 0 1 0 1 0 
1 0 1 0 1 0 1 0 1 0 1 0 1 0 1 0 
1 0 1 0 1 0 1 0 1 0 1 0 1 0 1 0 
1 0 1 0 1 0 1 0 1 0 1 0 1 0 1 0 
1 0 1 0 1 0 1 0 1 0 1 0 1 0 1 0 
1 0 1 0 1 0 1 0 1 0 1 0 1 0 1 0 
1 0 1 0 1 0 1 0 1 0 1 0 1 0 1 0 
1 0 1 0 1 0 1 0 1 0 1 0 1 0 1 0 
1 0 1 0 1 0 1 0 1 0 1 0 1 0 1 0 
1 0 1 0 1 0 1 0 1 0 1 0 1 0 1 0 
1 0 1 0 1 0 1 0 1 0 1 0 1 0 1 0 
1 0 1 0 1 0 1 0 1 0 1 0 1 0 1 0 
1 0 1 0 1 0 1 0 1 0 1 0 1 0 1 0 
1 0 1 0 1 0 1 0 1 0 1 0 1 0 1 0 
1 0 1 0 1 0 1 0 1 0 1 0 1 0 1 0 
1 0 1 0 1 0 1 0 1 0 1 0 1 0 1 0 
1 0 1 0 1 0 1 0 1 0 1 0 1 0 1 0 
1 0 1 0 1 0 1 0 1 0 1 0 1 0 1 0 
1 0 1 0 1 0 1 0 1 0 1 0 1 0 1 0 
1 0 1 0 1 0 1 0 1 0 1 0 1 0 1 0 
1 0 1 0 1 0 1 0 1 0 1 0 1 0 1 0 
1 0 1 0 1 0 1 0 1 0 1 0 1 0 1 0 
1 0 1 0 1 0 1 0 1 0 1 0 1 0 1 0 
1 0 1 0 1 0 1 0 1 0 1 0 1 0 1 0 
1 0 1 0 1 0 1 0 1 0 1 0 1 0 1 0 
1 0 1 0 1 0 1 0 1 0 1 0 1 0 1 0 
1 0 1 0 1 0 1 0 1 0 1 0 1 0 1 0 
1 0 1 0 1 0 1 0 1 0 1 0 1 0 1 0 
1 0 1 0 1 0 1 0 1 0 1 0 1 0 1 0 
1 0 1 0 1 0 1 0 1 0 1 0 1 0 1 0 
1 0 1 0 1 0 1 0 1 0 1 0 1 0 1 0 
1 0 1 0 1 0 1 0 1 0 1 0 1 0 1 0 
1 0 1 0 1 0 1 0 1 0 1 0 1 0 1 0 
1 0 1 0 1 0 1 0 1 0 1 0 1 0 1 0 
1 0 1 0 1 0 1 0 1 0 1 0 1 0 1 0 
1 0 1 0 1 0 5042 1169 300 MP stroke
1 0 1 0 1 0 1 0 1 0 1 0 1 0 1 0 
1 0 1 0 1 0 1 0 1 0 1 0 1 0 1 0 
1 0 1 0 1 0 1 0 1 0 1 0 1 0 1 0 
1 0 1 0 1 0 1 0 1 0 1 0 1 0 1 0 
1 0 1 0 1 0 1 0 1 0 1 0 1 0 1 0 
1 0 1 0 1 0 1 0 1 0 1 0 1 0 1 0 
1 0 1 0 1 0 1 0 1 0 1 0 1 0 1 0 
1 0 1 0 1 0 1 0 1 0 1 0 1 0 1 0 
1 0 1 0 1 0 1 0 1 0 1 0 1 0 1 0 
1 0 1 0 1 0 1 0 1 0 1 0 1 0 1 0 
1 0 1 0 1 0 1 0 1 0 1 0 1 0 1 0 
1 0 1 0 1 0 1 0 1 0 1 0 1 0 1 0 
1 0 1 0 1 0 1 0 1 0 1 0 1 0 1 0 
1 0 1 0 1 0 1 0 1 0 1 0 1 0 1 0 
1 0 1 0 1 0 1 0 1 0 1 0 1 0 1 0 
1 0 1 0 1 0 1 0 1 0 1 0 1 0 1 0 
1 0 1 0 1 0 1 0 1 0 1 0 1 0 1 0 
1 0 1 0 1 0 1 0 1 0 1 0 1 0 1 0 
1 0 1 0 1 0 1 0 1 0 1 0 1 0 1 0 
1 0 1 0 1 0 1 0 1 0 1 0 1 0 1 0 
1 0 1 0 1 0 1 0 1 0 1 0 1 0 1 0 
1 0 1 0 1 0 1 0 1 0 1 0 1 0 1 0 
1 0 1 0 1 0 1 0 1 0 1 0 1 0 1 0 
1 0 1 0 1 0 1 0 1 0 1 0 1 0 1 0 
1 0 1 0 1 0 1 0 1 0 1 0 1 0 1 0 
1 0 1 0 1 0 1 0 1 0 1 0 1 0 1 0 
1 0 1 0 1 0 1 0 1 0 1 0 1 0 1 0 
1 0 1 0 1 0 1 0 1 0 1 0 1 0 1 0 
1 0 1 0 1 0 1 0 1 0 1 0 1 0 1 0 
1 0 1 0 1 0 1 0 1 0 1 0 1 0 1 0 
1 0 1 0 1 0 1 0 1 0 1 0 1 0 1 0 
1 0 1 0 1 0 1 0 1 0 1 0 1 0 1 0 
1 0 1 0 1 0 1 0 1 0 1 0 1 0 1 0 
1 0 1 0 1 0 1 0 1 0 1 0 1 0 1 0 
1 0 1 0 1 0 1 0 1 0 1 0 1 0 1 0 
1 0 1 0 1 0 1 0 1 0 1 0 1 0 1 0 
1 0 1 0 1 0 1 0 1 0 1 0 1 0 1 0 
1 0 1 0 1 0 4743 1169 300 MP stroke
1 0 1 0 1 0 1 0 1 0 1 0 1 0 1 0 
1 0 1 0 1 0 1 0 1 0 1 0 1 0 1 0 
1 0 1 0 1 0 1 0 1 0 1 0 1 0 1 0 
1 0 1 0 1 0 1 0 1 0 1 0 1 0 1 0 
1 0 1 0 1 0 1 0 1 0 1 0 1 0 1 0 
1 0 1 0 1 0 1 0 1 0 1 0 1 0 1 0 
1 0 1 0 1 0 1 0 1 0 1 0 1 0 1 0 
1 0 1 0 1 0 1 0 1 0 1 0 1 0 1 0 
1 0 1 0 1 0 1 0 1 0 1 0 1 0 1 0 
1 0 1 0 1 0 1 0 1 0 1 0 1 0 1 0 
1 0 1 0 1 0 1 0 1 0 1 0 1 0 1 0 
1 0 1 0 1 0 1 0 1 0 1 0 1 0 1 0 
1 0 1 0 1 0 1 0 1 0 1 0 1 0 1 0 
1 0 1 0 1 0 1 0 1 0 1 0 1 0 1 0 
1 0 1 0 1 0 1 0 1 0 1 0 1 0 1 0 
1 0 1 0 1 0 1 0 1 0 1 0 1 0 1 0 
1 0 1 0 1 0 1 0 1 0 1 0 1 0 1 0 
1 0 1 0 1 0 1 0 1 0 1 0 1 0 1 0 
1 0 1 0 1 0 1 0 1 0 1 0 1 0 1 0 
1 0 1 0 1 0 1 0 1 0 1 0 1 0 1 0 
1 0 1 0 1 0 1 0 1 0 1 0 1 0 1 0 
1 0 1 0 1 0 1 0 1 0 1 0 1 0 1 0 
1 0 1 0 1 0 1 0 1 0 1 0 1 0 1 0 
1 0 1 0 1 0 1 0 1 0 1 0 1 0 1 0 
1 0 1 0 1 0 1 0 1 0 1 0 1 0 1 0 
1 0 1 0 1 0 1 0 1 0 1 0 1 0 1 0 
1 0 1 0 1 0 1 0 1 0 1 0 1 0 1 0 
1 0 1 0 1 0 1 0 1 0 1 0 1 0 1 0 
1 0 1 0 1 0 1 0 1 0 1 0 1 0 1 0 
1 0 1 0 1 0 1 0 1 0 1 0 1 0 1 0 
1 0 1 0 1 0 1 0 1 0 1 0 1 0 1 0 
1 0 1 0 1 0 1 0 1 0 1 0 1 0 1 0 
1 0 1 0 1 0 1 0 1 0 1 0 1 0 1 0 
1 0 1 0 1 0 1 0 1 0 1 0 1 0 1 0 
1 0 1 0 1 0 1 0 1 0 1 0 1 0 1 0 
1 0 1 0 1 0 1 0 1 0 1 0 1 0 1 0 
1 0 1 0 1 0 1 0 1 0 1 0 1 0 1 0 
1 0 1 0 1 0 4444 1169 300 MP stroke
1 0 1 0 1 0 1 0 1 0 1 0 1 0 1 0 
1 0 1 0 1 0 1 0 1 0 1 0 1 0 1 0 
1 0 1 0 1 0 1 0 1 0 1 0 1 0 1 0 
1 0 1 0 1 0 1 0 1 0 1 0 1 0 1 0 
1 0 1 0 1 0 1 0 1 0 1 0 1 0 1 0 
1 0 1 0 1 0 1 0 1 0 1 0 1 0 1 0 
1 0 1 0 1 0 1 0 1 0 1 0 1 0 1 0 
1 0 1 0 1 0 1 0 1 0 1 0 1 0 1 0 
1 0 1 0 1 0 1 0 1 0 1 0 1 0 1 0 
1 0 1 0 1 0 1 0 1 0 1 0 1 0 1 0 
1 0 1 0 1 0 1 0 1 0 1 0 1 0 1 0 
1 0 1 0 1 0 1 0 1 0 1 0 1 0 1 0 
1 0 1 0 1 0 1 0 1 0 1 0 1 0 1 0 
1 0 1 0 1 0 1 0 1 0 1 0 1 0 1 0 
1 0 1 0 1 0 1 0 1 0 1 0 1 0 1 0 
1 0 1 0 1 0 1 0 1 0 1 0 1 0 1 0 
1 0 1 0 1 0 1 0 1 0 1 0 1 0 1 0 
1 0 1 0 1 0 1 0 1 0 1 0 1 0 1 0 
1 0 1 0 1 0 1 0 1 0 1 0 1 0 1 0 
1 0 1 0 1 0 1 0 1 0 1 0 1 0 1 0 
1 0 1 0 1 0 1 0 1 0 1 0 1 0 1 0 
1 0 1 0 1 0 1 0 1 0 1 0 1 0 1 0 
1 0 1 0 1 0 1 0 1 0 1 0 1 0 1 0 
1 0 1 0 1 0 1 0 1 0 1 0 1 0 1 0 
1 0 1 0 1 0 1 0 1 0 1 0 1 0 1 0 
1 0 1 0 1 0 1 0 1 0 1 0 1 0 1 0 
1 0 1 0 1 0 1 0 1 0 1 0 1 0 1 0 
1 0 1 0 1 0 1 0 1 0 1 0 1 0 1 0 
1 0 1 0 1 0 1 0 1 0 1 0 1 0 1 0 
1 0 1 0 1 0 1 0 1 0 1 0 1 0 1 0 
1 0 1 0 1 0 1 0 1 0 1 0 1 0 1 0 
1 0 1 0 1 0 1 0 1 0 1 0 1 0 1 0 
1 0 1 0 1 0 1 0 1 0 1 0 1 0 1 0 
1 0 1 0 1 0 1 0 1 0 1 0 1 0 1 0 
1 0 1 0 1 0 1 0 1 0 1 0 1 0 1 0 
1 0 1 0 1 0 1 0 1 0 1 0 1 0 1 0 
1 0 1 0 1 0 1 0 1 0 1 0 1 0 1 0 
1 0 1 0 1 0 4145 1169 300 MP stroke
1 0 1 0 1 0 1 0 1 0 1 0 1 0 1 0 
1 0 1 0 1 0 1 0 1 0 1 0 1 0 1 0 
1 0 1 0 1 0 1 0 1 0 1 0 1 0 1 0 
1 0 1 0 1 0 1 0 1 0 1 0 1 0 1 0 
1 0 1 0 1 0 1 0 1 0 1 0 1 0 1 0 
1 0 1 0 1 0 1 0 1 0 1 0 1 0 1 0 
1 0 1 0 1 0 1 0 1 0 1 0 1 0 1 0 
1 0 1 0 1 0 1 0 1 0 1 0 1 0 1 0 
1 0 1 0 1 0 1 0 1 0 1 0 1 0 1 0 
1 0 1 0 1 0 1 0 1 0 1 0 1 0 1 0 
1 0 1 0 1 0 1 0 1 0 1 0 1 0 1 0 
1 0 1 0 1 0 1 0 1 0 1 0 1 0 1 0 
1 0 1 0 1 0 1 0 1 0 1 0 1 0 1 0 
1 0 1 0 1 0 1 0 1 0 1 0 1 0 1 0 
1 0 1 0 1 0 1 0 1 0 1 0 1 0 1 0 
1 0 1 0 1 0 1 0 1 0 1 0 1 0 1 0 
1 0 1 0 1 0 1 0 1 0 1 0 1 0 1 0 
1 0 1 0 1 0 1 0 1 0 1 0 1 0 1 0 
1 0 1 0 1 0 1 0 1 0 1 0 1 0 1 0 
1 0 1 0 1 0 1 0 1 0 1 0 1 0 1 0 
1 0 1 0 1 0 1 0 1 0 1 0 1 0 1 0 
1 0 1 0 1 0 1 0 1 0 1 0 1 0 1 0 
1 0 1 0 1 0 1 0 1 0 1 0 1 0 1 0 
1 0 1 0 1 0 1 0 1 0 1 0 1 0 1 0 
1 0 1 0 1 0 1 0 1 0 1 0 1 0 1 0 
1 0 1 0 1 0 1 0 1 0 1 0 1 0 1 0 
1 0 1 0 1 0 1 0 1 0 1 0 1 0 1 0 
1 0 1 0 1 0 1 0 1 0 1 0 1 0 1 0 
1 0 1 0 1 0 1 0 1 0 1 0 1 0 1 0 
1 0 1 0 1 0 1 0 1 0 1 0 1 0 1 0 
1 0 1 0 1 0 1 0 1 0 1 0 1 0 1 0 
1 0 1 0 1 0 1 0 1 0 1 0 1 0 1 0 
1 0 1 0 1 0 1 0 1 0 1 0 1 0 1 0 
1 0 1 0 1 0 1 0 1 0 1 0 1 0 1 0 
1 0 1 0 1 0 1 0 1 0 1 0 1 0 1 0 
1 0 1 0 1 0 1 0 1 0 1 0 1 0 1 0 
1 0 1 0 1 0 1 0 1 0 1 0 1 0 1 0 
1 0 1 0 1 0 3846 1169 300 MP stroke
1 0 1 0 1 0 1 0 1 0 1 0 1 0 1 0 
1 0 1 0 1 0 1 0 1 0 1 0 1 0 1 0 
1 0 1 0 1 0 1 0 1 0 1 0 1 0 1 0 
1 0 1 0 1 0 1 0 1 0 1 0 1 0 1 0 
1 0 1 0 1 0 1 0 1 0 1 0 1 0 1 0 
1 0 1 0 1 0 1 0 1 0 1 0 1 0 1 0 
1 0 1 0 1 0 1 0 1 0 1 0 1 0 1 0 
1 0 1 0 1 0 1 0 1 0 1 0 1 0 1 0 
1 0 1 0 1 0 1 0 1 0 1 0 1 0 1 0 
1 0 1 0 1 0 1 0 1 0 1 0 1 0 1 0 
1 0 1 0 1 0 1 0 1 0 1 0 1 0 1 0 
1 0 1 0 1 0 1 0 1 0 1 0 1 0 1 0 
1 0 1 0 1 0 1 0 1 0 1 0 1 0 1 0 
1 0 1 0 1 0 1 0 1 0 1 0 1 0 1 0 
1 0 1 0 1 0 1 0 1 0 1 0 1 0 1 0 
1 0 1 0 1 0 1 0 1 0 1 0 1 0 1 0 
1 0 1 0 1 0 1 0 1 0 1 0 1 0 1 0 
1 0 1 0 1 0 1 0 1 0 1 0 1 0 1 0 
1 0 1 0 1 0 1 0 1 0 1 0 1 0 1 0 
1 0 1 0 1 0 1 0 1 0 1 0 1 0 1 0 
1 0 1 0 1 0 1 0 1 0 1 0 1 0 1 0 
1 0 1 0 1 0 1 0 1 0 1 0 1 0 1 0 
1 0 1 0 1 0 1 0 1 0 1 0 1 0 1 0 
1 0 1 0 1 0 1 0 1 0 1 0 1 0 1 0 
1 0 1 0 1 0 1 0 1 0 1 0 1 0 1 0 
1 0 1 0 1 0 1 0 1 0 1 0 1 0 1 0 
1 0 1 0 1 0 1 0 1 0 1 0 1 0 1 0 
1 0 1 0 1 0 1 0 1 0 1 0 1 0 1 0 
1 0 1 0 1 0 1 0 1 0 1 0 1 0 1 0 
1 0 1 0 1 0 1 0 1 0 1 0 1 0 1 0 
1 0 1 0 1 0 1 0 1 0 1 0 1 0 1 0 
1 0 1 0 1 0 1 0 1 0 1 0 1 0 1 0 
1 0 1 0 1 0 1 0 1 0 1 0 1 0 1 0 
1 0 1 0 1 0 1 0 1 0 1 0 1 0 1 0 
1 0 1 0 1 0 1 0 1 0 1 0 1 0 1 0 
1 0 1 0 1 0 1 0 1 0 1 0 1 0 1 0 
1 0 1 0 1 0 1 0 1 0 1 0 1 0 1 0 
1 0 1 0 1 0 3547 1169 300 MP stroke
1 0 1 0 1 0 1 0 1 0 1 0 1 0 1 0 
1 0 1 0 1 0 1 0 1 0 1 0 1 0 1 0 
1 0 1 0 1 0 1 0 1 0 1 0 1 0 1 0 
1 0 1 0 1 0 1 0 1 0 1 0 1 0 1 0 
1 0 1 0 1 0 1 0 1 0 1 0 1 0 1 0 
1 0 1 0 1 0 1 0 1 0 1 0 1 0 1 0 
1 0 1 0 1 0 1 0 1 0 1 0 1 0 1 0 
1 0 1 0 1 0 1 0 1 0 1 0 1 0 1 0 
1 0 1 0 1 0 1 0 1 0 1 0 1 0 1 0 
1 0 1 0 1 0 1 0 1 0 1 0 1 0 1 0 
1 0 1 0 1 0 1 0 1 0 1 0 1 0 1 0 
1 0 1 0 1 0 1 0 1 0 1 0 1 0 1 0 
1 0 1 0 1 0 1 0 1 0 1 0 1 0 1 0 
1 0 1 0 1 0 1 0 1 0 1 0 1 0 1 0 
1 0 1 0 1 0 1 0 1 0 1 0 1 0 1 0 
1 0 1 0 1 0 1 0 1 0 1 0 1 0 1 0 
1 0 1 0 1 0 1 0 1 0 1 0 1 0 1 0 
1 0 1 0 1 0 1 0 1 0 1 0 1 0 1 0 
1 0 1 0 1 0 1 0 1 0 1 0 1 0 1 0 
1 0 1 0 1 0 1 0 1 0 1 0 1 0 1 0 
1 0 1 0 1 0 1 0 1 0 1 0 1 0 1 0 
1 0 1 0 1 0 1 0 1 0 1 0 1 0 1 0 
1 0 1 0 1 0 1 0 1 0 1 0 1 0 1 0 
1 0 1 0 1 0 1 0 1 0 1 0 1 0 1 0 
1 0 1 0 1 0 1 0 1 0 1 0 1 0 1 0 
1 0 1 0 1 0 1 0 1 0 1 0 1 0 1 0 
1 0 1 0 1 0 1 0 1 0 1 0 1 0 1 0 
1 0 1 0 1 0 1 0 1 0 1 0 1 0 1 0 
1 0 1 0 1 0 1 0 1 0 1 0 1 0 1 0 
1 0 1 0 1 0 1 0 1 0 1 0 1 0 1 0 
1 0 1 0 1 0 1 0 1 0 1 0 1 0 1 0 
1 0 1 0 1 0 1 0 1 0 1 0 1 0 1 0 
1 0 1 0 1 0 1 0 1 0 1 0 1 0 1 0 
1 0 1 0 1 0 1 0 1 0 1 0 1 0 1 0 
1 0 1 0 1 0 1 0 1 0 1 0 1 0 1 0 
1 0 1 0 1 0 1 0 1 0 1 0 1 0 1 0 
1 0 1 0 1 0 1 0 1 0 1 0 1 0 1 0 
1 0 1 0 1 0 3248 1169 300 MP stroke
1 0 1 0 1 0 1 0 1 0 1 0 1 0 1 0 
1 0 1 0 1 0 1 0 1 0 1 0 1 0 1 0 
1 0 1 0 1 0 1 0 1 0 1 0 1 0 1 0 
1 0 1 0 1 0 1 0 1 0 1 0 1 0 1 0 
1 0 1 0 1 0 1 0 1 0 1 0 1 0 1 0 
1 0 1 0 1 0 1 0 1 0 1 0 1 0 1 0 
1 0 1 0 1 0 1 0 1 0 1 0 1 0 1 0 
1 0 1 0 1 0 1 0 1 0 1 0 1 0 1 0 
1 0 1 0 1 0 1 0 1 0 1 0 1 0 1 0 
1 0 1 0 1 0 1 0 1 0 1 0 1 0 1 0 
1 0 1 0 1 0 1 0 1 0 1 0 1 0 1 0 
1 0 1 0 1 0 1 0 1 0 1 0 1 0 1 0 
1 0 1 0 1 0 1 0 1 0 1 0 1 0 1 0 
1 0 1 0 1 0 1 0 1 0 1 0 1 0 1 0 
1 0 1 0 1 0 1 0 1 0 1 0 1 0 1 0 
1 0 1 0 1 0 1 0 1 0 1 0 1 0 1 0 
1 0 1 0 1 0 1 0 1 0 1 0 1 0 1 0 
1 0 1 0 1 0 1 0 1 0 1 0 1 0 1 0 
1 0 1 0 1 0 1 0 1 0 1 0 1 0 1 0 
1 0 1 0 1 0 1 0 1 0 1 0 1 0 1 0 
1 0 1 0 1 0 1 0 1 0 1 0 1 0 1 0 
1 0 1 0 1 0 1 0 1 0 1 0 1 0 1 0 
1 0 1 0 1 0 1 0 1 0 1 0 1 0 1 0 
1 0 1 0 1 0 1 0 1 0 1 0 1 0 1 0 
1 0 1 0 1 0 1 0 1 0 1 0 1 0 1 0 
1 0 1 0 1 0 1 0 1 0 1 0 1 0 1 0 
1 0 1 0 1 0 1 0 1 0 1 0 1 0 1 0 
1 0 1 0 1 0 1 0 1 0 1 0 1 0 1 0 
1 0 1 0 1 0 1 0 1 0 1 0 1 0 1 0 
1 0 1 0 1 0 1 0 1 0 1 0 1 0 1 0 
1 0 1 0 1 0 1 0 1 0 1 0 1 0 1 0 
1 0 1 0 1 0 1 0 1 0 1 0 1 0 1 0 
1 0 1 0 1 0 1 0 1 0 1 0 1 0 1 0 
1 0 1 0 1 0 1 0 1 0 1 0 1 0 1 0 
1 0 1 0 1 0 1 0 1 0 1 0 1 0 1 0 
1 0 1 0 1 0 1 0 1 0 1 0 1 0 1 0 
1 0 1 0 1 0 1 0 1 0 1 0 1 0 1 0 
1 0 1 0 1 0 2949 1169 300 MP stroke
1 0 1 0 1 0 1 0 1 0 1 0 1 0 1 0 
1 0 1 0 1 0 1 0 1 0 1 0 1 0 1 0 
1 0 1 0 1 0 1 0 1 0 1 0 1 0 1 0 
1 0 1 0 1 0 1 0 1 0 1 0 1 0 1 0 
1 0 1 0 1 0 1 0 1 0 1 0 1 0 1 0 
1 0 1 0 1 0 1 0 1 0 1 0 1 0 1 0 
1 0 1 0 1 0 1 0 1 0 1 0 1 0 1 0 
1 0 1 0 1 0 1 0 1 0 1 0 1 0 1 0 
1 0 1 0 1 0 1 0 1 0 1 0 1 0 1 0 
1 0 1 0 1 0 1 0 1 0 1 0 1 0 1 0 
1 0 1 0 1 0 1 0 1 0 1 0 1 0 1 0 
1 0 1 0 1 0 1 0 1 0 1 0 1 0 1 0 
1 0 1 0 1 0 1 0 1 0 1 0 1 0 1 0 
1 0 1 0 1 0 1 0 1 0 1 0 1 0 1 0 
1 0 1 0 1 0 1 0 1 0 1 0 1 0 1 0 
1 0 1 0 1 0 1 0 1 0 1 0 1 0 1 0 
1 0 1 0 1 0 1 0 1 0 1 0 1 0 1 0 
1 0 1 0 1 0 1 0 1 0 1 0 1 0 1 0 
1 0 1 0 1 0 1 0 1 0 1 0 1 0 1 0 
1 0 1 0 1 0 1 0 1 0 1 0 1 0 1 0 
1 0 1 0 1 0 1 0 1 0 1 0 1 0 1 0 
1 0 1 0 1 0 1 0 1 0 1 0 1 0 1 0 
1 0 1 0 1 0 1 0 1 0 1 0 1 0 1 0 
1 0 1 0 1 0 1 0 1 0 1 0 1 0 1 0 
1 0 1 0 1 0 1 0 1 0 1 0 1 0 1 0 
1 0 1 0 1 0 1 0 1 0 1 0 1 0 1 0 
1 0 1 0 1 0 1 0 1 0 1 0 1 0 1 0 
1 0 1 0 1 0 1 0 1 0 1 0 1 0 1 0 
1 0 1 0 1 0 1 0 1 0 1 0 1 0 1 0 
1 0 1 0 1 0 1 0 1 0 1 0 1 0 1 0 
1 0 1 0 1 0 1 0 1 0 1 0 1 0 1 0 
1 0 1 0 1 0 1 0 1 0 1 0 1 0 1 0 
1 0 1 0 1 0 1 0 1 0 1 0 1 0 1 0 
1 0 1 0 1 0 1 0 1 0 1 0 1 0 1 0 
1 0 1 0 1 0 1 0 1 0 1 0 1 0 1 0 
1 0 1 0 1 0 1 0 1 0 1 0 1 0 1 0 
1 0 1 0 1 0 1 0 1 0 1 0 1 0 1 0 
1 0 1 0 1 0 2650 1169 300 MP stroke
1 0 1 0 1 0 1 0 1 0 1 0 1 0 1 0 
1 0 1 0 1 0 1 0 1 0 1 0 1 0 1 0 
1 0 1 0 1 0 1 0 1 0 1 0 1 0 1 0 
1 0 1 0 1 0 1 0 1 0 1 0 1 0 1 0 
1 0 1 0 1 0 1 0 1 0 1 0 1 0 1 0 
1 0 1 0 1 0 1 0 1 0 1 0 1 0 1 0 
1 0 1 0 1 0 1 0 1 0 1 0 1 0 1 0 
1 0 1 0 1 0 1 0 1 0 1 0 1 0 1 0 
1 0 1 0 1 0 1 0 1 0 1 0 1 0 1 0 
1 0 1 0 1 0 1 0 1 0 1 0 1 0 1 0 
1 0 1 0 1 0 1 0 1 0 1 0 1 0 1 0 
1 0 1 0 1 0 1 0 1 0 1 0 1 0 1 0 
1 0 1 0 1 0 1 0 1 0 1 0 1 0 1 0 
1 0 1 0 1 0 1 0 1 0 1 0 1 0 1 0 
1 0 1 0 1 0 1 0 1 0 1 0 1 0 1 0 
1 0 1 0 1 0 1 0 1 0 1 0 1 0 1 0 
1 0 1 0 1 0 1 0 1 0 1 0 1 0 1 0 
1 0 1 0 1 0 1 0 1 0 1 0 1 0 1 0 
1 0 1 0 1 0 1 0 1 0 1 0 1 0 1 0 
1 0 1 0 1 0 1 0 1 0 1 0 1 0 1 0 
1 0 1 0 1 0 1 0 1 0 1 0 1 0 1 0 
1 0 1 0 1 0 1 0 1 0 1 0 1 0 1 0 
1 0 1 0 1 0 1 0 1 0 1 0 1 0 1 0 
1 0 1 0 1 0 1 0 1 0 1 0 1 0 1 0 
1 0 1 0 1 0 1 0 1 0 1 0 1 0 1 0 
1 0 1 0 1 0 1 0 1 0 1 0 1 0 1 0 
1 0 1 0 1 0 1 0 1 0 1 0 1 0 1 0 
1 0 1 0 1 0 1 0 1 0 1 0 1 0 1 0 
1 0 1 0 1 0 1 0 1 0 1 0 1 0 1 0 
1 0 1 0 1 0 1 0 1 0 1 0 1 0 1 0 
1 0 1 0 1 0 1 0 1 0 1 0 1 0 1 0 
1 0 1 0 1 0 1 0 1 0 1 0 1 0 1 0 
1 0 1 0 1 0 1 0 1 0 1 0 1 0 1 0 
1 0 1 0 1 0 1 0 1 0 1 0 1 0 1 0 
1 0 1 0 1 0 1 0 1 0 1 0 1 0 1 0 
1 0 1 0 1 0 1 0 1 0 1 0 1 0 1 0 
1 0 1 0 1 0 1 0 1 0 1 0 1 0 1 0 
1 0 1 0 1 0 2351 1169 300 MP stroke
1 0 1 0 1 0 1 0 1 0 1 0 1 0 1 0 
1 0 1 0 1 0 1 0 1 0 1 0 1 0 1 0 
1 0 1 0 1 0 1 0 1 0 1 0 1 0 1 0 
1 0 1 0 1 0 1 0 1 0 1 0 1 0 1 0 
1 0 1 0 1 0 1 0 1 0 1 0 1 0 1 0 
1 0 1 0 1 0 1 0 1 0 1 0 1 0 1 0 
1 0 1 0 1 0 1 0 1 0 1 0 1 0 1 0 
1 0 1 0 1 0 1 0 1 0 1 0 1 0 1 0 
1 0 1 0 1 0 1 0 1 0 1 0 1 0 1 0 
1 0 1 0 1 0 1 0 1 0 1 0 1 0 1 0 
1 0 1 0 1 0 1 0 1 0 1 0 1 0 1 0 
1 0 1 0 1 0 1 0 1 0 1 0 1 0 1 0 
1 0 1 0 1 0 1 0 1 0 1 0 1 0 1 0 
1 0 1 0 1 0 1 0 1 0 1 0 1 0 1 0 
1 0 1 0 1 0 1 0 1 0 1 0 1 0 1 0 
1 0 1 0 1 0 1 0 1 0 1 0 1 0 1 0 
1 0 1 0 1 0 1 0 1 0 1 0 1 0 1 0 
1 0 1 0 1 0 1 0 1 0 1 0 1 0 1 0 
1 0 1 0 1 0 1 0 1 0 1 0 1 0 1 0 
1 0 1 0 1 0 1 0 1 0 1 0 1 0 1 0 
1 0 1 0 1 0 1 0 1 0 1 0 1 0 1 0 
1 0 1 0 1 0 1 0 1 0 1 0 1 0 1 0 
1 0 1 0 1 0 1 0 1 0 1 0 1 0 1 0 
1 0 1 0 1 0 1 0 1 0 1 0 1 0 1 0 
1 0 1 0 1 0 1 0 1 0 1 0 1 0 1 0 
1 0 1 0 1 0 1 0 1 0 1 0 1 0 1 0 
1 0 1 0 1 0 1 0 1 0 1 0 1 0 1 0 
1 0 1 0 1 0 1 0 1 0 1 0 1 0 1 0 
1 0 1 0 1 0 1 0 1 0 1 0 1 0 1 0 
1 0 1 0 1 0 1 0 1 0 1 0 1 0 1 0 
1 0 1 0 1 0 1 0 1 0 1 0 1 0 1 0 
1 0 1 0 1 0 1 0 1 0 1 0 1 0 1 0 
1 0 1 0 1 0 1 0 1 0 1 0 1 0 1 0 
1 0 1 0 1 0 1 0 1 0 1 0 1 0 1 0 
1 0 1 0 1 0 1 0 1 0 1 0 1 0 1 0 
1 0 1 0 1 0 1 0 1 0 1 0 1 0 1 0 
1 0 1 0 1 0 1 0 1 0 1 0 1 0 1 0 
1 0 1 0 1 0 2052 1169 300 MP stroke
1 0 1 0 1 0 1 0 1 0 1 0 1 0 1 0 
1 0 1 0 1 0 1 0 1 0 1 0 1 0 1 0 
1 0 1 0 1 0 1 0 1 0 1 0 1 0 1 0 
1 0 1 0 1 0 1 0 1 0 1 0 1 0 1 0 
1 0 1 0 1 0 1 0 1 0 1 0 1 0 1 0 
1 0 1 0 1 0 1 0 1 0 1 0 1 0 1 0 
1 0 1 0 1 0 1 0 1 0 1 0 1 0 1 0 
1 0 1 0 1 0 1 0 1 0 1 0 1 0 1 0 
1 0 1 0 1 0 1 0 1 0 1 0 1 0 1 0 
1 0 1 0 1 0 1 0 1 0 1 0 1 0 1 0 
1 0 1 0 1 0 1 0 1 0 1 0 1 0 1 0 
1 0 1 0 1 0 1 0 1 0 1 0 1 0 1 0 
1 0 1 0 1 0 1 0 1 0 1 0 1 0 1 0 
1 0 1 0 1 0 1 0 1 0 1 0 1 0 1 0 
1 0 1 0 1 0 1 0 1 0 1 0 1 0 1 0 
1 0 1 0 1 0 1 0 1 0 1 0 1 0 1 0 
1 0 1 0 1 0 1 0 1 0 1 0 1 0 1 0 
1 0 1 0 1 0 1 0 1 0 1 0 1 0 1 0 
1 0 1 0 1 0 1 0 1 0 1 0 1 0 1 0 
1 0 1 0 1 0 1 0 1 0 1 0 1 0 1 0 
1 0 1 0 1 0 1 0 1 0 1 0 1 0 1 0 
1 0 1 0 1 0 1 0 1 0 1 0 1 0 1 0 
1 0 1 0 1 0 1 0 1 0 1 0 1 0 1 0 
1 0 1 0 1 0 1 0 1 0 1 0 1 0 1 0 
1 0 1 0 1 0 1 0 1 0 1 0 1 0 1 0 
1 0 1 0 1 0 1 0 1 0 1 0 1 0 1 0 
1 0 1 0 1 0 1 0 1 0 1 0 1 0 1 0 
1 0 1 0 1 0 1 0 1 0 1 0 1 0 1 0 
1 0 1 0 1 0 1 0 1 0 1 0 1 0 1 0 
1 0 1 0 1 0 1 0 1 0 1 0 1 0 1 0 
1 0 1 0 1 0 1 0 1 0 1 0 1 0 1 0 
1 0 1 0 1 0 1 0 1 0 1 0 1 0 1 0 
1 0 1 0 1 0 1 0 1 0 1 0 1 0 1 0 
1 0 1 0 1 0 1 0 1 0 1 0 1 0 1 0 
1 0 1 0 1 0 1 0 1 0 1 0 1 0 1 0 
1 0 1 0 1 0 1 0 1 0 1 0 1 0 1 0 
1 0 1 0 1 0 1 0 1 0 1 0 1 0 1 0 
1 0 1 0 1 0 1753 1169 300 MP stroke
1 0 1 0 1 0 1 0 1 0 1 0 1 0 1 0 
1 0 1 0 1 0 1 0 1 0 1 0 1 0 1 0 
1 0 1 0 1 0 1 0 1 0 1 0 1 0 1 0 
1 0 1 0 1 0 1 0 1 0 1 0 1 0 1 0 
1 0 1 0 1 0 1 0 1 0 1 0 1 0 1 0 
1 0 1 0 1 0 1 0 1 0 1 0 1 0 1 0 
1 0 1 0 1 0 1 0 1 0 1 0 1 0 1 0 
1 0 1 0 1 0 1 0 1 0 1 0 1 0 1 0 
1 0 1 0 1 0 1 0 1 0 1 0 1 0 1 0 
1 0 1 0 1 0 1 0 1 0 1 0 1 0 1 0 
1 0 1 0 1 0 1 0 1 0 1 0 1 0 1 0 
1 0 1 0 1 0 1 0 1 0 1 0 1 0 1 0 
1 0 1 0 1 0 1 0 1 0 1 0 1 0 1 0 
1 0 1 0 1 0 1 0 1 0 1 0 1 0 1 0 
1 0 1 0 1 0 1 0 1 0 1 0 1 0 1 0 
1 0 1 0 1 0 1 0 1 0 1 0 1 0 1 0 
1 0 1 0 1 0 1 0 1 0 1 0 1 0 1 0 
1 0 1 0 1 0 1 0 1 0 1 0 1 0 1 0 
1 0 1 0 1 0 1 0 1 0 1 0 1 0 1 0 
1 0 1 0 1 0 1 0 1 0 1 0 1 0 1 0 
1 0 1 0 1 0 1 0 1 0 1 0 1 0 1 0 
1 0 1 0 1 0 1 0 1 0 1 0 1 0 1 0 
1 0 1 0 1 0 1 0 1 0 1 0 1 0 1 0 
1 0 1 0 1 0 1 0 1 0 1 0 1 0 1 0 
1 0 1 0 1 0 1 0 1 0 1 0 1 0 1 0 
1 0 1 0 1 0 1 0 1 0 1 0 1 0 1 0 
1 0 1 0 1 0 1 0 1 0 1 0 1 0 1 0 
1 0 1 0 1 0 1 0 1 0 1 0 1 0 1 0 
1 0 1 0 1 0 1 0 1 0 1 0 1 0 1 0 
1 0 1 0 1 0 1 0 1 0 1 0 1 0 1 0 
1 0 1 0 1 0 1 0 1 0 1 0 1 0 1 0 
1 0 1 0 1 0 1 0 1 0 1 0 1 0 1 0 
1 0 1 0 1 0 1 0 1 0 1 0 1 0 1 0 
1 0 1 0 1 0 1 0 1 0 1 0 1 0 1 0 
1 0 1 0 1 0 1 0 1 0 1 0 1 0 1 0 
1 0 1 0 1 0 1 0 1 0 1 0 1 0 1 0 
1 0 1 0 1 0 1 0 1 0 1 0 1 0 1 0 
1 0 1 0 1 0 1454 1169 300 MP stroke
1 0 1 0 1 0 1 0 1 0 1 0 1 0 1 0 
1 0 1 0 1 0 1 0 1 0 1 0 1 0 1 0 
1 0 1 0 1 0 1 0 1 0 1 0 1 0 1 0 
1 0 1 0 1 0 1 0 1 0 1 0 1 0 1 0 
1 0 1 0 1 0 1 0 1 0 1 0 1 0 1 0 
1 0 1 0 1 0 1 0 1 0 1 0 1 0 1 0 
1 0 1 0 1 0 1 0 1 0 1 0 1 0 1 0 
1 0 1 0 1 0 1 0 1 0 1 0 1 0 1 0 
1 0 1 0 1 0 1 0 1 0 1 0 1 0 1 0 
1 0 1 0 1 0 1 0 1 0 1 0 1 0 1 0 
1 0 1 0 1 0 1 0 1 0 1 0 1 0 1 0 
1 0 1 0 1 0 1 0 1 0 1 0 1 0 1 0 
1 0 1 0 1 0 1 0 1 0 1 0 1 0 1 0 
1 0 1 0 1 0 1 0 1 0 1 0 1 0 1 0 
1 0 1 0 1 0 1 0 1 0 1 0 1 0 1 0 
1 0 1 0 1 0 1 0 1 0 1 0 1 0 1 0 
1 0 1 0 1 0 1 0 1 0 1 0 1 0 1 0 
1 0 1 0 1 0 1 0 1 0 1 0 1 0 1 0 
1 0 1 0 1 0 1 0 1 0 1 0 1 0 1 0 
1 0 1 0 1 0 1 0 1 0 1 0 1 0 1 0 
1 0 1 0 1 0 1 0 1 0 1 0 1 0 1 0 
1 0 1 0 1 0 1 0 1 0 1 0 1 0 1 0 
1 0 1 0 1 0 1 0 1 0 1 0 1 0 1 0 
1 0 1 0 1 0 1 0 1 0 1 0 1 0 1 0 
1 0 1 0 1 0 1 0 1 0 1 0 1 0 1 0 
1 0 1 0 1 0 1 0 1 0 1 0 1 0 1 0 
1 0 1 0 1 0 1 0 1 0 1 0 1 0 1 0 
1 0 1 0 1 0 1 0 1 0 1 0 1 0 1 0 
1 0 1 0 1 0 1 0 1 0 1 0 1 0 1 0 
1 0 1 0 1 0 1 0 1 0 1 0 1 0 1 0 
1 0 1 0 1 0 1 0 1 0 1 0 1 0 1 0 
1 0 1 0 1 0 1 0 1 0 1 0 1 0 1 0 
1 0 1 0 1 0 1 0 1 0 1 0 1 0 1 0 
1 0 1 0 1 0 1 0 1 0 1 0 1 0 1 0 
1 0 1 0 1 0 1 0 1 0 1 0 1 0 1 0 
1 0 1 0 1 0 1 0 1 0 1 0 1 0 1 0 
1 0 1 0 1 0 1 0 1 0 1 0 1 0 1 0 
1 0 1 0 1 0 1155 1169 300 MP stroke
1 0 1 0 1 0 1 0 1 0 1 0 1 0 1 0 
1 0 1 0 1 0 1 0 1 0 1 0 1 0 1 0 
1 0 1 0 1 0 1 0 1 0 1 0 1 0 1 0 
1 0 1 0 1 0 1 0 1 0 1 0 1 0 1 0 
1 0 1 0 1 0 1 0 1 0 1 0 1 0 1 0 
1 0 1 0 1 0 1 0 1 0 1 0 1 0 1 0 
1 0 1 0 1 0 1 0 1 0 1 0 1 0 1 0 
1 0 1 0 1 0 1 0 1 0 1 0 1 0 1 0 
1 0 1 0 1 0 1 0 1 0 1 0 1 0 1 0 
1 0 1 0 1 0 1 0 1 0 1 0 1 0 1 0 
1 0 1 0 1 0 1 0 1 0 1 0 1 0 1 0 
1 0 1 0 1 0 1 0 1 0 1 0 1 0 1 0 
1 0 1 0 1 0 1 0 1 0 1 0 1 0 1 0 
1 0 1 0 1 0 1 0 1 0 1 0 1 0 1 0 
1 0 1 0 1 0 1 0 1 0 1 0 1 0 1 0 
1 0 1 0 1 0 1 0 1 0 1 0 1 0 1 0 
1 0 1 0 1 0 1 0 1 0 1 0 1 0 1 0 
1 0 1 0 1 0 1 0 1 0 1 0 1 0 1 0 
1 0 1 0 1 0 1 0 1 0 1 0 1 0 1 0 
1 0 1 0 1 0 1 0 1 0 1 0 1 0 1 0 
1 0 1 0 1 0 1 0 1 0 1 0 1 0 1 0 
1 0 1 0 1 0 1 0 1 0 1 0 1 0 1 0 
1 0 1 0 1 0 1 0 1 0 1 0 1 0 1 0 
1 0 1 0 1 0 1 0 1 0 1 0 1 0 1 0 
1 0 1 0 1 0 1 0 1 0 1 0 1 0 1 0 
1 0 1 0 1 0 1 0 1 0 1 0 1 0 1 0 
1 0 1 0 1 0 1 0 1 0 1 0 1 0 1 0 
1 0 1 0 1 0 1 0 1 0 1 0 1 0 1 0 
1 0 1 0 1 0 1 0 1 0 1 0 1 0 1 0 
1 0 1 0 1 0 1 0 1 0 1 0 1 0 1 0 
1 0 1 0 1 0 1 0 1 0 1 0 1 0 1 0 
1 0 1 0 1 0 1 0 1 0 1 0 1 0 1 0 
1 0 1 0 1 0 1 0 1 0 1 0 1 0 1 0 
1 0 1 0 1 0 1 0 1 0 1 0 1 0 1 0 
1 0 1 0 1 0 1 0 1 0 1 0 1 0 1 0 
1 0 1 0 1 0 1 0 1 0 1 0 1 0 1 0 
1 0 1 0 1 0 1 0 1 0 1 0 1 0 1 0 
1 0 1 0 1 0 856 1169 300 MP stroke
1 0 1 0 1 0 1 0 1 0 1 0 1 0 1 0 
1 0 1 0 1 0 1 0 1 0 1 0 1 0 1 0 
1 0 1 0 1 0 1 0 1 0 1 0 1 0 1 0 
1 0 1 0 1 0 1 0 1 0 1 0 1 0 1 0 
1 0 1 0 1 0 1 0 1 0 1 0 1 0 1 0 
1 0 1 0 1 0 1 0 1 0 1 0 1 0 1 0 
1 0 1 0 1 0 1 0 1 0 1 0 1 0 1 0 
1 0 1 0 1 0 1 0 1 0 1 0 1 0 1 0 
1 0 1 0 1 0 1 0 1 0 1 0 1 0 1 0 
1 0 1 0 1 0 1 0 1 0 1 0 1 0 1 0 
1 0 1 0 1 0 1 0 1 0 1 0 1 0 1 0 
1 0 1 0 1 0 1 0 1 0 1 0 1 0 1 0 
1 0 1 0 1 0 1 0 1 0 1 0 1 0 1 0 
1 0 1 0 1 0 1 0 1 0 1 0 1 0 1 0 
1 0 1 0 1 0 1 0 1 0 1 0 1 0 1 0 
1 0 1 0 1 0 1 0 1 0 1 0 1 0 1 0 
1 0 1 0 1 0 1 0 1 0 1 0 1 0 1 0 
1 0 1 0 1 0 1 0 1 0 1 0 1 0 1 0 
1 0 1 0 1 0 1 0 1 0 707 1169 150 MP stroke
gr

30 w
c9
DA
0 sg
2964 3285 mt 
(Time \(s\)) s
 227 2227 mt  -90 rotate
(Velocity \(m.s) s
90 rotate
%%IncludeResource: font Helvetica
/Helvetica /ISOLatin1Encoding 144 FMSR

 137 1212 mt  -90 rotate
(-1) s
90 rotate
%%IncludeResource: font Helvetica
/Helvetica /ISOLatin1Encoding 180 FMSR

 227 1048 mt  -90 rotate
(\)) s
90 rotate
%%IncludeResource: font Helvetica
/Helvetica /ISOLatin1Encoding 120 FMSR

 690 2940 mt 
( ) s
5867  347 mt 
( ) s
SO
18 w
6 w
%%IncludeResource: font Helvetica
/Helvetica /ISOLatin1Encoding 180 FMSR

4857  562 mt 
(Tool velocity) s
gs 4332 365 1492 473 rc
30 w
c8
404 0 4412 497 2 MP stroke
gr

30 w
c8
0 sg
4857  769 mt 
(Velocity limit) s
gs 4332 365 1492 473 rc
DA
c9
404 0 4412 704 2 MP stroke
4614 704 PD
SO
6 w
gr

6 w
c9

end %%Color Dict

eplot
%%EndObject

epage
end

showpage

%%Trailer
%%EOF
