0.00210369	2.12205
0.00378476	1.84024
0.00549238	1.89338
0.00733073	2.03859
0.00902502	1.87871
0.0107301	1.8907
0.0131664	2.70305
0.0148957	1.91547
0.0165851	1.87318
0.0183287	1.93389
0.0200717	1.93336
0.0217306	1.8397
0.0236078	2.08233
0.0252653	1.83811
0.0272445	2.19566
0.0292124	2.18255
0.0309577	1.9352
0.0326153	1.83804
0.0342679	1.83274
0.0359262	1.83929
0.0375803	1.83448
0.0395054	2.13482
0.0412801	1.96793
0.0429368	1.83737
0.0445901	1.83348
0.0462452	1.83575
0.0479011	1.8365
0.0495582	1.83767
0.0512102	1.83212
0.0528829	1.8441
0.0545371	1.8344
0.0563242	1.9823
0.0580266	1.88785
0.0596824	1.83631
0.0613356	1.83345
0.0629977	1.84341
0.0646504	1.83277
0.0663075	1.83794
0.0679598	1.83249
0.0696155	1.83631
0.0713439	1.91053
0.0730019	1.8385
0.07487	2.07211
0.0771257	2.49568
0.0788844	1.9482
0.0805398	1.83528
0.0821971	1.83811
0.0838508	1.83381
0.0855073	1.83734
0.087214	1.89288
0.0888755	1.84242
0.0907028	2.02645
0.0923595	1.83723
0.0940651	1.89159
0.0958128	1.93838
0.0975068	1.87785
0.0991621	1.83579
0.1009	1.92786
0.102624	1.90394
0.104406	1.95573
0.106062	1.83666
0.107715	1.83254
0.10937	1.83631
0.111027	1.83739
0.112695	1.85002
0.114348	1.83275
0.116004	1.83641
0.117656	1.83269
0.119405	1.94065
0.121058	1.83306
0.12275	1.87662
0.124439	1.8734
0.126133	1.87803
0.12779	1.83816
0.129677	2.09331
0.131334	1.83653
0.133028	1.87971
0.134718	1.8742
0.136429	1.89696
0.138086	1.83732
0.139745	1.83975
0.141459	1.89553
0.143267	2.00524
0.144922	1.83538
0.146615	1.8774
0.148267	1.83301
0.14996	1.87781
0.151653	1.87775
0.153347	1.87813
0.154999	1.83273
0.156691	1.87702
0.158344	1.83328
0.160044	1.88626
0.16172	1.85869
0.163496	1.96987
0.165189	1.87772
0.166842	1.83384
0.168704	2.06527
0.170394	1.87295
0.172155	1.95418
