0.0110213	12.1324
0.0227254	12.9971
0.0341032	12.6343
0.0448713	11.9564
0.0554286	11.7249
0.0660236	11.7682
0.0765464	11.6878
0.0869392	11.5434
0.0973743	11.5906
0.107798	11.5779
0.118231	11.5883
0.128821	11.7622
0.142955	15.7008
0.154616	12.9475
0.165432	12.0073
0.176015	11.7546
0.186497	11.6426
0.197039	11.7102
0.207762	11.9106
0.218325	11.7312
0.228978	11.8334
0.239455	11.6375
0.250189	11.9225
0.260746	11.7257
0.271557	12.0077
0.281976	11.5726
0.292401	11.5802
0.302894	11.6547
0.313267	11.5217
0.323732	11.6233
0.334548	12.0063
0.34506	11.6761
0.355791	11.9194
0.366446	11.8346
0.37687	11.578
0.387381	11.6756
0.398072	11.8743
0.409245	12.4099
0.42001	11.9542
0.431695	12.9796
0.44252	12.0193
0.4533	11.9729
0.463951	11.8305
0.474675	11.9037
0.485345	11.8456
0.496508	12.3986
0.507681	12.4112
0.518855	12.4101
0.529405	11.7191
0.53995	11.7124
0.550836	12.091
0.5614	11.7338
0.572929	12.8068
0.583441	11.6704
0.594059	11.7935
0.604798	11.9278
0.615279	11.6409
0.62583	11.719
0.636416	11.7579
0.647006	11.7632
0.657429	11.5767
0.66797	11.7002
0.678462	11.6547
0.688986	11.6888
0.699489	11.6656
0.709998	11.6709
0.720521	11.6884
0.730959	11.5938
0.741387	11.5827
0.752371	12.2003
0.763442	12.2959
0.774246	12.0012
0.784749	11.6654
0.795351	11.7757
0.805772	11.5753
0.816289	11.6813
0.826911	11.7981
0.837513	11.7756
0.848033	11.6844
0.858425	11.5423
0.868956	11.6972
0.879382	11.5808
0.889806	11.5787
0.900234	11.5826
0.911909	12.9683
0.923218	12.5547
0.933799	11.7446
0.944169	11.5177
0.95482	11.8304
0.965458	11.8167
0.976231	11.9656
0.986841	11.7843
0.997372	11.698
1.00807	11.8824
1.0188	11.9179
1.0302	12.6606
1.0409	11.8783
1.05159	11.8824
1.0622	11.7773
1.07278	11.7531
