0.0374897	247
0.0737695	247
0.109469	247
0.143389	247
0.177575	247
0.212186	247
0.246791	247
0.281867	247
0.316058	247
0.350153	247
0.38433	247
0.422765	247
0.459686	247
0.493588	247
0.527433	247
0.561453	247
0.597697	247
0.63176	247
0.665669	247
0.699773	247
0.733621	247
0.767671	247
0.801653	247
0.835472	247
0.869241	247
0.90311	247
0.937142	247
0.971521	247
1.00597	247
1.03993	247
1.07834	247
1.11272	247
1.14655	247
1.18085	247
1.21589	247
1.24974	247
1.28471	247
1.31962	247
1.35363	247
1.38778	247
1.42224	247
1.46357	247
1.49763	247
1.53155	247
1.56646	247
1.6016	247
1.6355	247
1.67035	247
1.70679	247
1.74086	247
1.77494	247
1.80897	247
1.84274	247
1.87692	247
1.9112	247
1.94512	247
1.97942	247
2.01367	247
2.04763	247
2.08302	247
2.11766	247
2.15144	247
2.18571	247
2.22322	247
2.26075	247
2.29582	247
2.33047	247
2.36624	247
2.40026	247
2.43458	247
2.47429	247
2.50882	247
2.54257	247
2.5786	247
2.61301	247
2.64675	247
2.68126	247
2.71521	247
2.74933	247
2.78321	247
2.81705	247
2.85076	247
2.88458	247
2.91903	247
2.95299	247
2.98693	247
3.02286	247
3.05704	247
3.09338	247
3.12824	247
3.16251	247
3.19772	247
3.23282	247
3.26691	247
3.30081	247
3.33471	247
3.37067	247
3.40525	247
3.43919	247
3.47713	247
